# Monuments for Rahen and Haless. Monuments added by specific missions do not go here.

aksa_sanuyego = {
	start = 4716	#Aksa Sanuyego

	date = 1100.1.1

	time = {
		months = 120
	}

	build_cost = 1000

	can_be_moved = no

	starting_tier = 1

	#project type
	type = monument

	build_trigger = {
	}

	on_built = {
		show_ambient_object = murud_janjira 
	}

	on_destroyed = {
		hide_ambient_object = murud_janjira 
	}

	can_use_modifiers_trigger = {
		owner = { owns_core_province = 4963 }
	}

	can_upgrade_trigger = {
		owner = { owns_core_province = 4963 }
	}

	keep_trigger = {
	}

	#tier data
	tier_0 = {
		upgrade_time = {
			months = 0
		}

		cost_to_upgrade = {
			factor = 0
		}

		province_modifiers = {
		}

		area_modifier = {
		}

		country_modifiers = {

		}

		on_upgraded = {
		}
	}

	tier_1 = {
		upgrade_time = {
			months = 120
		}

		cost_to_upgrade = {
			factor = 1000
		}

		province_modifiers = {
			local_defensiveness = 0.1
			province_trade_power_value = 5
		}

		area_modifier = {
		}

		region_modifier = {
			
		}

		country_modifiers = {
			global_ship_trade_power = 0.15
		}

		on_upgraded = {
		}
	}

	tier_2 = {
		upgrade_time = {
			months = 120
		}

		cost_to_upgrade = {
			factor = 2500
		}

		province_modifiers = {
			local_defensiveness = 0.15
			province_trade_power_value = 10
		}

		area_modifier = {
			local_defensiveness = 0.1
		}
		
		region_modifier = {
			
		}

		country_modifiers = {
			global_ship_trade_power = 0.30
		}

		on_upgraded = {
		}
	}

	tier_3 = {
		
		upgrade_time = {
			months = 120
		}

		cost_to_upgrade = {
			factor = 5000
		}

		province_modifiers = {
			local_defensiveness = 0.2
			province_trade_power_value = 15
		}

		area_modifier = {
			local_defensiveness = 0.1
		}
		
		region_modifier = {
			local_own_coast_naval_combat_bonus = 1
		}

		country_modifiers = {
			global_ship_trade_power = 0.45
		}

		on_upgraded = {
		}
	}
}

balkhangfa_palace = {
	start = 4976	#Balriza

	date = 5.1.1

	time = {
		months = 120
	}

	build_cost = 1000

	can_be_moved = no

	starting_tier = 0

	#project type
	type = monument

	build_trigger = {
		owner = {
			has_church_aspect = teachings_of_balris	
		}
		NOT = { 
			owner = { 
				has_country_modifier = Y85_balkhangfa_stagnation 
			} 
		}
	}

	on_built = {
	}

	on_destroyed = {
	}

	can_use_modifiers_trigger = {
		owner = {
			has_church_aspect = teachings_of_balris	
		}
	}

	can_upgrade_trigger = {
		owner = {
			has_church_aspect = teachings_of_balris	
		}
		NOT = { 
			owner = { 
				has_country_modifier = Y85_balkhangfa_stagnation 
			} 
		}
	}

	keep_trigger = {
	}

	#tier data
	tier_0 = {
		upgrade_time = {
			months = 0
		}

		cost_to_upgrade = {
			factor = 0
		}

		province_modifiers = {
		}

		area_modifier = {
			local_prosperity_growth = 0.1
		}

		country_modifiers = {

		}

		on_upgraded = {
		}
	}

	tier_1 = {
		upgrade_time = {
			months = 120
		}

		cost_to_upgrade = {
			factor = 1000
		}

		province_modifiers = {
			
		}

		area_modifier = {
			local_prosperity_growth = 0.2
		}

		country_modifiers = {
			prestige = 0.1
			diplomatic_reputation = 0.5
		}

		on_upgraded = {
			owner = {
				add_estate_loyalty = {
					estate = estate_church
					loyalty = 5
				}
			}
		}
	}

	tier_2 = {
		upgrade_time = {
			months = 120
		}

		
		cost_to_upgrade = {
			factor = 2500
		}

		
		province_modifiers = {
			
		}

		
		area_modifier = {
			local_prosperity_growth = 0.3
		}


		country_modifiers = {
			prestige = 0.2
			governing_capacity_modifier = 0.05
			diplomatic_reputation = 1
		}

		
		on_upgraded = {
			owner = {
				add_estate_loyalty = {
					estate = estate_church
					loyalty = 10
				}
			}
		}
	}

	tier_3 = {
		
		upgrade_time = {
			months = 120
		}

		
		cost_to_upgrade = {
			factor = 5000
		}

		
		province_modifiers = {
			
		}

		
		area_modifier = {
			local_prosperity_growth = 0.4
		}

		
		country_modifiers = {
			prestige = 0.3
			country_diplomatic_power = 1
			governing_capacity_modifier = 0.1
			diplomatic_reputation = 1.5
		}
		
		on_upgraded = {
			owner = {
				add_estate_loyalty = {
					estate = estate_church
					loyalty = 15
				}
			}
		}
	}
}

feiten_aerodrome = {
	
	# start = 4879	#Feiten
	
	date = 2022.1.1

	time = {
		months = 180
	}
	
	build_cost = 250
	
	can_be_moved = no
	
	starting_tier = 1
	
	type = monument
	
	build_trigger = {
		has_province_flag = feiten_aerodrome
	}
	
	on_built = {
	}
	
	on_destroyed = {
	}
	
	keep_trigger = {
	}
	
	can_use_modifiers_trigger = {
		FROM = {
			if = {
				limit = { exists = event_target:feiten_or_was_feiten_target }
				tag = event_target:feiten_or_was_feiten_target
			}
		}
	}
	
	can_upgrade_trigger = {
	}
	
	tier_0 = {
		upgrade_time = {
			months = 0
		}
		
		cost_to_upgrade = {
			factor = 0
		}
		
		province_modifiers = {
		}
		
		area_modifier = {
		}
		
		country_modifiers = {
		}
		
		on_upgraded = {
		}
	}
	
	tier_1 = {
		upgrade_time = {
			months = 120
		}
		
		cost_to_upgrade = {
			factor = 1000
		}
		
		province_modifiers = {
			ship_recruit_speed = -0.1
			local_ship_cost = -0.1
		}
		
		area_modifier = {
		}
		
		country_modifiers = {
			special_unit_forcelimit = 0.1
			allowed_marine_fraction = 0.1
			artificers_loyalty_modifier = 0.05
			trade_range_modifier = 0.25
			range = 0.25
			envoy_travel_time = -0.25
		}
		
		on_upgraded = {
			owner = { add_estate_loyalty = { estate = estate_artificers loyalty = 5 } }
			owner = { mission_reward_artifice_points_1 = yes }
			custom_tooltip = updateGrandSkyportTT
			custom_tooltip = feitenGetSkypostCapBreakdown
			custom_tooltip = shuimuOperatingCapacityBreakdownTT
			custom_tooltip = grandSkyportDescriptionNoteworthyTT
		}
	}
	
	tier_2 = {
		upgrade_time = {
			months = 180
		}
		
		cost_to_upgrade = {
			factor = 5000
		}
		
		province_modifiers = {
			ship_recruit_speed = -0.2
			local_ship_cost = -0.2
		}
		
		area_modifier = {
		}
		
		country_modifiers = {
			special_unit_forcelimit = 0.15
			allowed_marine_fraction = 0.25
			artificers_loyalty_modifier = 0.075
			trade_range_modifier = 0.5
			range = 0.5
			envoy_travel_time = -0.5
			caravan_power = 0.2
		}
		
		on_upgraded = {
			owner = { add_estate_loyalty = { estate = estate_artificers loyalty = 10 } }
			owner = { mission_reward_artifice_points_3 = yes }
			custom_tooltip = updateGrandSkyportTT
			custom_tooltip = feitenGetSkypostCapBreakdown
			custom_tooltip = shuimuOperatingCapacityBreakdownTT
			custom_tooltip = grandSkyportDescriptionSignificantTT
		}
	}
	
	tier_3 = {
		upgrade_time = {
			months = 240
		}
		
		cost_to_upgrade = {
			factor = 10000
		}
		
		province_modifiers = {
			ship_recruit_speed = -0.3
			local_ship_cost = -0.3
		}
		
		area_modifier = {
		}
		
		country_modifiers = {
			special_unit_forcelimit = 0.2
			allowed_marine_fraction = 0.5
			artificers_loyalty_modifier = 0.1
			trade_range_modifier = 1.5
			range = 1.5
			envoy_travel_time = -0.75
			caravan_power = 0.33
			global_ship_cost = -0.2
		}
		
		on_upgraded = {
			owner = { add_estate_loyalty = { estate = estate_artificers loyalty = 10 } }
			owner = { mission_reward_artifice_points_5 = yes }
			custom_tooltip = updateGrandSkyportBeegTT
			custom_tooltip = feitenGetSkypostCapBreakdown
			custom_tooltip = shuimuOperatingCapacityBreakdownTT
			custom_tooltip = grandSkyportDescriptionMagnificentTT
		}
	}
}

hall_of_endless_debate = {
	start = 4435	#Rayavhashapal

	date = 1444.1.1

	time = {
		months = 120
	}

	build_cost = 1500

	can_be_moved = no

	starting_tier = 1

	type = monument

	can_use_modifiers_trigger = {
		OR = {
			religion_group = raheni
			religion = godlost
			religion = the_jadd
			religion = the_thought
		}
		has_owner_religion = yes
	}

	can_upgrade_trigger = {
		OR = {
			religion_group = raheni
			religion = godlost
			religion = the_jadd
			religion = the_thought
		}
		has_owner_religion = yes
		has_owner_accepted_culture = yes
	}

	keep_trigger = {
	}

	#tier data
	tier_0 = {
		upgrade_time = {
			months = 0
		}

		cost_to_upgrade = {
			factor = 0
		}

		province_modifiers = {

		}

		area_modifier = {

		}

		country_modifiers = {

		}

		on_upgraded = {
		}
	}

	tier_1 = {
		upgrade_time = {
			months = 120
		}

		cost_to_upgrade = {
			factor = 1000
		}

		province_modifiers = {
			
		}

		area_modifier = {
			local_institution_spread = 0.25
		}

		region_modifier = {
			
		}

		country_modifiers = {
			tolerance_heretic = 1
			tolerance_heathen = 1
		}

		on_upgraded = {
		}
	}

	tier_2 = {
		upgrade_time = {
			months = 120
		}

		cost_to_upgrade = {
			factor = 2500
		}

		province_modifiers = {
			
		}

		area_modifier = {
			local_institution_spread = 0.50
		}

		region_modifier = {
			
		}

		country_modifiers = {
			tolerance_heretic = 1
			tolerance_heathen = 1
			free_adm_policy = 1
		}

		on_upgraded = {
			owner = { change_government_reform_progress = 50 }
		}
	}

	tier_3 = {
		
		upgrade_time = {
			months = 120
		}

		cost_to_upgrade = {
			factor = 5000
		}

		province_modifiers = {
			
		}

		region_modifier = {
			local_institution_spread = 0.50
		}

		country_modifiers = {
			tolerance_heretic = 2
			tolerance_heathen = 2
			possible_adm_policy = 1
			free_adm_policy = 1
		}

		on_upgraded = {
			owner = { change_government_reform_progress = 50 }
		}
	}
}

oracle_mountain = {
	start = 4527	#Tughayasa

	date = 1444.1.1

	time = {
		months = 120
	}

	build_cost = 1500

	can_be_moved = no

	starting_tier = 1

	type = monument

	can_use_modifiers_trigger = {
		OR = {
			religion_group = raheni
			religion = righteous_path
			religion = mystic_accord
			religion = bangujonsi
			religion = saanorgegh
		}
		has_owner_religion = yes
	}

	can_upgrade_trigger = {
		OR = {
			religion_group = raheni
			religion = righteous_path
			religion = mystic_accord
			religion = bangujonsi
			religion = saanorgegh
		}
		has_owner_religion = yes
		has_owner_accepted_culture = yes
	}

	keep_trigger = {
	}

	#tier data
	tier_0 = {
		upgrade_time = {
			months = 0
		}

		cost_to_upgrade = {
			factor = 0
		}

		province_modifiers = {

		}

		area_modifier = {

		}

		country_modifiers = {

		}

		on_upgraded = {
		}
	}

	tier_1 = {
		upgrade_time = {
			months = 120
		}

		cost_to_upgrade = {
			factor = 1000
		}

		province_modifiers = {
			local_defensiveness = 0.25
		}

		area_modifier = {
			local_tax_modifier = 0.1
		}

		country_modifiers = {
			spy_offence = 0.1
		}

		on_upgraded = {
		}
	}

	tier_2 = {
		upgrade_time = {
			months = 120
		}

		cost_to_upgrade = {
			factor = 2500
		}

		province_modifiers = {
			local_defensiveness = 0.25
		}

		area_modifier = {
			local_tax_modifier = 0.15
			local_defensiveness = 0.10
		}

		country_modifiers = {
			spy_offence = 0.2
		}

		on_upgraded = {
			custom_tooltip = tughayasa_better_divination_1_tt
			hidden_effect = {
				set_province_flag = tughayasa_better_divination_1
			}
		}
	}

	tier_3 = {
		
		upgrade_time = {
			months = 120
		}

		cost_to_upgrade = {
			factor = 5000
		}

		province_modifiers = {
			local_defensiveness = 0.25
		}

		area_modifier = {
			local_tax_modifier = 0.25
			local_defensiveness = 0.20
		}

		country_modifiers = {
			spy_offence = 0.25
			missionaries = 1
		}

		on_upgraded = {
			custom_tooltip = tughayasa_better_divination_2_tt
			hidden_effect = {
				clr_province_flag = tughayasa_better_divination_1
				set_province_flag = tughayasa_better_divination_2
			}
		}
	}
}

golden_palace = {
	start = 4411	#Dhenijansar

	date = 1444.1.1

	time = {
		months = 120
	}

	build_cost = 1500

	can_be_moved = no

	starting_tier = 1

	type = monument

	can_use_modifiers_trigger = {
		OR = {
			custom_trigger_tooltip = {
				tooltip = golden_palace_capital_tt
				owner = { capital = 4411 }
			}
			hidden_trigger = { owner = { has_country_flag = dhenijansar_regional_administration_flag } }
			custom_trigger_tooltip = {
				tooltip = golden_palace_raheni_tt
				owner = {
					OR = {
						culture_group = harimari
						culture_group = south_raheni
						culture_group = middle_raheni
						culture_group = upper_raheni
					}
				}
			}
		}
	}

	can_upgrade_trigger = {
		OR = {
			custom_trigger_tooltip = {
				tooltip = golden_palace_capital_tt
				owner = { capital = 4411 }
			}
			hidden_trigger = { owner = { has_country_flag = dhenijansar_regional_administration_flag } }
			custom_trigger_tooltip = {
				tooltip = golden_palace_raheni_tt
				owner = {
					OR = {
						culture_group = harimari
						culture_group = south_raheni
						culture_group = middle_raheni
						culture_group = upper_raheni
					}
				}
			}
			has_owner_accepted_culture = yes
		}
	}

	keep_trigger = {
	}

	#tier data
	tier_0 = {
		upgrade_time = {
			months = 0
		}

		cost_to_upgrade = {
			factor = 0
		}

		province_modifiers = {

		}

		area_modifier = {

		}

		country_modifiers = {

		}

		on_upgraded = {
		}
	}

	tier_1 = {
		upgrade_time = {
			months = 120
		}

		cost_to_upgrade = {
			factor = 1000
		}

		province_modifiers = {
			local_unrest = -1
		}

		area_modifier = {
			local_tax_modifier = 0.1
			local_autonomy = -0.025
		}

		country_modifiers = {
			governing_capacity_modifier = 0.05
		}

		on_upgraded = {
		}
	}

	tier_2 = {
		upgrade_time = {
			months = 120
		}

		cost_to_upgrade = {
			factor = 2500
		}

		province_modifiers = {
			
		}

		area_modifier = {
			local_unrest = -3
			local_tax_modifier = 0.25
			local_autonomy = -0.05
		}

		region_modifier = {
			min_local_autonomy = -25
		}

		country_modifiers = {
			governing_capacity_modifier = 0.10
		}

		on_upgraded = {
			custom_tooltip = golden_palace_upgrade_tt
			hidden_effect = {
				owner = {
					every_known_country = {
						limit = {
							OR = {
								primary_culture = royal_harimari
								culture_group = south_raheni
								culture_group = middle_raheni
								culture_group = upper_raheni
							}
						}
						add_opinion = {
							who = PREV
							modifier = raj_upgraded_golden_palace_opinion
						}
					}
				}
			}
		}
	}

	tier_3 = {
		
		upgrade_time = {
			months = 120
		}

		cost_to_upgrade = {
			factor = 5000
		}

		province_modifiers = {
			
		}

		area_modifier = {
			local_tax_modifier = 0.25
			local_autonomy = -0.05
		}

		region_modifier = {
			min_local_autonomy = -50
			local_unrest = -3
		}
		
		country_modifiers = {
			governing_capacity_modifier = 0.10
		}

		on_upgraded = {
			custom_tooltip = golden_palace_upgrade_tt
			hidden_effect = {
				owner = {
					every_known_country = {
						limit = {
							OR = {
								primary_culture = royal_harimari
								culture_group = south_raheni
								culture_group = middle_raheni
								culture_group = upper_raheni
							}
						}
						add_opinion = {
							who = PREV
							modifier = raj_upgraded_golden_palace_opinion
						}
					}
				}
			}
		}
	}
}