################################################
##           Creator: @Ottokard#1942          ##
################################################

anisikheion_1_missions = { 
	slot = 1
	generic = no
	ai = yes 
	has_country_shield = yes
	potential = { tag = G59 }
	
	G59_hunting_pearls = {
		icon = mission_treasure_room
		position = 3
		required_missions = {
			G59_invest_in_our_city
		}

		provinces_to_highlight = {
			OR = {
				province_id = 2718
				province_id = 2750
				province_id = 2681
			}
		}

		trigger = {
			2718 = {
				base_production = 4
				has_production_building_trigger = yes
				owned_by = G59
			}
			2750 = {
				base_production = 4
				has_production_building_trigger = yes
				owned_by = G59
			}
			2681 = {
				base_production = 4
				has_production_building_trigger = yes
				owned_by = G59
			}
		}

		effect = {
			2718 = {
				change_trade_goods = gems
			}
			2750 = {
				change_trade_goods = gems
			}
			2681 = {
				change_trade_goods = gems
			}
		}
	}

	G59_expanding_fleet_facilities = {
		icon = mission_galleys_in_port
		position = 4
		required_missions = {
			G59_hunting_pearls
		}

		provinces_to_highlight = {
			owned_by = G59
			has_building = shipyard
			has_building = dock
		}

		trigger = {
			calc_true_if = {
				all_owned_province = {
					has_building = shipyard
					has_building = dock
				}
				amount = 10
			}
			custom_trigger_tooltip = {
				tooltip = G59_expanding_fleet_facilities_trigger_tt
				if = {
					limit = {
						employed_advisor = {
							type = naval_reformer
						}
					}
					treasury = 300
				}
				else = {
					treasury = 500
				}
			}
		}

		effect = {
			2717 = {
				if = {
					limit = {
						has_building = dock
					}
					remove_building = dock
					add_building = drydock
				}
				else = {
					add_building = drydock
				}
				if = {
					limit = {
						has_building = shipyard
					}
					remove_building = shipyard
					add_building = grand_shipyard
				}
				else = {
					add_building = grand_shipyard
				}
				add_permanent_province_modifier = {
					name = G59_the_kosphikem_arsenal
					duration = -1
				}
			}
			hidden_effect = {
				if = {
					limit = {
						employed_advisor = {
							type = naval_reformer
						}
					}
					add_treasury = -300
				}
				else = {
					add_treasury = -500
				}
			}
			custom_tooltip = G59_expanding_fleet_facilities_effect_tt
			upgrade_admiralty_influence_modifier_effect = yes
		}
	}
	
	G59_inviting_kheionai_diplomats = {
		icon = mission_discussion_arch
		position = 5
		required_missions = {
			G59_expanding_fleet_facilities
			G59_the_greatest_kheion
		}

		provinces_to_highlight = {
			owner = {
				any_owned_province = { 
					culture_group = kheionai_ruinborn_elf
				}
			}
		}

		trigger = {
			calc_true_if = {
				all_known_country = { 
					culture_group = kheionai_ruinborn_elf
					has_opinion = {
						who = ROOT
						value = 50
					}
				}
				amount = 3
			}
			custom_trigger_tooltip = {
				tooltip = G59_inviting_kheionai_diplomats_trigger_tt
				OR = {
					has_personal_deity = kheio_dip_factions
					has_personal_deity = kheio_dip_2
				}
			}
			crown_land_share = 33
			custom_trigger_tooltip = {
				tooltip = G59_vassal_trigger_tt
			}
		}

		effect = {
			country_event = {
				id = anisikheion_events.5
			}
		}
	}

}

anisikheion_2_missions = { 
	slot = 2
	generic = no
	ai = yes 
	has_country_shield = yes
	potential = { tag = G59 }


	
	G59_invest_in_our_city = {
		icon = mission_hanseatic_city
		position = 2
		required_missions = {
			G59_kherkan_overreach
		}

		provinces_to_highlight = {
			province_id = 2717
		}

		trigger = {
			treasury = 100
			2717 = { 
				has_tax_building_trigger = yes
				has_trade_building_trigger = yes
				owned_by = G59
			}
		}

		effect = {
			add_treasury = -100
			2717 = { #Anisikheion province
				add_permanent_province_modifier = {
					name = G59_a_growing_kheion
					duration = 7300
				}
			}
		}
	}
	
	G59_a_great_kheion = {
		icon = mission_eastern_european_city
		position = 3
		required_missions = { 
			G59_invest_in_our_city
			G59_consolidate_the_southern_cleaved_sea
		}

		provinces_to_highlight = {
			province_id = 2717
		}

		trigger = {
			2717 = {
				development = 25
				has_production_building_trigger = yes
				has_dock_building_trigger = yes
				owned_by = G59
			}
		}

		effect = {
			add_prestige = 30
			add_treasury = 200
			change_estate_land_share = {
				estate = all
				share = -10
			}
		}
	}
	
	G59_the_greatest_kheion = {
		icon = mission_city_prosperity
		position = 4
		required_missions = { 
			G59_hunting_pearls
			G59_a_great_kheion
		}

		provinces_to_highlight = {
			province_id = 2717
		}

		trigger = {
			2717 = {
				development = 35
				has_fort_building_trigger = yes
				has_shipyard_building_trigger = yes
				owned_by = G59
			}
		}

		effect = {
			country_event = {
				id = anisikheion_events.2
			}
		}
	}
	

	G59_develop_the_southern_islands = {
		icon = mission_hanseatic_city
		position = 5
		required_missions = {	
			G59_the_greatest_kheion
		}

		provinces_to_highlight = {  
		}

		trigger = {
			anisikheion_area = {
				type = all
				development = 10
			}
			soreion_area = {
				type = all
				development = 10
			}
		}

		effect = {
			anisikheion_area = {
				add_base_tax = 1
				add_base_production = 1 
				add_base_manpower = 1 
			}
			soreion_area = {
				add_base_tax = 1
				add_base_production = 1 
				add_base_manpower = 1 
			}
		}
	}
	
	G59_kheions_of_the_sea = {
		icon = mission_early_game_buildings
		position = 6
		required_missions = { 
			G59_inviting_kheionai_diplomats
			G59_develop_the_southern_islands
		}

		provinces_to_highlight = {
		}

		trigger = {
			num_of_owned_provinces_with = {
				value = 3
				NOT = {
					province_id = 2717
				}
				development = 20
				OR = {
					area = anisikheion_area
					area = soreion_area
					area = vothelisi_area
					area = arpenisi_area
				}
			}
		}

		effect = {
			add_country_modifier = {
				name = G59_alecandi_immigration
				duration = 9125
			}
		}
	}

	G59_show_them_reality = {
		icon = mission_sea_battles
		position = 9
		required_missions = {
			G59_the_great_proclamation
		}

		provinces_to_highlight = {
		}

		trigger = {
			OR = {
				has_won_war_against = {
					who = G46
					max_years_since = 10
				}
				has_won_war_against = {
					who = G47
					max_years_since = 10
				}
				has_won_war_against = {
					who = G48
					max_years_since = 10
				}
				has_won_war_against = {
					who = G49
					max_years_since = 10
				}
				has_won_war_against = {
					who = G50
					max_years_since = 10
				}
				has_won_war_against = {
					who = G51
					max_years_since = 10
				}
				has_won_war_against = {
					who = G61
					max_years_since = 10
				}
			}
			custom_trigger_tooltip = {
				tooltip = G59_show_them_reality_deity_trigger_tt
				OR = {
					has_personal_deity = kheio_mil_1
					has_personal_deity = kheio_mil_2
					has_personal_deity = kheio_mil_3
				}
			}
		}

		effect = {
			add_prestige = 10
			add_power_projection = {
				type = mission_rewards_power_projection
				amount = 30
			}
			add_casus_belli = {
				target = G46
				type = cb_vassalize_mission
				months = 240
			}
			add_casus_belli = {
				target = G47
				type = cb_vassalize_mission
				months = 240
			}
			add_casus_belli = {
				target = G48
				type = cb_vassalize_mission
				months = 240
			}
			add_casus_belli = {
				target = G49
				type = cb_vassalize_mission
				months = 240
			}
			add_casus_belli = {
				target = G50
				type = cb_vassalize_mission
				months = 240
			}
			add_casus_belli = {
				target = G51
				type = cb_vassalize_mission
				months = 240
			}
			add_casus_belli = {
				target = G61
				type = cb_vassalize_mission
				months = 240
			}
		}
	}

	G59_subjugate_the_great_kheions = {
		icon = mission_horse_siege
		position = 10
		required_missions = {
			G59_show_them_reality
		}

		provinces_to_highlight = {  
			OR = {
				province_id = 2745
				province_id = 2773
				province_id = 2738
				province_id = 2736
				province_id = 2732
				province_id = 2731
				province_id = 2728
			}
		}

		trigger = {
			2745 = { #Lokemeion
				owner = { is_subject_of = G59 }
			}
			2773 = { #Kherka
				owner = { is_subject_of = G59 }
			}
			2738 = { #Ormam
				owner = { is_subject_of = G59 }
			}	
			2736 = { #Degakheion
				owner = { is_subject_of = G59 }
			}		
			2732 = { #Kimanis
				owner = { is_subject_of = G59 }
			}		
			2731 = { #Oktikheion
				owner = { is_subject_of = G59 }
			}		
			2728 = { #Arpedifer
				owner = { is_subject_of = G59 }
			}		
		}

		effect = {
			country_event = {
				id = anisikheion_events.8
			}
		}
	}

}


anisikheion_3_missions = { 
	slot = 3
	generic = no
	ai = yes 
	has_country_shield = yes
	potential = { tag = G59 }

	G59_kherkan_overreach = {
		icon = mission_have_two_subjects
		position = 1
		required_missions = { 
		}

		provinces_to_highlight = {  
		}

		trigger = {
			NOT = {
				is_vassal = yes
				is_at_war = yes
			}
		}

		effect = {
			country_event = {
				id = anisikheion_events.1
			}
		}
	}

	G59_consolidate_the_southern_cleaved_sea = {
		icon = mission_invade_island
		position = 2
		required_missions = { 
			G59_kherkan_overreach
		}

		provinces_to_highlight = {
			OR = {
				area = anisikheion_area
				area = soreion_area
			}
			NOT = { owned_by = ROOT }
		}

		trigger = {
			anisikheion_area = {
				type = all
				owned_by = ROOT
				is_core= ROOT
			}
			soreion_area = {
				type = all
				owned_by = ROOT
				is_core = ROOT
			}
		}

		effect = { 
			add_dip_power = 100 
		}
	}

	G59_scouting_volthlisi = {
		icon = mission_four_men
		position = 3
		required_missions = { 
			G59_consolidate_the_southern_cleaved_sea
		}

		provinces_to_highlight = {
			area = vothelisi_area
		}

		trigger = {
			custom_trigger_tooltip = {
				tooltip = G59_scouting_volthlisi_trigger_tt
				OR = {	
					2722 = {
						owner = {
							has_spy_network_from = {
								who = ROOT
								value = 40
							}
						}
					}
					2721 = {
						owner = {
							has_spy_network_from = {
								who = ROOT
								value = 40
							}
						}
					}
					2720 = {
						owner = {
							has_spy_network_from = {
								who = ROOT
								value = 40
							}
						}
					}
					2719 = {
						owner = {
							has_spy_network_from = {
								who = ROOT
								value = 40
							}
						}
					}
					2774 = {
						owner = {
							has_spy_network_from = {
								who = ROOT
								value = 40
							}
						}
					}
					vothelisi_area = {
						type = all
						owned_by = ROOT
						is_core= ROOT
					}
				}
			}
		}

		effect = {
			vothelisi_area = {
				limit = { NOT = { owned_by = ROOT } }
				add_permanent_province_modifier = {
					name = G59_breached_defenses
					duration = 1825
				}
			}
			add_country_modifier = {
				name = G59_marine_corps
				duration = -1
			}
			vothelisi_area = {
				add_permanent_claim = ROOT
			}
			hidden_effect = {
				if = {
					limit = {
						vothelisi_area = {
							type = all
							owned_by = ROOT
							is_core= ROOT
						}
					}
					add_adm_power = 50
				}
			}
			custom_tooltip = G59_scouting_volthlisi_effect_tt
		}
	}
	
	G59_extracting_tolls = {
		icon = mission_dominate_home_trade_node
		position = 4
		required_missions = {
			G59_scouting_volthlisi
			G59_expanding_the_fleet
		}

		provinces_to_highlight = {
            area = vothelisi_area
            OR = {
                NOT = { owned_by = ROOT }
                NOT = { is_core = ROOT }
                NOT = { has_dock_building_trigger = yes }
            }
            has_discovered = ROOT
		}

		trigger = {
			vothelisi_area = {
				type = all
				owned_by = ROOT
				is_core= ROOT
				has_dock_building_trigger = yes
			}
		}

		effect = {
			add_treasury = 200
			2774 = {
				remove_province_modifier = cleaved_sea_toll
				add_permanent_province_modifier = {
					name = G59_vothelisi_toll
					duration = -1  
				}
			}
			2719 = {
				remove_province_modifier = cleaved_sea_toll
				add_permanent_province_modifier = {
					name = G59_vothelisi_toll
					duration = -1  
				}
			}
			2720 = {
				add_permanent_province_modifier = {
					name = G59_vothelisi_toll
					duration = -1  
				}
			}
		}
	}

	G59_expanding_the_admiraltys_authority = {
		icon = mission_dual_diplomacy
		position = 5
		required_missions = {
			G59_extracting_tolls
		}

		provinces_to_highlight = {  
		}

		trigger = {
			num_of_galley = 25
			has_global_modifier_value = {
				which = galley_power
				value = 0.1
			}
			has_global_modifier_value = {
				which = trade_efficiency 
				value = 0.3
			}
			custom_trigger_tooltip = {
				tooltip = G59_expanding_the_admiraltys_authority_trigger_tt
				if = {
					limit = {
						employed_advisor = {
							type = naval_reformer
						}
					}
				}
				else = {
					adm_power = 50
				}
			}
		}

		effect = {
			hidden_effect = {
				if = {
					limit = {
						employed_advisor = {
							type = naval_reformer
						}
					}
				}
				else = {
					add_adm_power = -50
				}
			}
			custom_tooltip = G59_expanding_the_admiraltys_authority_effect_tt
			upgrade_admiralty_influence_modifier_effect = yes
			arpenisi_area = {
				add_permanent_claim = ROOT
			}
			2723 = {
				add_permanent_claim = ROOT
			}
		}
	}

	G59_all_your_islands_are_belong_to_us = {
		icon = mission_invade_island
		position = 6
		required_missions = {
			G59_expanding_the_admiraltys_authority
		}

		provinces_to_highlight = {
			OR = {
				area = anisikheion_area
				area = soreion_area
				area = vothelisi_area
				area = arpenisi_area
				province_id = 2723
			}
		}

		trigger = {
			anisikheion_area = {
				type = all
				owned_by = ROOT
				is_core = ROOT
			}
			soreion_area = {
				type = all
				owned_by = ROOT
				is_core = ROOT
			}
			vothelisi_area = {
				type = all
				owned_by = ROOT
				is_core = ROOT
			}
			arpenisi_area = {
				type = all
				owned_by = ROOT
				is_core = ROOT
			}
			2723 = {
				owned_by = ROOT
				is_core = ROOT
			}
		}

		effect = { #thank Elefanté [IGWT]#8464 for this, shits confusing AF
			hidden_effect = {
				anisikheion_area = {
					every_core_country = {
						limit = { NOT = { tag = ROOT } }
						PREV = {
							remove_core = PREV
						}
					}
				}
				soreion_area = {
					every_core_country = {
						limit = { NOT = { tag = ROOT } }
						PREV = {
							remove_core = PREV
						}
					}
				}
				vothelisi_area = {
					every_core_country = {
						limit = { NOT = { tag = ROOT } }
						PREV = {
							remove_core = PREV
						}
					}
				}
				arpenisi_area = {
					every_core_country = {
						limit = { NOT = { tag = ROOT } }
						PREV = {
							remove_core = PREV
						}
					}
				}
				2723 = {
					every_core_country = {
						limit = { NOT = { tag = ROOT } }
						PREV = {
							remove_core = PREV
						}
					}
				}
			}
			custom_tooltip = G59_all_your_islands_are_belong_to_us_effect_tt
		}
	}

	G59_the_admirals_coup = {
		icon = mission_assassination
		position = 7
		required_missions = {
			G59_kheions_of_the_sea
			G59_all_your_islands_are_belong_to_us
			G59_the_route_secured
		}

		provinces_to_highlight = {  
			province_id = 2717
		}

		trigger = {
			NOT = {
				is_at_war = yes
			}
			navy_size_percentage = 0.90 
			custom_trigger_tooltip = {
				tooltip = G59_the_admirals_coup_trigger_tt
				OR = {
					has_personal_deity = kheio_mil_factions
					has_personal_deity = kheio_mil_2 
				}
			}
			stability = 0
			navy_tradition = 40
			2717 = {
				galleys_in_province = 50
			}
			crown_land_share = 33
			NOT = {
				tag = H22
			}
		}

		effect = {
			add_stability = -1
			add_prestige = -20
			set_country_flag = anisikheion_is_naval_stratocracy_flag
			country_event = {
				id = anisikheion_events.6
			}
		}
	}

	G59_the_great_proclamation = {
		icon = mission_noble_council
		position = 8
		required_missions = {
			G59_the_admirals_coup
		}

		provinces_to_highlight = {
		}

		trigger = {
			treasury = 1000
			is_at_war = no
			navy_size_percentage = 0.90
			stability = 2
			2717 = {
				higher_development_than  = 2745 #Lokemeion
			}
			2717 = {
				higher_development_than  = 2773 #Kherka
			}
			2717 = {
				higher_development_than  = 2738 #Ormam
			}
			2717 = {
				higher_development_than  = 2736 #Degakheion
			}
			2717 = {
				higher_development_than  = 2732 #Kimanis
			}
			2717 = {
				higher_development_than  = 2731 #Oktikheion
			}
			2717 = {
				higher_development_than  = 2728 #Arpedifer
			}
		}

		effect = {
			country_event = {
				id = anisikheion_events.10
				days = 5
			}
		}
	}

	G59_monopolize_the_cleaved_sea = {
		icon = mission_high_income
		position = 10
		required_missions = {
			G59_the_great_proclamation
		}

		provinces_to_highlight = {
			OR = {
				province_id = 2739
				province_id = 2734
			}
		}

		trigger = {
			custom_trigger_tooltip = {
				tooltip = G59_monopolize_the_cleaved_sea_trigger_tt
				2681 = {
					trade_share = {
						country = G59
						share = 50
					}
				}
			}
			owns = 2739 #Eionasi
			owns = 2734 #Aniser
		}

		effect = {	
			add_country_modifier = {
				name = G59_cleaved_sea_supremacy
				duration = 7300
			}
		}
	}

	G59_the_8th_great_kheion = {
		icon = mission_arverynn_street
		position = 11
		required_missions = {
			G59_subjugate_the_great_kheions
			G59_monopolize_the_cleaved_sea
			G59_secure_the_coastal_mainland
		}

		provinces_to_highlight = {  
		}

		trigger = {
			2717 = {
				development = 40
				has_building = mills
			}
			navy_tradition = 75
			anisikheion_area = {
				type = all
				if = {
					limit = { has_dlc = "Mandate of Heaven" }
					is_prosperous = yes
				}
				else = {
					NOT = { devastation = 1 }
				}
			}
			soreion_area = {
				type = all
				if = {
					limit = { has_dlc = "Mandate of Heaven" }
					is_prosperous = yes
				}
				else = {
					NOT = { devastation = 1 }
				}
			}			
			has_global_modifier_value = {
				which = trade_efficiency 
				value = 0.60
			}
			crown_land_share = 66
			custom_trigger_tooltip = {
				tooltip = G59_the_8th_great_kheion_deity_trigger_tt
				has_personal_deity = kheio_adm_3
			}
		}

		effect = {
			country_event = {
				id = anisikheion_events.13
			}
		}
	}

}


anisikheion_4_missions = { 
	slot = 4
	generic = no
	ai = yes 
	has_country_shield = yes
	potential = { tag = G59 }

	
	G59_pirates_to_the_east = {
		icon = mission_establish_high_seas_navy
		position = 2
		required_missions = { 
			G59_kherkan_overreach
		}

		provinces_to_highlight = {
			owned_by = G62
		}

		trigger = {
			OR = {
				has_spy_network_in = {
					who = G62
					value = 20
				}
				has_casus_belli = {
					type = cb_trade_conflict
					target = G62
				}
				NOT = {
					exists = G62
				}
			}
		}

		effect = { 
			hidden_effect = {
				if = {
					limit = { 
						OR = {
							has_casus_belli = {
								type = cb_trade_conflict 
								target = G62
							}
							NOT = { exists = G62 }
						}
					}
					add_dip_power = 50
				}
				else = {
					add_casus_belli = {
						target = G62
						type = cb_trade_conflict
						months = 60
					}
				}
			}
			custom_tooltip = G59_pirates_to_the_east_effect_tt
		}
	}

	G59_expanding_the_fleet = {
		icon = mission_early_game_buildings
		position = 3
		required_missions = {
			G59_consolidate_the_southern_cleaved_sea
		}

		provinces_to_highlight = {  
		}

		trigger = {
			navy_size_percentage = 0.90
			navy_tradition = 25
		}

		effect = {
			upgrade_admiralty_influence_modifier_effect = yes
			add_sailors = 2000
		}
	}

	G59_growth_of_southern_trading = {
		icon = mission_market
		position = 4
		required_missions = {
			G59_the_treaty_of_anisoton
		}

		provinces_to_highlight = {  
		}

		trigger = {
			custom_trigger_tooltip = {
				tooltip = G59_growth_of_southern_trading_trigger_tt
				OR = {
					2681 = {
						trade_share = {
							country = G59
							share = 30
						}
					}
					2620 = {
						trade_share = {
							country = G59
							share = 30
						}
					}
				}
			}
		}

		effect = {
			add_country_modifier = {
				name = G59_increased_taychendi_trade
				duration = 7300
			}
			if = {
				limit = {
					2681 = { #Kheionai
						trade_share = {
							country = G59
							share = 20
						}
					}
					2620 = { #Ameion
						trade_share = {
							country = G59
							share = 30
						}
					}
				}
				add_dip_power = 100
			}
		}
	}

	G59_protecting_the_merchants = {
		icon = mission_fleet_arrival
		position = 5
		required_missions = {
			G59_extracting_tolls
			G59_growth_of_southern_trading
		}

		provinces_to_highlight = {  
		}

		trigger = {
			num_of_light_ship = 30
		}

		effect = {
			add_country_modifier = {
				name = G59_escorting_trade_fleets
				duration = 7300
			}
		}
	}

	G59_the_route_secured = {
		icon = mission_guarded_market
		position = 6
		required_missions = { 
			G59_expanding_the_admiraltys_authority
			G59_protecting_the_merchants
			G59_eastern_bases
		}

		provinces_to_highlight = {
		}

		trigger = {
			custom_trigger_tooltip = {
				tooltip = G59_the_route_secured_trigger_tt
				2681 = {
					trade_share = {
						country = G59
						share = 30
					}
				}
				2620 = {
					trade_share = {
						country = G59
						share = 30
					}
				}
				2525 = {
					trade_share = {
						country = G59
						share = 10
					}
				}
				2541 = {
					trade_share = {
						country = G59
						share = 10
					}
				}
			}
		}

		effect = {
			add_country_modifier = {
				name = G59_secured_trade_route
				duration = 14600
			}
			upgrade_admiralty_influence_modifier_effect = yes
		}
	}

	G59_our_own_nekheis = {
		icon = mission_kowtow
		position = 9
		required_missions = {
			G59_the_great_proclamation
		}

		provinces_to_highlight = {
		}

		trigger = {	
			any_known_country = { 
				has_opinion = {
					who = ROOT
					value = 150
				}
				alliance_with = ROOT
				culture_group = kheionai_ruinborn_elf
				capital_scope = { 
					region = devand_region
				}
			}
			custom_trigger_tooltip = {
				tooltip = G59_vassal_trigger_tt
			}
		}

		effect = {
			hidden_effect = {
				every_known_country = {
					limit = {
						has_opinion = {
							who = ROOT
							value = 150
						}
						alliance_with = ROOT
						culture_group = kheionai_ruinborn_elf
						capital_scope = { 
							region = devand_region
						}
					}
					country_event = {
						id = anisikheion_events.14
					}
				}
			}
			custom_tooltip = G59_our_own_nekheis_effect_tt
		}
	}

	G59_secure_the_coastal_mainland = {
		icon = mission_unite_home_region
		position = 10
		required_missions = {
			G59_our_own_nekheis
		}

		provinces_to_highlight = {
			region = devand_region
			island = no
			has_port = yes
			NOT = { owner = { is_subject_of = G59 } }
		}

		trigger = {
			calc_true_if = {
				devand_region = {
					type = all
					island = no
					has_port = yes
					owner = { is_subject_of = G59 }
				}
				amount = 19
			}
		}
		effect = {
			add_country_modifier = {
				name = G59_united_cousins
				duration = 10950
			}
		}
	}

}

anisikheion_5_missions = { 
	slot = 5
	generic = no
	ai = yes 
	has_country_shield = yes
	potential = { tag = G59 }

	G59_the_treaty_of_anisoton = {
		icon = mission_destroyed_city
		position = 3
		required_missions = {
			G59_pirates_to_the_east
		}

		provinces_to_highlight = {  }

		trigger = {
			OR = {
				is_in_war = {
					attacker_leader = ROOT
					war_score = 40
					defender_leader = G62
				}
				NOT = { exists = G62 }
			}
			G62 = {
				NOT = {
					has_privateers = yes
				}
			}
		}

		effect = {
			add_treasury = 350
			white_peace = G62
			G62 = {
				add_treasury = -350
			}
			hidden_effect = {
				2681 = { 
					every_trade_node_member_country = { 
						add_opinion = {
							who = ROOT
							modifier = G59_defeated_corsairs
						}
					}
				}
				2620 = {
					every_trade_node_member_country = { 
						limit = { NOT = { tag = G62 } }
						add_opinion = {
							who = ROOT
							modifier = G59_defeated_corsairs
						}
					}
				}
			}
			custom_tooltip = G59_the_treaty_of_anisoton_tt
		}
	}

	G59_islands_to_the_east = {
		icon = mission_invade_island
		position = 4
		required_missions = {
			G59_the_treaty_of_anisoton
		}

		provinces_to_highlight = {
		}

		trigger = {
			OR = {
				has_spy_network_in = {
					who = G52
					value = 40
				}
				has_spy_network_in = {
					who = G82
					value = 60
				}
				has_spy_network_in = {
					who = G83
					value = 60
				}
				has_spy_network_in = {
					who = G82
					value = 60
				}
				has_spy_network_in = {
					who = G71
					value = 60
				}
				has_spy_network_in = {
					who = G79
					value = 60
				}
				has_spy_network_in = {
					who = G64
					value = 80
				}
			}
		}

		effect = {
			ameionavil_area = {
				add_permanent_claim = ROOT
			}
			rezailan_area = {
				add_permanent_claim = ROOT
			}
			2330 = {
				add_permanent_claim = ROOT
			}
			add_country_modifier = {
				name = G59_settling_the_eastern_islands
				duration = 14600
			}
		}
	}

	G59_eastern_bases = {
		icon = mission_magnificent_castle
		position = 5
		required_missions = {
			G59_islands_to_the_east
		}

		provinces_to_highlight = {
			OR = {
				area = ameionavil_area
				area = rezailan_area
				province_id = 2330
			}
		}

		trigger = {
			ameionavil_area = {
				type = all
				owned_by = ROOT
				is_core= ROOT
			}
			rezailan_area = {
				type = all
				owned_by = ROOT
				is_core= ROOT
			}
			2330 = {
				owned_by = ROOT
				is_core= ROOT
			}
			2328 = {
				has_fort_building_trigger = yes
			}
			custom_trigger_tooltip = {
				tooltip = G59_eastern_bases_trigger_tt
				if = {
					limit = {
						employed_advisor = {
							type = naval_reformer
						}
					}
					treasury = 200
				}
				else = {
					treasury = 300
				}
			}
		}

		effect = {
			hidden_effect = {
				if = {
					limit = {
						employed_advisor = {
							type = naval_reformer
						}
					}
					add_treasury = -200
				}
				else = {
					add_treasury = -300
				}
			}
			custom_tooltip = G59_eastern_bases_effect_tt
			country_event = {
				id = anisikheion_events.4
			}
		}
	}
}