# By: Takasaki

siadan_series_1 = {
	slot = 1
	generic = no
	ai = yes
	has_country_shield = yes
	potential = { tag = F48 } 

	siadan_the_talon_and_the_pen = {
		icon = mission_vedic_education
		position = 5
		required_missions = { siadan_triumph_over_the_jadd } 
		provinces_to_highlight = {  } 

		trigger = {
			num_of_cities = 30
			estate_loyalty = {
				estate = estate_monstrous_tribes
				loyalty = 50
			}
			has_estate_privilege = estate_monstrous_tribes_land_rights
		}

		effect = {
			add_country_modifier = {
				name = siadan_patchwork_administration
				duration = -1
			}
		}
	}

	siadan_paperwork_on_the_march = {
		icon = mission_recruit_streltsy
		position = 7
		required_missions = { siadan_the_talon_and_the_pen } 
		provinces_to_highlight = {  } 

		trigger = {
			num_of_cities = 50
			adm_power = 200
			has_adm_advisor_2 = yes
		}

		effect = {
			remove_country_modifier = siadan_patchwork_administration
			add_country_modifier = {
				name = siadan_marching_administration
				duration = -1
			}
		}
	}
}
siadan_series_2 = {
	slot = 2
	generic = no
	ai = yes
	has_country_shield = yes
	potential = { tag = F48 } 

	siadan_an_age_of_eclipse = {
		icon = mission_star_comet
		position = 5
		required_missions = { siadan_triumph_over_the_jadd } 
		provinces_to_highlight = {
			OR = {
				AND = {
					region = far_salahad_region
					NOT = { province_id = 2913 } 
				}
				area = azka_sur_area
			}
			NOT = { country_or_non_sovereign_subject_holds = ROOT } 
		}

		trigger = {
			far_salahad_region = {
				type = all
				OR = {
					country_or_non_sovereign_subject_holds = ROOT
					province_id = 2913
				}
			}
			azka_sur_area = {
				type = all
				country_or_non_sovereign_subject_holds = ROOT
			}
		}

		effect = {
			add_war_exhaustion = -3
			siadan_add_scope_permanent_claim = { scope = far_bulwar_region } 
			add_country_modifier = {
				name = siadan_our_feathers_will_eclipse_the_sun
				duration = 7300
			}
		}
	}

	siadan_ashes_to_ashes = {
		icon = mission_burning_castle
		position = 7
		required_missions = { siadan_an_age_of_eclipse } 
		provinces_to_highlight = {
			region = far_bulwar_region
			OR = {
				NOT = { country_or_non_sovereign_subject_holds = ROOT } 
				province_id = 625
			}
		}

		trigger = {
			far_bulwar_region = {
				type = all
				country_or_non_sovereign_subject_holds = ROOT
			}
			625 = {
				num_of_units_in_province = {
					who = ROOT
					amount = 10
				}
			}
		}

		effect = {
			add_war_exhaustion = -5
			625 = {
				add_harpy_minority_size_effect = yes
				add_harpy_minority_size_effect = yes
				add_devastation = 50
				add_base_tax = -4
				add_base_production = -4
				add_base_manpower = -4
			}
			add_treasury = 150
			add_adm_power = 200
			add_dip_power = 200
			add_mil_power = 200
			add_country_modifier = {
				name = siadan_a_lesson_taught
				duration = 9125
			}
			siadan_crest_upgrade = yes
		}
	}
}
siadan_series_3 = {
	slot = 3
	generic = no
	ai = yes
	has_country_shield = yes
	potential = { tag = F48 } 

	siadan_ready_the_host = {
		icon = mission_build_up_to_force_limit
		position = 1
		provinces_to_highlight = {  } 

		trigger = { army_size_percentage = 0.9 } 

		effect = {
			F50 = { 
				every_owned_province = {
					limit = {
						NOT = { is_core = ROOT }
						NOT = { is_permanent_claim = ROOT }
					}
					add_permanent_claim = ROOT
				}
			} 
			add_casus_belli = {
				target = F47
				type = cb_vassalize_mission
				months = 300
			}
		}
	}

	siadan_crest_of_ishtara = {
		icon = mission_rb_control_the_hansa
		position = 2
		required_missions = { siadan_ready_the_host } 
		provinces_to_highlight = {
			is_core = F50
			NOT = { country_or_non_sovereign_subject_holds = ROOT } 
		}

		trigger = {
			F50 = { exists = no } 
			F50 = { all_core_province = { country_or_non_sovereign_subject_holds = ROOT }  } 
		}

		effect = {
			add_country_modifier = {
				name = siadan_crest_of_ishtara_1
				duration = -1
			}
			F46 = { 
				every_core_province = {
					limit = {
						NOT = { is_core = ROOT }
						NOT = { is_permanent_claim = ROOT }
					}
					add_permanent_claim = ROOT
				}
			} 
			F49 = { 
				every_core_province = {
					limit = {
						NOT = { is_core = ROOT }
						NOT = { is_permanent_claim = ROOT }
					}
					add_permanent_claim = ROOT
				}		
			} 
		}
	}

	siadan_siadan_on_the_march = {
		icon = mission_swiss_mercenaries_flipped
		position = 3
		required_missions = { siadan_crest_of_ishtara } 
		provinces_to_highlight = {  } 

		trigger = {
			is_subject = no 
			OR = {
				AND = {
					is_year = 1450
					NOT = { F29 = { war_with = F46 }  } 
				}
				AND = {
					custom_trigger_tooltip = {
						tooltip = siadan_jadd_zokka_war_over_tt
						OR = {
							has_country_flag = siadan_jadd_zokka_war_good
							has_country_flag = siadan_jadd_zokka_war_bad
						}
					}
					if = {
						limit = { NOT = { has_country_flag = siadan_jadd_zokka_war_good }  } 
						army_size_percentage = 0.9
						OR = {
							F46 = { war_with = F25 } 
							is_year = 1450
						}
					}
				}
			}
			is_at_war = no
		}

		effect = {
			add_country_modifier = {
				name = siadan_siadan_on_the_march_modifier
				duration = -1
			}
			if = {
				limit = { exists = F46 } 
				declare_war_with_cb = {
					who = F46
					casus_belli = cb_monster_vs_civ
				}
			}
		}
	}

	siadan_triumph_over_the_jadd = {
		icon = mission_sunset
		position = 4
		required_missions = { siadan_siadan_on_the_march } 
		provinces_to_highlight = {
			OR = {
				far_east_salahad_area = {
					type = all
					OR = {
						country_or_non_sovereign_subject_holds = ROOT
						owned_by = F29
					}
				}
				far_east_salahad_area = {
					type = all
					OR = {
						country_or_non_sovereign_subject_holds = ROOT
						owned_by = F29
					}
				}
			}
			NOT = { country_or_non_sovereign_subject_holds = ROOT } 
		}

		trigger = {
			far_east_salahad_area = {
				type = all
				OR = {
					country_or_non_sovereign_subject_holds = ROOT
					owned_by = F29
				}
			}
			salahimil_area = {
				type = all
				OR = {
					country_or_non_sovereign_subject_holds = ROOT
					owned_by = F29
				}
			}
			NOT = { exists = F49 } 
		}

		effect = {
			add_war_exhaustion = -3
			siadan_crest_upgrade = yes
			siadan_add_scope_permanent_claim = { scope = azka_sur_area } 
			siadan_add_scope_permanent_claim = { scope = avhavubhiya_area } 
			siadan_add_scope_permanent_claim = { scope = far_salahad_region } 
		}
	}

	siadan_an_equal_exchange = {
		icon = mission_dual_diplomacy
		position = 6
		required_missions = {
			siadan_blood_pact_redefined
			siadan_an_age_of_eclipse
		}
		provinces_to_highlight = {
			region = far_bulwar_region
			NOT = { area = garpix_zokka_area } 
			NOT = { province_id = 691 } 
			culture_is_gnollish = yes
			NOT = { country_or_non_sovereign_subject_holds = ROOT } 
		}

		trigger = {
			dip_power = 150
			F29 = {
				is_subject_of = ROOT
				NOT = { liberty_desire = 50 } 
			}
			custom_trigger_tooltip = {
				tooltip = siadan_far_bulwar_gnoll_provinces_tt
				far_bulwar_region = {
					type = all
					OR = {
						area = garpix_zokka_area
						province_id = 691
						NOT = { culture_is_gnollish = yes } 
						country_or_non_sovereign_subject_holds = ROOT
					}
				}
			}
		}

		effect = {
			add_war_exhaustion = -3
			add_dip_power = -150
			medium_decrease_of_gnollish_tolerance_effect = yes
			custom_tooltip = siadan_an_equal_exchange_trigger_tt
			hidden_effect = {
				far_bulwar_region = {
					limit = {
						culture_is_gnollish = yes
						has_terrain = desert
							NOT = { area = garpix_zokka_area }
					}
					change_culture = surani
					change_religion = bulwari_sun_cult
					add_devastation = 50
				}
				far_bulwar_region = {
					limit = {
						culture_is_gnollish = yes
						has_terrain = mountain
					}
					change_culture = siadunan_harpy
					change_religion = the_hunt
					add_devastation = 50
				}
				F29 = {
					add_country_modifier = {
						name = siadan_burdened_by_refugees
						duration = 18250
					}
				}
			}
		}
	}

	siadan_an_age_of_siadanlen = {
		icon = mission_sunset
		position = 8
		required_missions = {
			siadan_paperwork_on_the_march
			siadan_ashes_to_ashes
			siadan_an_equal_exchange
			siadan_and_then_refined
			siadan_triumph_over_rakhadesh
		}
		provinces_to_highlight = {  } 

		trigger = { is_at_war = no } 

		effect = {
			add_war_exhaustion = -5
			add_country_modifier = {
				name = siadan_the_old_kingdom_reformed
				duration = 9125
			}
			override_country_name = SIADANLEN
			country_event = { id = flavour_siadan.6 } 
			custom_tooltip = siadan_unlock__new_missions_tt
		}
	}
}
siadan_series_4 = {
	slot = 4
	generic = no
	ai = yes
	has_country_shield = yes
	potential = { tag = F48 } 

	siadan_blood_pact_redefined = {
		icon = mission_confrontation
		position = 5
		required_missions = { siadan_triumph_over_the_jadd } 
		provinces_to_highlight = {
			OR = {
				province_id = 2925
				province_id = 2924
				province_id = 566
			}
			NOT = { country_or_non_sovereign_subject_holds = ROOT } 
		}

		trigger = {
			OR = {
				AND = {
					exists = F29
					NOT = { exists = F46 } 
					army_size_percentage = 0.9
				}
				AND = {
					NOT = { exists = F29 } 
					owns = 2925
					owns = 2924
					owns = 566
				}
			}
		}

		effect = {
			if = {
				limit = { exists = F29 } 
				country_event = { id = flavour_siadan.4 } 
			}
			else = { country_event = { id = flavour_siadan.3 }  } 
		}
	}

	siadan_and_then_refined = {
		icon = mission_sweat_fealty
		position = 7
		required_missions = { siadan_blood_pact_redefined } 
		provinces_to_highlight = {
			OR = {
				area = garpix_zokka_area
				area = arrtukerr_area
			}
			NOT = { owned_by = F29 } 
		}

		trigger = {
			F29 = { is_subject_of = ROOT } 
			arrtukerr_area = {
				type = all
				owned_by = F29
			}
			garpix_zokka_area = {
				type = all
				owned_by = F29
			}
		}

		effect = {
			if = {
				limit = { has_country_flag = siadan_zokka_won } 
				add_war_exhaustion = -5
			}
			else = { add_dip_power = -100 } 
			create_subject = {
				subject_type = march
				subject = F29
			}
			far_bulwar_region = {
				limit = {
					owned_by = F29
					NOT = { area = garpix_zokka_area } 
				}
				cede_province = ROOT
			}
			far_salahad_region = {
				limit = {
					owned_by = F29
					NOT = { area = arrtukerr_area
					}
				}
				cede_province = ROOT
			}	
			F29 = {
				add_country_modifier = {
					name = siadan_the_blood_pact
					duration = -1
				}
				siadan_add_scope_permanent_claim = { scope = eastern_krahway_area } 
			}
		}
	}
}
siadan_series_5 = {
	slot = 5
	generic = no
	ai = yes
	has_country_shield = yes
	potential = { tag = F48 } 

	siadan_settling_the_vale = {
		icon = mission_expand_into_the_forest
		position = 2
		required_missions = { siadan_ready_the_host } 
		provinces_to_highlight = {  } 

		trigger = {
			F47 = { is_subject_of = ROOT } 
			2915 = { country_or_non_sovereign_subject_holds = ROOT } 
			dip_power = 25
		}

		effect = {
			2915 = {
				if = {
					limit = { owned_by = F47 } 
					cede_province = ROOT
					remove_core = F47
				}
				change_culture = siadunan_harpy
				change_religion = the_hunt
				change_province_name = "Astarta's Vale"
			}
			add_dip_power = -25
		}
	}

	siadan_gulani_relations = {
		icon = mission_harpy_diplomats
		position = 3
		required_missions = { siadan_settling_the_vale } 
		provinces_to_highlight = {  } 

		trigger = {
			F47 = {
				NOT = { liberty_desire = 60 } 
				custom_trigger_tooltip = {
					tooltip = siadan_improved_relations_tt
					has_opinion_modifier = {
						who = ROOT
						modifier = improved_relation
						value = 100
					}
				}
			}
		}

		effect = {
			medium_increase_of_dwarven_tolerance_effect = yes
			F47 = {
				add_opinion = {
					who = ROOT
					modifier = siadan_gulani_opionion
				}
			}
			2904 = {
				add_dwarven_minority_size_effect = yes
				add_base_production = 1
			}
			hidden_effect = {
				country_event = {
					id = flavour_siadan.111
					days = 10950
				}
			}
		}
	}

	siadan_dwarven_expertise = {
		icon = mission_dwarf
		position = 4
		required_missions = { siadan_gulani_relations } 
		provinces_to_highlight = { province_id = 2904 } 

		trigger = {
			2904 = {
				has_tax_building_trigger = yes
				has_trade_building_trigger = yes
				has_dwarven_minority_trigger = yes
			}
			dip_power = 75
		}

		effect = {
			medium_increase_of_dwarven_tolerance_effect = yes
			add_dip_power = -75
			define_advisor = {
				type = fortification_expert
				skill = 2
				culture = gold_dwarf
				religion = ancestor_worship
				discount = yes
			}
		}
	}

	siadan_into_the_east = {
		icon = mission_missive
		position = 5
		required_missions = { siadan_triumph_over_the_jadd } 
		provinces_to_highlight = {
			OR = {
				area = avhavubhiya_area
				province_id = 2913
			}
			NOT = { country_or_non_sovereign_subject_holds = ROOT } 
		}

		trigger = {
			avhavubhiya_area = {
				type = all
				country_or_non_sovereign_subject_holds = ROOT
			}
			owns = 2913
		}

		effect = {
			add_war_exhaustion = -2
			R62 = { country_event = { id = flavour_siadan.130 }  }
			siadan_add_scope_permanent_claim = { scope = pasiragha_area } 
			siadan_add_scope_permanent_claim = { scope = south_ghankedhen_area } 
			siadan_add_scope_permanent_claim = { scope = north_ghankedhen_area } 
		}
	}

	siadan_the_second_blood_pact = {
		icon = mission_elephant_king
		position = 6
		required_missions = { siadan_into_the_east } 
		provinces_to_highlight = {
			OR = {
				province_id = 4437
				area = north_ghankedhen_area
				area = south_ghankedhen_area
			}
			NOT = { country_or_non_sovereign_subject_holds = ROOT }
			NOT = { owned_by = R62 }

		}

		trigger = {
			OR = {
				alliance_with = R62
				R62 = {
					is_rival = ROOT
					OR = {
						has_opinion_modifier = {
							who = ROOT
							modifier = insulted
						}
						has_opinion_modifier = {
							who = ROOT
							modifier = scornfully_insulted
						}
					}
				}
			}
			owns = 4437
			north_ghankedhen_area = {
				type = all
				OR = {
					country_or_non_sovereign_subject_holds = ROOT
					owned_by = R62
				}
			}
			south_ghankedhen_area = {
				type = all
				OR = {
					country_or_non_sovereign_subject_holds = ROOT
					owned_by = R62
				}
			}
		}

		effect = {
			add_war_exhaustion = -3
			4437 = { add_harpy_minority_size_effect = yes }
			4439 = { add_harpy_minority_size_effect = yes }
			4440 = { add_harpy_minority_size_effect = yes }
			4442 = { add_harpy_minority_size_effect = yes }
			4444 = { add_harpy_minority_size_effect = yes }
			4548 = { add_harpy_minority_size_effect = yes }
			4435 = { add_harpy_minority_size_effect = yes }
			siadan_add_scope_permanent_claim = { scope = rakhadesh_region } 
		}
	}

	siadan_triumph_over_rakhadesh = {
		icon = mission_elephant_war
		position = 7
		required_missions = { siadan_the_second_blood_pact } 
		provinces_to_highlight = {
			OR = {
				area = avhavubhiya_area
				region = rakhadesh_region
			}
			NOT = { country_or_non_sovereign_subject_holds = ROOT } 
			NOT = { owned_by = R62 }
		}

		trigger = {
			avhavubhiya_area = {
				type = all
				country_or_non_sovereign_subject_holds = ROOT
			}
			rakhadesh_region = {
				type = all
				OR = {
					country_or_non_sovereign_subject_holds = ROOT
					owned_by = R62
				}
			}
		}

		effect = {
			add_war_exhaustion = -5

			add_country_modifier = {
				name = siadan_knowledge_of_rayavashapal
				duration = 3650
			}
			siadan_crest_upgrade = yes
		}
	}
}
siadan_series_1_2 = {
	slot = 1
	generic = no
	ai = yes
	has_country_shield = yes
	potential = {
		tag = F48
		has_country_flag = siadan_part_2
	}

	siadan_the_upriver_wars = {
		icon = mission_unite_rajputana
		position = 10
		required_missions = { siadan_the_crown_of_ishtara } 
		provinces_to_highlight = {
			OR = {
				province_id = 601
				province_id = 608
				province_id = 616
			}
			NOT = { country_or_non_sovereign_subject_holds = ROOT } 
		}

		trigger = {
			owns_or_non_sovereign_subject_of = 601
			owns_or_non_sovereign_subject_of = 608
			owns_or_non_sovereign_subject_of = 616
			601 = {
				num_of_units_in_province = {
					who = ROOT
					amount = 20
				}
			}
			has_mil_advisor_2 = yes
		}

		effect = {
			601 = {
				add_province_modifier = {
					name = siadan_western_military_headquarters
					duration = 7300
				}
			}
			siadan_add_scope_permanent_claim = { scope = bulwar_proper_region } 
		}
	}

	siadan_proclamation_of_bulwar = {
		icon = mission_sunset
		position = 11
		required_missions = { siadan_the_upriver_wars } 
		provinces_to_highlight = { province_id = 601 } 

		trigger = {
			owns_or_non_sovereign_subject_of = 601
			dip_power = 100
			has_dip_advisor_3 = yes
		}

		effect = {
			add_dip_power = -100
			country_event = { id = flavour_siadan.8 } 
			siadan_crest_upgrade = yes
		}
	}

	siadan_the_new_hunt = {
		icon = mission_science
		position = 12
		required_missions = { siadan_proclamation_of_bulwar } 
		provinces_to_highlight = {  } 

		trigger = {
			OR = {
				reform_level = 3
				government = monarchy
			}
			advisor = theologian
		}

		effect = {
			add_country_modifier = {
				name = siadan_the_new_hunt
				duration = -1
			}
			add_prestige = -10
			random_owned_province = {
				spawn_rebels = {
					type = the_hunt_rebels
					size = 2
				}
			}
			random_owned_province = {
				spawn_rebels = {
					type = the_hunt_rebels
					size = 2
				}
			}
			random_owned_province = {
				spawn_rebels = {
					type = the_hunt_rebels
					size = 2
				}
			}
			decrease_monstrous_5 = yes
		}
	}

	siadan_the_siadanlen_express = {
		icon = sav_union_with_naples
		position = 13
		required_missions = { siadan_the_new_hunt } 
		provinces_to_highlight = {
			OR = {
				AND = {
					region = bulwar_proper_region
					NOT = { country_or_non_sovereign_subject_holds = ROOT } 
				}
				AND = {
					province_id = 565
					NOT = { province_has_center_of_trade_of_level = 2 } 
					NOT = { has_trade_building_trigger = yes } 
				}
			}
		}

		trigger = {
			bulwar_proper_region = {
				type = all
				country_or_non_sovereign_subject_holds = ROOT
			}
			565 = {
				if = {
					limit = { has_dlc = "Dharma" } 
					province_has_center_of_trade_of_level = 2
				}
				has_trade_building_trigger = yes
			}
			has_dip_advisor_3 = yes
			treasury = 500
		}

		effect = {
			add_treasury = -500
			decrease_monstrous_5 = yes
			add_country_modifier = {
				name = siadan_the_siadanlen_express_modifier
				duration = -1
			}
		}
	}

	siadan_war_in_the_west = {
		icon = mission_steppe_warriors
		position = 15
		required_missions = { siadan_the_harpy_empire } 
		provinces_to_highlight = { province_id = 601 } 

		trigger = {
			601 = {
				num_of_units_in_province = {
					who = ROOT
					amount = 50
				}
			}
			army_size_percentage = 0.9
			manpower_percentage = 0.75
		}

		effect = { siadan_add_scope_permanent_claim = { scope = harpy_hills_region }  } 
	}

	siadan_true_heir_of_firanya = {
		icon = mission_monarch_in_throne_room
		position = 16
		required_missions = { siadan_war_in_the_west } 
		provinces_to_highlight = {
			region = harpy_hills_region
			NOT = { country_or_non_sovereign_subject_holds = ROOT } 
		}

		trigger = {
			harpy_hills_region = {
				type = all
				country_or_non_sovereign_subject_holds = ROOT
			}
			NOT = { exists = F27 } 
		}

		effect = {
			add_country_modifier = {
				name = siadan_true_heir_of_firanya
				duration = 18250
			}
			add_prestige = 10
			add_legitimacy = 10
			siadan_crest_upgrade = yes
		}
	}

	siadan_the_stormlen = {
		icon = mission_conquer_cuttack
		position = 17
		required_missions = { siadan_true_heir_of_firanya } 
		provinces_to_highlight = {  } 

		trigger = {
			660 = {
				fort_level = 4
				has_building = ramparts
				has_manpower_building_trigger = yes
				has_forcelimit_building_trigger = yes
			}
			treasury = 1500
			manpower = 10
		}

		effect = {
			660 = {
				add_province_modifier = {
					name = siadan_storm_talon_western_headquarters
					duration = -1
				}
				change_province_name = "Stormlen Fortress"
				change_culture = siadunan_harpy
			}
			add_treasury = -1500
			add_manpower = -10
		}
	}

	siadan_the_siadunan_hills = {
		icon = secure_dejima
		position = 18
		required_missions = { siadan_the_stormlen } 
		provinces_to_highlight = {
			region = harpy_hills_region
			NOT = { culture_is_harpy = yes } 
			OR = {
				NOT = { has_manpower_building_trigger = yes } 
				NOT = { has_courthouse_building_trigger = yes } 
				NOT = {
					num_of_units_in_province = {
						who = ROOT
						amount = 1
					}
				}
			}
		}

		trigger = {
			num_of_owned_provinces_with = {
				value = 5
				region = harpy_hills_region
				siadan_valid_harpy_brothel_province = yes
			}
			dip_power = 100
		}

		effect = {
			add_dip_power = -100
			custom_tooltip = siadan_harpy_brothels_gain_tt
			hidden_effect = { 
				for = { 
					amount = 5
					effect = " 
						random_owned_province = {
							limit = {
								region = harpy_hills_region
								siadan_valid_harpy_brothel_province = yes
							}

							add_harpy_minority_size_effect = yes
							add_province_modifier = {
								name = siadan_barrack_brothel
								duration = -1
							}

							kill_units = {
								who = ROOT
								amount = 1
							}
						}
					"
				}  
			} 
			harpy_hills_region = {
				limit = { culture = firanyan_harpy } 
				change_culture = siadunan_harpy
			}
		}
	}
}
siadan_series_2_2 = {
	slot = 2
	generic = no
	ai = yes
	has_country_shield = yes
	potential = {
		tag = F48
		has_country_flag = siadan_part_2
	}

	siadan_the_stormtalon_guard = {
		icon = mission_swear_fealty_knight
		position = 10
		required_missions = { siadan_the_crown_of_ishtara } 
		provinces_to_highlight = {  } 

		trigger = {
			OR = {
				reform_level = 2
				government = monarchy
			}
			manpower = 5
			treasury = 200
		}

		effect = {
			add_manpower = -5
			add_treasury = -200
			add_country_modifier = {
				name = siadan_stormtalons
				duration = -1
			}
		}
	}

	siadan_question_of_the_sad_sur = {
		icon = mission_build_up_to_force_limit
		position = 11
		required_missions = {
			siadan_the_stormtalon_guard
			siadan_the_upriver_wars
		}
		provinces_to_highlight = {
			OR = {
				area = jixobix_area
				area = grixekyr_area
				area = garpix_tluukt_area
				area = sur_mountains_area
				province_id = 691
			}
			NOT = { owned_by = ROOT } 
			NOT = { is_core = ROOT } 
		}

		trigger = {
			jixobix_area = {
				type = all
				owned_by = ROOT
				is_core = ROOT
			}
			grixekyr_area = {
				type = all
				owned_by = ROOT
				is_core = ROOT
			}
			garpix_tluukt_area = {
				type = all
				owned_by = ROOT
				is_core = ROOT
			}
			sur_mountains_area = {
				type = all
				owned_by = ROOT
				is_core = ROOT
			}
			owns_core_province = 691
		}

		effect = { country_event = { id = flavour_siadan.7 }  } 
	}

	siadan_the_great_harem = {
		icon = mission_ottoman_harem
		position = 12
		required_missions = {
			siadan_a_permanent_capital
			siadan_proclamation_of_bulwar
		}
		provinces_to_highlight = {  } 

		trigger = {
			OR = {
				reform_level = 4
				government = monarchy
			}
			4411 = { has_courthouse_building_trigger = yes } 
			treasury = 500
		}

		effect = {
			add_treasury = -500
			4411 = {
				add_hobgoblin_minority_size_effect = yes
				add_elven_minority_size_effect = yes
				if = {
					limit = { ROOT = { has_country_flag = siadan_orcs_in_harem }  } 
					add_orcish_minority_size_effect = yes
				}
				if = {
					limit = { ROOT = { has_country_flag = siadan_goblins_in_harem }  } 
					add_goblin_minority_size_effect = yes
				}
			}
			4411 = {
				add_province_modifier = {
					name = siadan_great_harem
					duration = -1
				}
			}
			define_advisor = {
				type = diplomat
				skill = 2
				culture = siadunan_harpy
				religion = the_hunt
				discount = yes
			}
		}
	}

	siadan_center_of_power = {
		icon = mission_city_prosperity
		position = 13
		required_missions = {
			siadan_stormtalon_keep
			siadan_the_new_hunt
			siadan_the_great_harem
		}
		provinces_to_highlight = {  } 

		trigger = {
			OR = {
				reform_level = 4
				government = monarchy
			}
			treasury = 1000
			has_dip_advisor_3 = yes
			has_mil_advisor_3 = yes
		}

		effect = {
			add_treasury = -1000
			country_event = { id = flavour_siadan.19 }
		}
	}

	siadan_the_institutional_harem = {
		icon = mission_interfaith_relations
		position = 15
		required_missions = { siadan_the_harpy_empire } 
		provinces_to_highlight = {  } 

		trigger = {
			adm_power = 150
			government_reform_progress = 100
			reform_level = 4
		}

		effect = {
			add_adm_power = 150
			change_government_reform_progress = -100
			add_government_reform = siadan_institutional_harem
		}
	}

	siadan_beating_heart_of_empire = {
		icon = fortress_switzerland
		position = 16
		required_missions = { siadan_the_institutional_harem } 
		provinces_to_highlight = { province_id = 4411 } 

		trigger = {
			4411 = {
				development = 60
				OR = {
					has_building = workshop
					has_building = counting_house
				}
				has_building = training_fields
				OR = {
					has_building = trade_depot
					has_building = stock_exchange
				}
				if = {
					limit = { has_dlc = "Dharma" } 
					province_has_center_of_trade_of_level = 3
				}
			}
			treasury = 2000
		}

		effect = {
			4411 = {
				add_province_modifier = {
					name = siadan_beating_heart_of_empire
					duration = -1
				}
			}
		}
	}

	siadan_the_stormshield = {
		icon = mission_arca_ore
		position = 18
		required_missions = { siadan_the_stormlen } 
		provinces_to_highlight = {
			OR = {
				province_id = 556
				province_id = 651
				province_id = 650
				province_id = 4117
				province_id = 676
			}
			OR = {
				NOT = { fort_level = 4 } 
				NOT = { has_building = training_fields } 
				NOT = { has_forcelimit_building_trigger = yes } 
			}
		}

		trigger = {
			556 = {
				fort_level = 4
				has_building = training_fields
				has_forcelimit_building_trigger = yes
			}
			651 = {
				fort_level = 4
				has_building = training_fields
				has_forcelimit_building_trigger = yes
			}
			650 = {
				fort_level = 4
				has_building = training_fields
				has_forcelimit_building_trigger = yes
			}
			4117 = {
				fort_level = 4
				has_building = training_fields
				has_forcelimit_building_trigger = yes
			}
			676 = {
				fort_level = 4
				has_building = training_fields
				has_forcelimit_building_trigger = yes
			}
			treasury = 2500
			manpower = 20
		}

		effect = {
			add_treasury = -2500
			add_manpower = -20
			556 = {
				add_province_modifier = {
					name = siadan_stormshield_fortress
					duration = -1
				}
			}
			651 = {
				add_province_modifier = {
					name = siadan_stormshield_fortress
					duration = -1
				}
			}
			650 = {
				add_province_modifier = {
					name = siadan_stormshield_fortress
					duration = -1
				}
			}
			4117 = {
				add_province_modifier = {
					name = siadan_stormshield_fortress
					duration = -1
				}
			}
			676 = {
				add_province_modifier = {
					name = siadan_stormshield_fortress
					duration = -1
				}
			}
		}
	}
}
siadan_series_3_2 = {
	slot = 3
	generic = no
	ai = yes
	has_country_shield = yes
	potential = {
		tag = F48
		has_country_flag = siadan_part_2
	}

	siadan_the_crown_of_ishtara = {
		icon = mission_empire
		position = 9
		required_missions = { siadan_an_age_of_siadanlen } 
		provinces_to_highlight = {  } 

		trigger = {
			custom_trigger_tooltip = {
				tooltip = siadan_started_demonsterization_tt
				has_country_flag = removing_monstrous
			}
			has_institution = renaissance
		}

		effect = {
			siadan_add_province_permanent_claim = { province = 4411 } 
			siadan_add_province_permanent_claim = { province = 4367 } 
			siadan_add_province_permanent_claim = { province = 601 } 
			siadan_add_province_permanent_claim = { province = 608 } 
			siadan_add_province_permanent_claim = { province = 616 } 
			add_country_modifier = {
				name = siadan_forging_an_empire
				duration = -1
			}
		}
	}

	siadan_a_permanent_capital = {
		icon = mission_eastern_european_city
		position = 11
		required_missions = {
			siadan_down_the_dhenbasana
			siadan_the_stormtalon_guard
		}
		provinces_to_highlight = {
			area = inner_rahen_area
			NOT = { owned_by = ROOT } 
			NOT = { is_core = ROOT } 
		}

		trigger = {
			adm_power = 200
			inner_rahen_area = {
				type = all
				owned_by = ROOT
				is_core = ROOT
			}
		}

		effect = {
			4411 = {
				change_province_name = "Siadunasar"
				change_culture = siadunan_harpy
				change_religion = the_hunt
			}
			2904 = {
				add_base_manpower = -3
				add_base_production = -3
				add_base_tax = -3
			}
			
			country_event = { id = flavour_siadan.140 }
			custom_tooltip = siadan_permanent_capital_tt
		}
	}

	siadan_stormtalon_keep = {
		icon = mission_found_the_city_of_agra
		position = 12
		required_missions = { siadan_a_permanent_capital } 
		provinces_to_highlight = { province_id = 4411 } 

		trigger = {
			manpower = 5
			treasury = 1500
			4411 = {
				has_manpower_building_trigger = yes
				has_fort_building_trigger = yes
			}
		}

		effect = {
			add_manpower = -5
			add_treasury = -1500
			4411 = {
				add_province_modifier = {
					name = siadan_stormtalon_headquarters
					duration = -1
				}
			}
		}
	}

	siadan_fist_of_the_empress = {
		icon = mission_captured
		position = 13
		required_missions = { siadan_stormtalon_keep } 
		provinces_to_highlight = {  } 

		trigger = {
			OR = {
				reform_level = 4
				government = monarchy
			}
			army_tradition = 20
			has_mil_advisor_3 = yes
			mil_power = 200
		}

		effect = {
			add_army_tradition = -10
			add_mil_power = -200
			unlock_merc_company = {
				merc_company = merc_siadan_stormtalon_guard
				free_merc = yes
			}
		}
	}

	siadan_the_harpy_empire = {
		icon = ansbach_succession
		position = 14
		required_missions = {
			siadan_intimate_connections
			siadan_triumph_at_sramaya
			siadan_fist_of_the_empress
			siadan_the_siadanlen_express
			siadan_center_of_power
		}
		provinces_to_highlight = {  } 

		trigger = {
			NOT = { has_country_modifier = monstrous_nation } 
			government = monarchy
			stability = 2
		}

		effect = {
			remove_country_modifier = siadan_forging_an_empire
			if = {
				limit = { NOT = { government_rank = 3 }  } 
				set_government_rank = 3
			}
			add_government_reform = siadan_harpy_empire
		}
	}

	siadan_couriers_of_the_empire = {
		icon = mission_build_up_to_force_limit
		position = 15
		required_missions = { siadan_the_harpy_empire } 
		provinces_to_highlight = {
			OR = {
				province_group = golden_highway_bulwar_proper
				province_group = golden_highway_far_bulwar
				province_group = golden_highway_far_salahad
				province_group = golden_highway_rahen_coast
			}
			NOT = { has_province_modifier = golden_highway } 
		}

		trigger = {
			custom_trigger_tooltip = {
				tooltip = siadan_brasan_sramaya_highway_tt
				golden_highway_bulwar_proper = {
					type = all
					has_province_modifier = golden_highway
				}
				golden_highway_far_bulwar = {
					type = all
					has_province_modifier = golden_highway
				}
				golden_highway_far_salahad = {
					type = all
					has_province_modifier = golden_highway
				}
				golden_highway_rahen_coast = {
					type = all
					has_province_modifier = golden_highway
				}
			}
			OR = {
				treasury = 1400
				AND = {
					advisor = spymaster
					treasury = 1000
				}
			}
			absolutism = 40
		}

		effect = {
			if = {
				limit = { advisor = spymaster } 
				add_treasury = -1000
			}
			else = { add_treasury = -1400 } 
			remove_country_modifier = siadan_the_siadanlen_express_modifier
			add_country_modifier = {
				name = siadan_imperial_courier_service
				duration = -1
			}
		}
	}

	siadan_harpy_legionnaires = {
		icon = mission_assemble_an_army
		position = 16
		required_missions = {
			siadan_couriers_of_the_empire
			siadan_terrors_in_the_storm
		}
		provinces_to_highlight = {  } 

		trigger = {
			if = {
				limit = { has_dlc = "Cradle of Civilization" } 
				OR = {
					army_professionalism = 0.6
					treasury = 2000
				}
			}
			else = { treasury = 2000 } 
			mil_power = 200
		}

		effect = {
			add_mil_power = -200
			if = {
				limit = {
					OR = {
						NOT = { has_dlc = "Cradle of Civilization" } 
						NOT = { army_professionalism = 0.6 } 
					}
				}
				add_treasury = -2000
			}
			remove_country_modifier = siadan_new_army_2
			add_country_modifier = {
				name = siadan_new_army_3
				duration = -1
			}
		}
	}

	siadan_eternal_autocracy = {
		icon = mission_female_throne
		position = 17
		required_missions = {
			siadan_beating_heart_of_empire
			siadan_harpy_legionnaires
		}
		provinces_to_highlight = {  } 

		trigger = {
			absolutism = 75
			legitimacy = 100
			prestige = 75
			has_adm_advisor_3 = yes
			has_dip_advisor_3 = yes
			has_mil_advisor_3 = yes
		}

		effect = {
			add_country_modifier = {
				name = siadan_eternal_autocracy
				duration = -1
			}
		}
	}

	siadan_the_triumph_at_parusapa = {
		icon = mission_subdue_rajputana
		position = 19
		required_missions = {
			siadan_the_siadunan_hills
			siadan_eternal_autocracy
			siadan_talon_grip_on_the_kharunyana
			siadan_the_north_tamed
			siadan_the_stormshield
		}
		provinces_to_highlight = { province_id = 4412 } 

		trigger = {
			is_at_war = no
			4412 = {
				num_of_units_in_province = {
					who = ROOT
					amount = 120
				}
			}
		}

		effect = {
			country_event = { id = flavour_siadan.12 } 
			4412 = {
				add_province_modifier = {
					name = siadan_triumphal_grounds
					duration = -1
				}
			}

		}
	}
}
siadan_series_4_2 = {
	slot = 4
	generic = no
	ai = yes
	has_country_shield = yes
	potential = {
		tag = F48
		has_country_flag = siadan_part_2
	}

	siadan_down_the_dhenbasana = {
		icon = mission_conquer_maharashtra
		position = 10
		required_missions = { siadan_the_crown_of_ishtara } 
		provinces_to_highlight = {
			OR = {
				province_id = 4411
				province_id = 4367
			}
			NOT = { country_or_non_sovereign_subject_holds = ROOT } 
		}

		trigger = {
			owns_or_non_sovereign_subject_of = 4411
			owns_or_non_sovereign_subject_of = 4367
			4411 = {
				num_of_units_in_province = {
					who = ROOT
					amount = 20
				}
			}

			OR = {
				R62 = {
					AND = {
						custom_trigger_tooltip = {
							tooltip = siadan_improved_relations_tt
							has_opinion_modifier = {
								who = ROOT
								modifier = improved_relation
								value = 100
							}
						}
						trust = {
							who = ROOT
							value = 60
						}
					}
				}
				has_spy_network_in = {
						who = R62
						value = 30
				}
			}
		}


		effect = {
			if = {
				limit = { alliance_with = R62 }
				add_country_modifier = {
					name = siadan_comanding_ataches
					duration = 7300
				}
			}
			
			siadan_add_scope_permanent_claim = { scope = rahen_coast_region } 
		}
	}

	siadan_pact_of_ishtara = {
		icon = hungarian_union
		position = 11
		required_missions = { siadan_down_the_dhenbasana } 
		provinces_to_highlight = {
			OR = {
				is_core = R50
				is_core = R43
				is_core = R45
			}
			NOT = { country_or_non_sovereign_subject_holds = ROOT } 
		}

		trigger = {
			custom_trigger_tooltip = {
				tooltip = siadan_pact_of_ishtara_trigger_tt
				OR = {
					R50 = {
						has_opinion_modifier = {
							who = ROOT
							modifier = improved_relation
							value = 100
						}
					}
					R43 = {
						has_opinion_modifier = {
							who = ROOT
							modifier = improved_relation
							value = 100
						}
					}
					R45 = {
						has_opinion_modifier = {
							who = ROOT
							modifier = improved_relation
							value = 100
						}
					}
					AND = {
						NOT = {
							exists = R50
							exists = R43
							exists = R45
						}
						any_owned_province = {
							OR = {
								is_core = R50
								is_core = R43
								is_core = R45
							}
						}
					}
				}
			}
		}

		effect = {
			custom_tooltip = siadan_pact_of_ishtara_effect_tt
			hidden_effect = {
				if = {
					limit = {
						R50 = {
							has_opinion_modifier = {
								who = ROOT
								modifier = improved_relation
								value = 100
							}
							NOT = { total_development = 200 } 
							NOT = { is_subject_of = ROOT } 
						}
					}
					R50 = { country_event = { id = flavour_siadan.15 }  } 
				}
				else_if = {
					limit = {
						R43 = {
							has_opinion_modifier = {
								who = ROOT
								modifier = improved_relation
								value = 100
							}
							NOT = { total_development = 200 } 
							NOT = { is_subject_of = ROOT } 
						}
					}
					R43 = { country_event = { id = flavour_siadan.15 }  } 
				}
				else_if = {
					limit = {
						R45 = {
							has_opinion_modifier = {
								who = ROOT
								modifier = improved_relation
								value = 100
							}
							NOT = { total_development = 200 } 
							NOT = { is_subject_of = ROOT } 
						}
					}
					R45 = { country_event = { id = flavour_siadan.15 }  } 
				}
				else_if = {
					limit = {
						R50 = {
							has_opinion_modifier = {
								who = ROOT
								modifier = improved_relation
								value = 100
							}
							NOT = { is_subject_of = ROOT } 
						}
					}
					R50 = { country_event = { id = flavour_siadan.15 }  } 
				}
				else_if = {
					limit = {
						R43 = {
							has_opinion_modifier = {
								who = ROOT
								modifier = improved_relation
								value = 100
							}
							NOT = { is_subject_of = ROOT } 
						}
					}
					R43 = { country_event = { id = flavour_siadan.15 }  } 
				}
				else_if = {
					limit = {
						R45 = {
							has_opinion_modifier = {
								who = ROOT
								modifier = improved_relation
								value = 100
							}
							NOT = { is_subject_of = ROOT } 
						}
					}
					R45 = { country_event = { id = flavour_siadan.15 }  } 
				}
				else_if = {
					limit = {
						NOT = {
							exists = R50
							exists = R43
							exists = R45
						}
						any_owned_province = { is_core = R50 } 
					}
					create_vassal = R50
				}
				else_if = {
					limit = {
						NOT = {
							exists = R50
							exists = R43
							exists = R45
						}
						any_owned_province = { is_core = R43 } 
					}
					create_vassal = R43
				}
				else_if = {
					limit = {
						NOT = {
							exists = R50
							exists = R43
							exists = R45
						}
						any_owned_province = { is_core = R45 } 
					}
					create_vassal = R45
				}
			}
		}
	}

	siadan_render_unto_siadan = {
		icon = mission_destroyed_city
		position = 12
		required_missions = { siadan_pact_of_ishtara } 
		provinces_to_highlight = {
            OR = {
                area = bharagha_area
                area = tujgal_area
                area = harimars_cradle_area
                province_id = 4369
                province_id = 4372
                province_id = 4371
                province_id = 4370
                province_id = 4393
                province_id = 4394
            }
            NOT = { country_or_non_sovereign_subject_holds = ROOT }
        }

		trigger = {
			OR = {
				R50 = { is_subject_of = ROOT } 
				R43 = { is_subject_of = ROOT } 
				R45 = { is_subject_of = ROOT } 
			}
			custom_trigger_tooltip = {
				tooltip = siadan_render_unto_siadan_trigger_tt
				bharagha_area = {
					type = all
					country_or_non_sovereign_subject_holds = ROOT
					OR = {
						owned_by = ROOT
						owned_by = R50
						owned_by = R43
						owned_by = R45
					}
				}
				tujgal_area = {
					type = all
					country_or_non_sovereign_subject_holds = ROOT
					OR = {
						owned_by = ROOT
						owned_by = R50
						owned_by = R43
						owned_by = R45
					}
				}
				harimars_cradle_area = {
					type = all
					country_or_non_sovereign_subject_holds = ROOT
					OR = {
						owned_by = ROOT
						owned_by = R50
						owned_by = R43
						owned_by = R45
					}
				}
				4369 = {
					country_or_non_sovereign_subject_holds = ROOT
					OR = {
						owned_by = ROOT
						owned_by = R50
						owned_by = R43
						owned_by = R45
					}
				}
				4372 = {
					country_or_non_sovereign_subject_holds = ROOT
					OR = {
						owned_by = ROOT
						owned_by = R50
						owned_by = R43
						owned_by = R45
					}
				}
				4371 = {
					country_or_non_sovereign_subject_holds = ROOT
					OR = {
						owned_by = ROOT
						owned_by = R50
						owned_by = R43
						owned_by = R45
					}
				}
				4370 = {
					country_or_non_sovereign_subject_holds = ROOT
					OR = {
						owned_by = ROOT
						owned_by = R50
						owned_by = R43
						owned_by = R45
					}
				}

				4393 = {
					country_or_non_sovereign_subject_holds = ROOT
					OR = {
						owned_by = ROOT
						owned_by = R50
						owned_by = R43
						owned_by = R45
					}
				}
				4394 = {
					country_or_non_sovereign_subject_holds = ROOT
					OR = {
						owned_by = ROOT
						owned_by = R50
						owned_by = R43
						owned_by = R45
					}
				}
			}
		}

		effect = {
			custom_tooltip = siadan_render_unto_siadan_effect_tt
			hidden_effect = {
				if = {
					limit = { R50 = { is_subject_of = ROOT }  } 
					R50 = { save_event_target_as = siadan_subject_tag } 
				}
				else_if = {
					limit = { R43 = { is_subject_of = ROOT }  } 
					R43 = { save_event_target_as = siadan_subject_tag } 
				}
				else_if = {
					limit = { R45 = { is_subject_of = ROOT }  } 
					R45 = { save_event_target_as = siadan_subject_tag } 
				}
				bharagha_area = {
					limit = { NOT = { owned_by = event_target:siadan_subject_tag }  } 
					add_core = event_target:siadan_subject_tag
					remove_core = owner
					cede_province = event_target:siadan_subject_tag
				}
				tujgal_area = {
					limit = { NOT = { owned_by = event_target:siadan_subject_tag }  } 
					add_core = event_target:siadan_subject_tag
					remove_core = owner
					cede_province = event_target:siadan_subject_tag
				}
				harimars_cradle_area = {
					limit = { NOT = { owned_by = event_target:siadan_subject_tag }  } 
					add_core = event_target:siadan_subject_tag
					remove_core = owner
					cede_province = event_target:siadan_subject_tag
				}
				4369 = {
					if = {
						limit = { NOT = { owned_by = event_target:siadan_subject_tag }  } 
						add_core = event_target:siadan_subject_tag
						remove_core = owner
						cede_province = event_target:siadan_subject_tag
					}
				}
				4372 = {
					if = {
						limit = { NOT = { owned_by = event_target:siadan_subject_tag }  } 
						add_core = event_target:siadan_subject_tag
						remove_core = owner
						cede_province = event_target:siadan_subject_tag
					}
				}
				4371 = {
					if = {
						limit = { NOT = { owned_by = event_target:siadan_subject_tag }  } 
						add_core = event_target:siadan_subject_tag
						remove_core = owner
						cede_province = event_target:siadan_subject_tag
					}
				}
				4370 = {
					if = {
						limit = { NOT = { owned_by = event_target:siadan_subject_tag }  } 
						add_core = event_target:siadan_subject_tag
						remove_core = owner
						cede_province = event_target:siadan_subject_tag
					}
				}

				4393 = {
					if = {
						limit = { NOT = { owned_by = event_target:siadan_subject_tag }  } 
						add_core = event_target:siadan_subject_tag
						remove_core = owner
						cede_province = event_target:siadan_subject_tag
					}
				}
				4394 = {
					if = {
						limit = { NOT = { owned_by = event_target:siadan_subject_tag }  } 
						add_core = event_target:siadan_subject_tag
						remove_core = owner
						cede_province = event_target:siadan_subject_tag
					}
				}
				set_country_flag = siadan_harimari_autonomy
				every_owned_province = {
					limit = { culture_is_harimari = yes } 
					add_province_modifier = {
						name = siadan_harimari_autonomy
						duration = -1
					}
				}
			}
		}
	}

	siadan_triumph_at_sramaya = {
		icon = mission_secure_the_malabar_coast
		position = 13
		required_missions = { siadan_render_unto_siadan } 
		provinces_to_highlight = {
			OR = {
				AND = {
					region = rahen_coast_region
					NOT = { country_or_non_sovereign_subject_holds = ROOT } 
				}
				province_id = 4420
			}
		}

		trigger = {
			rahen_coast_region = {
				type = all
				country_or_non_sovereign_subject_holds = ROOT
			}
			4420 = {
				num_of_units_in_province = {
					who = ROOT
					amount = 30
				}
			}
		}

		effect = {
			4420 = {
				add_province_modifier = {
					name = siadan_harpy_mercy
					duration = 9125
				}
			}
			siadan_crest_upgrade = yes
			if = {
				limit = { alliance_with = R62 } 
				country_event = { id = flavour_siadan.9 } 
			}
		}
	}

	siadan_terrors_in_the_storm = {
		icon = mission_destroyed_city
		position = 15
		required_missions = { siadan_the_harpy_empire } 
		provinces_to_highlight = {  } 

		trigger = {
			has_dip_advisor_3 = yes
			has_mil_advisor_3 = yes
			manpower = 10
			treasury = 1000
		}

		effect = {
			add_manpower = -10
			add_treasury = -1000
			country_event = {
				id = flavour_siadan.11
			}
		}
	}

	siadan_consolidate_dhujat = {
		icon = mission_invade_island
		position = 16
		required_missions = { siadan_war_in_the_east } 
		provinces_to_highlight = {
			region = dhujat_region
			NOT = { culture_is_harpy = yes } 
			OR = {
				NOT = { owned_by = ROOT } 
				NOT = { has_manpower_building_trigger = yes } 
				NOT = { has_courthouse_building_trigger = yes } 
				NOT = {
					num_of_units_in_province = {
						who = ROOT
						amount = 1
					}
				}
			}
		}

		trigger = {
			dhujat_region = {
				type = all
				owned_by = ROOT
				is_core = ROOT
			}
			custom_trigger_tooltip = {
				tooltip = siadan_dhujat_highway_tt
				golden_highway_dhujat = {
					type = all
					has_province_modifier = golden_highway
				}
			}
			num_of_owned_provinces_with = {
				value = 5
				region = dhujat_region
				siadan_valid_harpy_brothel_province = yes
			}
		}

		effect = {
			custom_tooltip = siadan_harpy_brothels_gain_tt
			hidden_effect = { 
				for = { 
					amount = 5
					effect = " 
						random_owned_province = {
							limit = {
								region = dhujat_region
								siadan_valid_harpy_brothel_province = yes
							}

							add_harpy_minority_size_effect = yes
							add_province_modifier = {
								name = siadan_barrack_brothel
								duration = -1
							}

							kill_units = {
								who = ROOT
								amount = 1
							}
						}
					"
				}  
			} 
			siadan_add_scope_permanent_claim = { scope = porcelain_cities } 
		}
	}

	siadan_crossing_the_kharunyana = {
		icon = mission_se_along_the_river
		position = 17
		required_missions = { siadan_consolidate_dhujat } 
		provinces_to_highlight = {
			province_group = porcelain_cities
			NOT = { country_or_non_sovereign_subject_holds = ROOT } 
		}

		trigger = {
			porcelain_cities = {
				type = all
				country_or_non_sovereign_subject_holds = ROOT
			}
		}

		effect = {
			siadan_add_scope_permanent_claim = { scope = li_btei_area } 
			siadan_add_scope_permanent_claim = { scope = phangban_area } 
			siadan_add_scope_permanent_claim = { scope = semphrerong_area } 
			siadan_add_scope_permanent_claim = { scope = dhurasara_area } 
			siadan_add_scope_permanent_claim = { scope = sarisung_area } 
			siadan_add_scope_permanent_claim = { scope = tzingyuan_area } 
			siadan_add_scope_permanent_claim = { scope = rangadevi_area } 
			siadan_add_scope_permanent_claim = { scope = qianzhaolin_area } 
		}
	}

	siadan_talon_grip_on_the_kharunyana = {
		icon = Control_Junkers
		position = 18
		required_missions = { siadan_crossing_the_kharunyana } 
		provinces_to_highlight = {
			OR = {
				AND = {
					OR = {
						area = li_btei_area
						area = phangban_area
						area = semphrerong_area
						area = dhurasara_area
						area = sarisung_area
						area = tzingyuan_area
						area = rangadevi_area
						area = qianzhaolin_area
					}
					NOT = { country_or_non_sovereign_subject_holds = ROOT } 
				}
				AND = {
					province_group = porcelain_cities
					NOT = { has_province_modifier = siadan_barrack_brothel } 
					OR = {
						NOT = { has_trade_building_trigger = yes } 
						NOT = { has_manpower_building_trigger = yes } 
						NOT = { has_courthouse_building_trigger = yes } 
						NOT = {
							num_of_units_in_province = {
								who = ROOT
								amount = 1
							}
						}
					}
				}
			}
		}

		trigger = {
			li_btei_area = {
				type = all
				country_or_non_sovereign_subject_holds = ROOT
			}
			phangban_area = {
				type = all
				country_or_non_sovereign_subject_holds = ROOT
			}
			semphrerong_area = {
				type = all
				country_or_non_sovereign_subject_holds = ROOT
			}
			dhurasara_area = {
				type = all
				country_or_non_sovereign_subject_holds = ROOT
			}
			sarisung_area = {
				type = all
				country_or_non_sovereign_subject_holds = ROOT
			}
			tzingyuan_area = {
				type = all
				country_or_non_sovereign_subject_holds = ROOT
			}
			rangadevi_area = {
				type = all
				country_or_non_sovereign_subject_holds = ROOT
			}
			qianzhaolin_area = {
				type = all
				country_or_non_sovereign_subject_holds = ROOT
			}
			porcelain_cities = {
				type = all
				OR = {
					has_province_modifier = siadan_barrack_brothel
					AND = {
						has_trade_building_trigger = yes
						has_manpower_building_trigger = yes
						has_courthouse_building_trigger = yes
						num_of_units_in_province = {
							who = ROOT
							amount = 1
						}
					}
				}
			}
		}

		effect = {
			porcelain_cities = {
				limit = { NOT = { has_province_modifier = siadan_barrack_brothel }  } 
				add_harpy_minority_size_effect = yes
				add_province_modifier = {
					name = siadan_barrack_brothel
					duration = -1
				}
				kill_units = {
					who = ROOT
					amount = 1
				}
			}
			4420 = {
				add_province_modifier = {
					name = siadan_talon_grip_on_the_kharunyana
					duration = -1
				}
			}
		}
	}
}
siadan_series_5_2 = {
	slot = 5
	generic = no
	ai = yes
	has_country_shield = yes
	potential = {
		tag = F48
		has_country_flag = siadan_part_2
	}

	siadan_direction_of_the_army = {
		icon = mission_swiss_mercenaries_flipped
		position = 10
		required_missions = { siadan_the_crown_of_ishtara } 
		provinces_to_highlight = {  } 

		trigger = {
			OR = {
				reform_level = 2
				government = monarchy
			}
			is_at_war = no
			manpower_percentage = 0.5
			has_mil_advisor_2 = yes
		}

		effect = {
			add_country_modifier = {
				name = siadan_new_army_1
				duration = -1
			}
			if = {
				limit = { has_dlc = "Cradle of Civilization" } 
				add_country_modifier = {
					name = siadan_drastic_reorganisation
					duration = 1825
				}
			}
			else = {
				add_country_modifier = {
					name = siadan_drastic_reorganisation_tradition
					duration = 1825
				}
			}
		}
	}

	siadan_by_blood_or_talon = {
		icon = mission_burning_castle
		position = 11
		required_missions = { siadan_direction_of_the_army } 
		provinces_to_highlight = {  } 

		trigger = {
			if = {
				limit = { has_dlc = "Cradle of Civilization" } 
				army_professionalism = 0.2
			}
			else = {
				mil_power = 200
				army_tradition = 40
			}
		}

		effect = {
			if = {
				limit = { NOT = { has_dlc = "Cradle of Civilization" }  } 
				add_mil_power = -200
			}
			remove_country_modifier = siadan_new_army_1
			add_country_modifier = {
				name = siadan_new_army_2
				duration = -1
			}
			hidden_effect = {
				country_event = {
					id = flavour_siadan.14
					days = 730
				}
			}
		}
	}

	siadan_an_innovative_idea = {
		icon = geneva_conventions
		position = 12
		required_missions = { siadan_by_blood_or_talon } 
		provinces_to_highlight = {
			OR = {
				region = rakhadesh_region
				region = far_salahad_region
				region = far_bulwar_region
			}
			NOT = { culture_is_harpy = yes } 
			OR = {
				NOT = { has_manpower_building_trigger = yes } 
				NOT = { has_courthouse_building_trigger = yes } 
				NOT = {
					num_of_units_in_province = {
						who = ROOT
						amount = 1
					}
				}
			}
		}

		trigger = {
			OR = {
				reform_level = 3
				government = monarchy
			}
			has_country_modifier = siadan_manpower_troubles
			num_of_owned_provinces_with = {
				value = 5
				region = rakhadesh_region
				siadan_valid_harpy_brothel_province = yes
			}
			num_of_owned_provinces_with = {
				value = 5
				OR = {
					region = far_salahad_region
					region = far_bulwar_region
				}
				siadan_valid_harpy_brothel_province = yes
			}
		}

		effect = {
			custom_tooltip = siadan_harpy_brothels_gain_tt
			hidden_effect = {
				for = { 
					amount = 5
					effect = " 
					random_owned_province = {
						limit = {
							region = rakhadesh_region
							siadan_valid_harpy_brothel_province = yes
						}

						add_harpy_minority_size_effect = yes
						add_province_modifier = {
							name = siadan_barrack_brothel
							duration = -1
						}

						kill_units = {
							who = ROOT
							amount = 1
						}
					}
				"
				} 
				for = { 
					amount = 5
					effect = "
						random_owned_province = {
							limit = {
								OR = {
									region = far_salahad_region
									region = far_bulwar_region
								}
								siadan_valid_harpy_brothel_province = yes
							}

							add_harpy_minority_size_effect = yes
							add_province_modifier = {
								name = siadan_barrack_brothel
								duration = -1
							}

							kill_units = {
								who = ROOT
								amount = 1
							}
						}
					"
				} 
			}
			remove_country_modifier = siadan_manpower_troubles
		}
	}

	siadan_intimate_connections = {
		icon = mission_harpy_diplomats
		position = 13
		required_missions = { siadan_an_innovative_idea } 
		provinces_to_highlight = {
			OR = {
				region = rahen_coast_region
				region = bulwar_proper_region
			}
			NOT = { culture_is_harpy = yes } 
			OR = {
				NOT = { has_manpower_building_trigger = yes } 
				NOT = { has_courthouse_building_trigger = yes } 
				NOT = {
					num_of_units_in_province = {
						who = ROOT
						amount = 1
					}
				}
			}
		}

		trigger = {
			OR = {
				reform_level = 4
				government = monarchy
			}
			num_of_owned_provinces_with = {
				value = 5
				region = rahen_coast_region
				has_manpower_building_trigger = yes
				has_courthouse_building_trigger = yes
				NOT = { culture_is_harpy = yes } 
				num_of_units_in_province = {
					who = ROOT
					amount = 1
				}
			}
			num_of_owned_provinces_with = {
				value = 5
				region = bulwar_proper_region
				siadan_valid_harpy_brothel_province = yes
			}
		}

		effect = {
			custom_tooltip = siadan_harpy_brothels_gain_tt
			hidden_effect = {
				for = { 
					amount = 5 
					effect = " 
					random_owned_province = {
						limit = {
							region = rahen_coast_region
							siadan_valid_harpy_brothel_province = yes
						}

						add_harpy_minority_size_effect = yes
						add_province_modifier = {
							name = siadan_barrack_brothel
							duration = -1
						}

						kill_units = {
							who = ROOT
							amount = 1
						}
					}
				"
				} 
				for = { 
					amount = 5 
					effect = "
					random_owned_province = {
						limit = {
							region = bulwar_proper_region
							siadan_valid_harpy_brothel_province = yes
						}

						add_harpy_minority_size_effect = yes
						add_province_modifier = {
							name = siadan_barrack_brothel
							duration = -1
						}

						kill_units = {
							who = ROOT
							amount = 1
						}
					}
				"
				} 
			}
			add_country_modifier = {
				name = siadan_harpy_population_boom
				duration = 3650
			}
			decrease_monstrous_5 = yes
		}
	}

	siadan_war_in_the_east = {
		icon = mission_non-western_cavalry_raid
		position = 15
		required_missions = { siadan_the_harpy_empire } 
		provinces_to_highlight = { province_id = 4391 } 

		trigger = {
			4391 = {
				num_of_units_in_province = {
					who = ROOT
					amount = 50
				}
			}
			army_size_percentage = 0.9
			manpower_percentage = 0.75
		}

		effect = {
			if = {
				limit = { alliance_with = R62 }
				country_event = { id = flavour_siadan.10 } 
			}
			siadan_add_province_permanent_claim = { province = 4485 } 
			dhujat_region = { add_claim = ROOT } 
		}
	}

	siadan_cast_the_die = {
		icon = mission_elephant_war
		position = 16
		required_missions = { siadan_war_in_the_east } 
		provinces_to_highlight = {
			OR = {
				AND = {
					region = dhujat_region
					owned_by = R62
				}
				AND = {
					province_id = 4391
					NOT = { owned_by = ROOT } 
				}
			}
		}

		trigger = {
			NOT = { dhujat_region = { owned_by = R62 }  } 
			4391 = { owned_by = ROOT }
			if = {
				limit = { exists = R62 }
				R62 = { has_been_insulted_by_root = yes } 
			}
		}

		effect = {
			siadan_add_scope_permanent_claim = { scope = dhujat_region } 
			siadan_add_province_permanent_claim = { province = 4630 } 
			4391 = {
				add_province_modifier = {
					name = siadan_eastern_military_headquarters
					duration = 7300
				}
			}
		}
	}

	siadan_funeral_pyre_of_a_nation = {
		icon = mission_in_the_name_of_the_fallen
		position = 17
		required_missions = { siadan_cast_the_die } 
		provinces_to_highlight = {  
			OR = {
				province_id = 4630
				province_id = 4397
				province_id = 4460
			}
		} 

		trigger = {  
			OR = {
				AND = {
					controls = 4630
					war_score_against = {
						who = R62
						value = 50
					}
				}

				AND = {
					R62 = {
						NOT = { total_development = 500 }
					}

					owns = 4630
					owns = 4397
					owns = 4460
				}
			}
		} 

		effect = {  
			if = {
				limit = { exists = R62 }
				country_event = { id = flavour_siadan.18 }
			}
			siadan_add_scope_permanent_claim = { scope = shamakhad_region }
		} 
	}

	siadan_the_north_tamed = {
		icon = mission_build_up_to_force_limit
		position = 18
		required_missions = { siadan_funeral_pyre_of_a_nation } 
		provinces_to_highlight = {  
			region = shamakhad_region
			OR = {
				NOT = { culture_is_harpy = yes }
				NOT = { country_or_non_sovereign_subject_holds = ROOT }
			}
			OR = {
				NOT = { has_manpower_building_trigger = yes }
				NOT = { has_courthouse_building_trigger = yes }
				NOT = {
					num_of_units_in_province = {
						who = ROOT
						amount = 1
					}
				}
			}	
		} 

		trigger = {  
			shamakhad_region = {
				type = all
				country_or_non_sovereign_subject_holds = ROOT
			}

			num_of_owned_provinces_with = {
				value = 10
				region = shamakhad_region
				siadan_valid_harpy_brothel_province = yes
			}
		} 

		effect = {  
			custom_tooltip = siadan_harpy_brothels_gain_tt
			hidden_effect = {
				for = {
					amount = 10
					effect = " 
						random_owned_province = {
							limit = {
								region = shamakhad_region
								siadan_valid_harpy_brothel_province = yes
							}

							add_harpy_minority_size_effect = yes
							add_province_modifier = {
								name = siadan_barrack_brothel
								duration = -1
							}

							kill_units = {
								who = ROOT
								amount = 1
							}
						}
					"
				}
			}
			add_country_modifier = {
				name = siadan_triumph_over_the_command
				duration = 730
			}
			siadan_crest_upgrade = yes
		}

	}
}
