

redscale_sprite_pack	 = {
	# Tests against every tag in game
	country_trigger = {
		OR = {
			tag = A26
			tag = Z38
 			was_tag = A26
			primary_culture = redscale_kobold

		}
	}

	sprite_infantry = {
		0 = REDSCALE_INFANTRY_1
		1 = REDSCALE_INFANTRY_2
		2 = REDSCALE_INFANTRY_3
		3 = REDSCALE_INFANTRY_4

	}

		sprite_artillery = {
		0 = REDSCALE_ARTILLERY_1
		1 = REDSCALE_ARTILLERY_2
		2 = REDSCALE_ARTILLERY_3
		3 = REDSCALE_ARTILLERY_4
	}
	
}

bluescale_sprite_pack	 = {
	# Tests against every tag in game
	country_trigger = {
		OR = {
		tag = A27
		tag = H31
 		was_tag = A27
		primary_culture = bluescale_kobold
				}
	}

	sprite_infantry = {
		0 = BLUESCALE_INFANTRY_1
		1 = BLUESCALE_INFANTRY_2
		2 = BLUESCALE_INFANTRY_3
		3 = BLUESCALE_INFANTRY_4

	}

		sprite_artillery = {
		0 = BLUESCALE_ARTILLERY_1
		1 = BLUESCALE_ARTILLERY_2
		2 = BLUESCALE_ARTILLERY_3
		3 = BLUESCALE_ARTILLERY_4
	}
	
}

greenscale_sprite_pack	 = {
	# Tests against every tag in game
	country_trigger = {
			OR = {
		tag = A28
		tag = Z56
 		was_tag = A28
		primary_culture = greenscale_kobold
				}
	}

	sprite_infantry = {
		0 = GREENSCALE_INFANTRY_1
		1 = GREENSCALE_INFANTRY_2
		2 = GREENSCALE_INFANTRY_3
		3 = GREENSCALE_INFANTRY_4

	}

		sprite_artillery = {
		0 = GREENSCALE_ARTILLERY_1
		1 = GREENSCALE_ARTILLERY_2
		2 = GREENSCALE_ARTILLERY_3
		3 = GREENSCALE_ARTILLERY_4
	}
	
}

goldscale_sprite_pack	 = {
	# Tests against every tag in game
	country_trigger = {
			OR = {
		tag = Y85
 		was_tag = Y85
		primary_culture = goldscale_kobold
				}
	}

	sprite_infantry = {
		0 = GOLDSCALE_INFANTRY_1
		1 = GOLDSCALE_INFANTRY_2
		2 = GOLDSCALE_INFANTRY_3
		3 = GOLDSCALE_INFANTRY_4

	}

		sprite_artillery = {
		0 = GOLDSCALE_ARTILLERY_1
		1 = GOLDSCALE_ARTILLERY_2
		2 = GOLDSCALE_ARTILLERY_3
		3 = GOLDSCALE_ARTILLERY_4
	}
	
}
