country_decisions = {

	heirs_of_bhengudak = {
		major = yes
		potential = {
			NOT = { tag = Y98 }
			NOT = { has_country_flag = formed_guwaamud_flag }
			OR = {
				primary_culture = shuvuush
				primary_culture = guwaadun
				primary_culture = chimbija
			}
			was_never_end_game_tag_trigger = yes
		}
		provinces_to_highlight = {
			OR = {
				province_id = 5348
				province_id = 5355
			}
		}
		allow = {
			is_free_or_tributary_trigger = yes
			is_at_war = no
			has_regency = no
			NOT = { exists = Y96 }
			total_development = 140
			num_of_owned_provinces_with = {
				value = 12
				region = odheongu_region
			}
			owns_core_province = 5348
			owns = 5355
			NOT = { has_ruler_modifier = faceless_queen_modifier }
		}
		effect = {
			set_country_flag = formed_guwaamud_flag
			set_ruler_flag = guwaamud_former
			add_ruler_modifier = { 
				name = Y91_guwaamud_fomer_mod
				duration = -1  
			}
			change_tag = Y96
			hidden_effect = { restore_country_name = yes }
			if = {
				limit = { primary_culture = chimbija }
				override_country_name = GUNGAMU
			}
			remove_non_electors_emperors_from_empire_effect = yes
			swap_non_generic_missions = yes
			add_prestige = 20
			if = {
				limit = {
					NOT = { government_rank = 2 }
				}
				set_government_rank = 2
			}
			change_government = monarchy
			add_government_reform = guwaamud_harem_reform
			if = {
				limit = { has_custom_ideas = no }
				country_event = { id = ideagroups.1 } #Swap Ideas
			}
			add_country_modifier = {
				name = "centralization_modifier"
				duration = 7300
			}
			if = {
				limit = { NOT = { primary_culture = chimbija } }
				custom_tooltip = Y91_horde_heritage_tt
				hidden_effect = {
					add_country_modifier = {
						name = Y91_horde_heritage_1
						duration = -1
					}
				}
			}
			jaddempire_move_court_minorities_from_to = {
				from = capital_scope
				province_id = 5348
			}
			hidden_effect = {
				jaddempire_move_court_minorities_from_to = {
					from = 5406
					province_id = 5348
				}
			}
			if = {
				limit = { NOT = { primary_culture = chimbija } }
				5348 = {
					move_capital_effect = yes
					change_culture = shuvuush
					change_province_name = "Bhengutai"
				}
			}
			odheongu_region = {
				limit = {
					NOT = { is_core = ROOT }
					NOT = { owned_by = ROOT }
				}
				add_permanent_claim = ROOT
			}
		}
		ai_will_do = {
			factor = 1
		}
		ai_importance = 400
	}
	
	the_great_empire = {
		major = yes
		potential = {
			NOT = { has_country_flag = formed_daxugo_flag }
			OR = {
				primary_culture = shuvuush
				primary_culture = guwaadun
				AND = {
					primary_culture = chimbija
					tag = Y96
				}
			}
		}
		provinces_to_highlight = {
			OR = {
				province_id = 4925
				province_id = 4859
				province_id = 4879
				province_id = 4871
				province_id = 4868
			}
		}
		allow = {
			is_subject = no
			is_at_war = no
			has_regency = no
			NOT = { exists = Y98 }
			adm_tech = 7
			num_of_owned_provinces_with = {
				value = 100
				superregion = yanshen_superregion
			}
			owns_core_province = 4925
			owns_core_province = 4859
			owns_core_province = 4879
			owns_core_province = 4871
			owns_core_province = 4868
			NOT = { has_ruler_modifier = faceless_queen_modifier }
			custom_trigger_tooltip = {
				tooltip = not_guwaamud_former
				NOT = { has_ruler_flag = guwaamud_former }
			}
		}
		effect = {
			change_tag = Y98
			hidden_effect = { restore_country_name = yes }
			remove_non_electors_emperors_from_empire_effect = yes
			swap_non_generic_missions = yes
			add_prestige = 25
			set_country_flag = formed_daxugo_flag
			set_ruler_flag = daxugo_former
			add_ruler_modifier = {
				name = Y91_daxugo_fomer_mod
				duration = -1  
			}
			if = {
				limit = { has_custom_ideas = no }
				country_event = { id = ideagroups.1 } #Swap Ideas
			}
			change_government = monarchy
			if = {
				limit = { 
					NOT = { 
						has_reform = guwaamud_harem_reform
					}
				}
				add_government_reform = autocracy_reform
			}
			add_country_modifier = {
				name = "centralization_modifier"
				duration = 7300
			}
			hidden_effect = {
				if = {
					limit = {
						has_country_modifier = Y91_horde_heritage_1
					}
					remove_country_modifier = Y91_horde_heritage_1
				}
			}
			custom_tooltip = Y91_horde_heritage_tt
			hidden_effect = {
				add_country_modifier = {
					name = Y91_horde_heritage_2
					duration = -1
				}
			}
			yanshen_superregion = {
				limit = {
					NOT = { is_core = ROOT }
					NOT = { owned_by = ROOT }
				}
				add_permanent_claim = ROOT
			}
			if = {
				limit = {
					NOT = { technology_group = tech_halessi }
				}
				change_technology_group = tech_halessi 
			}
			if = {
				limit = {
					NOT = { unit_type = tech_halessi }
				}
				change_unit_type = tech_halessi 
			}
#			hidden_effect = {
#				if = {
#					limit = { primary_culture = guwaadun }
#					every_owned_province = {
#						limit = { OR = { culture = chimbija culture = sangsogha culture = menjeotaen } }
#						change_culture = guwaadun
#					}
#				}
#			}
			change_primary_culture = daxug
			set_ruler_culture = daxug
			set_heir_culture = daxug
			if = {
				limit = {
					NOT = { government_rank = 3 }
				}
				set_government_rank = 3
			}
			hidden_effect = {
				every_owned_province = {
					limit = { culture = shuvuush }
					change_culture = daxug
				}
				if = {
					limit = { 
						Y90 = { 
							is_subject_of = ROOT
						}
					}
					Y90 = {
						change_primary_culture = daxug
						set_ruler_culture = daxug
						set_heir_culture = daxug
						every_owned_province = {
							limit = { culture = shuvuush }
							change_culture = daxug
						}
					}
				}
				if = {
					limit = { 
						Y92 = { 
							is_subject_of = ROOT
						}
					}
					Y92 = {
						change_primary_culture = daxug
						set_ruler_culture = daxug
						set_heir_culture = daxug
						every_owned_province = {
							limit = { culture = shuvuush }
							change_culture = daxug
						}
					}
				}
			}
			jaddempire_move_court_minorities_from_to = {
				from = capital_scope
				province_id = 4871
			}
			country_event = { id = flavor_nuugdan_tsarai.67 days = 30 }
			4871 = {
				move_capital_effect = yes 
				if = {
					limit = {
						4871 = {
							NOT = { culture = shuvuush }
						}
					}
					change_culture = daxug
				}
				change_province_name = "Duzhekho"
				change_religion = ROOT
			}
		}
		ai_will_do = {
			factor = 1
		}
		ai_importance = 400
	}

	form_baihon_xinh = { #Three Hundred Soldiers / Unified Khom Empire
		major = yes
		potential = {
			OR = {
				primary_culture = khom
				primary_culture = phonan
				AND = {
					primary_culture = gon
					NOT = {
						tag = Y57
					}
				}
			}
			NOT = { exists = Y97 }
			normal_or_historical_nations = yes
			was_never_end_game_tag_trigger = yes
			NOT = { has_country_flag = formed_baihon_flag }
		}
		provinces_to_highlight = {
			OR = {
				province_id = 4697
				province_id = 4701
				province_id = 4703
				province_id = 4764
				province_id = 5429
			}
			NOT = { owned_by = ROOT }
		}
		allow = {
			is_at_war = no
			is_free_or_tributary_trigger = yes
			owns_core_province = 4697
			owns_core_province = 4701
			owns_core_province = 4703
			owns_core_province = 4764
			owns_core_province = 5429
		}
		effect = {
			change_tag = Y97
			hidden_effect = { restore_country_name = yes }
			hidden_effect = {
				every_owned_province = {
					limit = {
						is_part_of_hre = yes
					}
					set_in_empire = no
				}
			}
			add_country_modifier = {
				name = "centralization_modifier"
				duration = 7300
				}
			# if = {
			#	limit = { has_reform = raja_reform }
			#	add_government_reform = feudalism_reform
			#	remove_country_modifier = raj_opened_senapti_ranks
			#	remove_country_modifier = raj_closed_senapti_ranks
			# }
			if = {
				limit = {
					NOT = { government_rank = 2 }
				}
				set_government_rank = 2
			}
			add_prestige = 25
			if = {
				limit = { has_custom_ideas = no }
				country_event = { id = ideagroups.1 } #Swap Ideas
			}
			set_country_flag = formed_baihon_flag
		}
		ai_will_do = {
			factor = 1
		}
	}
	
	form_thangoya = { #Golden Grass, united Sikai kingdom
		major = yes
		potential = {
			primary_culture = sikai
			NOT = { exists = Z62 }
			NOT = { ruler_culture = sunrise_elf }
			NOT = { has_country_flag = formed_thangoya_flag }
			normal_or_historical_nations = yes
			was_never_end_game_tag_trigger = yes
		}
		provinces_to_highlight = {
			OR = {
				area = thirabnir_area
				area = phakphon_area
				area = ngoen_area
				area = kaiden_area
			}
			NOT = { owned_by = ROOT }
		}
		allow = {
			is_at_war = no
			is_free_or_tributary_trigger = yes
			adm_tech = 7
			owns_core_province = 4777
			owns_core_province = 4788
			owns_core_province = 4778
			owns_core_province = 4789
			num_of_owned_provinces_with = {
				value = 10
				culture = sikai
			}
		}
		effect = {
			change_tag = Z62
			hidden_effect = { restore_country_name = yes }
			hidden_effect = {
				every_owned_province = {
					limit = {
						is_part_of_hre = yes
					}
					set_in_empire = no
				}
			}
			add_country_modifier = {
				name = "centralization_modifier"
				duration = 7300
				}
			set_government_rank = 2
			add_prestige = 15
			if = {
				limit = { government = republic }
				add_government_reform = kai_republic
			}
			if = {
				limit = { has_custom_ideas = no }
				country_event = { id = ideagroups.1 } #Swap Ideas
			}
			set_country_flag = formed_thangoya_flag
			thirabnir_area = {
				limit = {
					NOT = { is_core = ROOT }
					NOT = { owned_by = ROOT }
				}
				add_permanent_claim = ROOT
			}
			phakphon_area = {
				limit = {
					NOT = { is_core = ROOT }
					NOT = { owned_by = ROOT }
				}
				add_permanent_claim = ROOT
			}
			ngoen_area = {
				limit = {
					NOT = { is_core = ROOT }
					NOT = { owned_by = ROOT }
				}
				add_permanent_claim = ROOT
			}
			kaiden_area = {
				limit = {
					NOT = { is_core = ROOT }
					NOT = { owned_by = ROOT }
				}
				add_permanent_claim = ROOT
			}
		}
		ai_will_do = {
			factor = 1
		}
	}
	
	unite_thidinkai = {
		major = yes
		potential = {
			culture_group = kai
			NOT = { primary_culture = phonan }
			NOT = { primary_culture = khom }
			NOT = { ruler_culture = sunrise_elf }
			NOT = { exists = Z63 }
			NOT = { has_country_flag = formed_thidinkai_flag }
			normal_or_historical_nations = yes
			was_never_end_game_tag_trigger = yes
		}
		provinces_to_highlight = {
			region = thidinkai_region
			NOT = { owned_by = ROOT }
		}
		allow = {
			is_at_war = no
			is_free_or_tributary_trigger = yes
			adm_tech = 7
			owns_core_province = 4751
			owns_core_province = 4955
			owns_core_province = 4779
			num_of_owned_provinces_with = {
				value = 5
				culture = bokai
			}
			num_of_owned_provinces_with = {
				value = 5
				culture = binhrung
			}
			num_of_owned_provinces_with = {
				value = 5
				culture = sikai
			}
			OR = {
				num_of_owned_provinces_with = {
				value = 5
				culture = phonan
				}
				num_of_owned_provinces_with = {
					value = 5
					culture = hinphat
				}
			}
		}
		effect = {
			change_tag = Z63
			hidden_effect = { restore_country_name = yes }
			hidden_effect = {
				every_owned_province = {
					limit = {
						is_part_of_hre = yes
					}
					set_in_empire = no
				}
			}
			add_country_modifier = {
				name = "centralization_modifier"
				duration = 7300
				}
			set_government_rank = 3
			add_prestige = 25
			if = {
				limit = { has_custom_ideas = no }
				country_event = { id = ideagroups.1 } #Swap Ideas
			}
			if = {
				limit = { primary_culture = binhrung }
				override_country_name = CHAKKAD_YONHRUNG
			}
			set_country_flag = formed_thidinkai_flag
			thidinkai_region = {
				limit = {
					NOT = { is_core = ROOT }
					NOT = { owned_by = ROOT }
					NOT = { province_id = 5424 }
				}
				add_permanent_claim = ROOT
			}
			non_chien_area = {
				limit = {
					NOT = { is_core = ROOT }
					NOT = { owned_by = ROOT }
				}
				add_permanent_claim = ROOT
			}
			thuongidut_area = {
				limit = {
					NOT = { is_core = ROOT }
					NOT = { owned_by = ROOT }
				}
				add_permanent_claim = ROOT
			}
		}
		ai_will_do = {
			factor = 1
		}
	}
	
	king_of_kings_form = {
		major = yes
		potential = {
			culture_group = yanglam
			NOT = { exists = Z64 }
			NOT = { has_country_flag = formed_damoh_yangla_flag }
			normal_or_historical_nations = yes
			was_never_end_game_tag_trigger = yes
		}
		provinces_to_highlight = {
			region = lupulan_rainforest_region
			NOT = { owned_by = ROOT }
		}
		allow = {
			is_at_war = no
			is_free_or_tributary_trigger = yes
			prestige = 75
			legitimacy = 100
			num_of_owned_provinces_with = {
				value = 20
				region = lupulan_rainforest_region
			}
		}
		effect = {
			change_tag = Z64
			hidden_effect = { restore_country_name = yes }
			hidden_effect = {
				every_owned_province = {
					limit = {
						is_part_of_hre = yes
					}
					set_in_empire = no
				}
			}
			add_country_modifier = {
				name = "centralization_modifier"
				duration = 7300
			}
			set_government_rank = 2
			add_prestige = 15
			if = {
				limit = { primary_culture = sirtana }
				override_country_name = GEHET_SIRTAN
			}
			if = {
				limit = { has_custom_ideas = no }
				country_event = { id = ideagroups.1 } #Swap Ideas
			}
			set_country_flag = formed_damoh_yangla_flag
			lupulan_rainforest_region = {
				limit = {
					NOT = { is_core = ROOT }
					NOT = { owned_by = ROOT }
					NOT = { area = amkamsek_area }
					NOT = { area = hoangdesinh_area }
				}
				add_permanent_claim = ROOT
			}
		}
		ai_will_do = {
			factor = 1
		}
	}
	
	form_yanshen = {
		major = yes
		potential = {
			government = republic
			culture_group = yan
			NOT = { exists = Z65 }
			NOT = { 
				OR = {
					has_country_flag = formed_yanshen_flag
					has_country_flag = formed_liang_flag
					has_country_flag = formed_di_yichan_flag
					primary_culture = western_yan
					primary_culture = southern_yan
					primary_culture = eastern_yan
				}
			}
			normal_or_historical_nations = yes
			was_never_end_game_tag_trigger = yes
		}
		provinces_to_highlight = {
			superregion = yanshen_superregion
			NOT = { owned_by = ROOT }
		}
		allow = {
			is_at_war = no
			is_free_or_tributary_trigger = yes
			adm_tech = 7
			OR = {
				AND = {
					owns_core_province = 4871
					capital = 4871
				}
				capital_scope = {
					development = 45
				}
			}
			num_of_owned_provinces_with = {
				value = 50
				superregion = yanshen_superregion
			}
		}
		effect = {
			change_tag = Z65
			hidden_effect = {
				if = {
					limit = { was_tag = Y20 }
					save_global_event_target_as = feiten_or_was_feiten_target
				}
			}
			hidden_effect = { restore_country_name = yes }
			hidden_effect = {
				every_owned_province = {
					limit = {
						is_part_of_hre = yes
					}
					set_in_empire = no
				}
			}
			add_country_modifier = {
				name = "centralization_modifier"
				duration = 7300
				}
			set_government_rank = 3
			add_prestige = 35
			set_country_flag = formed_yanshen_flag
			if = {
				limit = {
					NOT = {
						capital = 4871
						OR = {
							primary_culture = forest_yan
							primary_culture = coastal_yan
						}
					}
				}
				capital_scope = {
					change_province_name = "Tongyi Cheng"
				}
			}
			else_if = {
				limit = {
					NOT = {
						capital = 4871
					}
					primary_culture = forest_yan
				}
				capital_scope = {
					change_province_name = "Tungjat Cing"
				}
			}
			else_if = {
				limit = {
					NOT = {
						capital = 4871
					}
					primary_culture = coastal_yan
				}
				capital_scope = {
					change_province_name = "Thung Siang"
				}
			}
			if = {
				limit = { has_custom_ideas = no }
				country_event = { id = ideagroups.1 } #Swap Ideas
			}
			if = {
				limit = { primary_culture = forest_yan }
				override_country_name = YANSING
			}
			else_if = {
				limit = { primary_culture = coastal_yan }
				override_country_name = YANSENG
			}
			yanshen_superregion = {
				limit = {
					NOT = { is_core = ROOT }
					NOT = { owned_by = ROOT }
				}
				add_permanent_claim = ROOT
			}
		}
		ai_will_do = {
			factor = 1
		}
	}
	
	form_liang = {
		major = yes
		potential = {
			government = monarchy
			culture_group = yan
			NOT = { exists = Z66 }
			NOT = { 
				OR = {
					has_country_flag = formed_yanshen_flag
					has_country_flag = formed_liang_flag
					has_country_flag = formed_di_yichan_flag
					primary_culture = western_yan
					primary_culture = southern_yan
					primary_culture = eastern_yan
				}
			}
			normal_or_historical_nations = yes
			was_never_end_game_tag_trigger = yes
		}
		provinces_to_highlight = {
			superregion = yanshen_superregion
			NOT = { owned_by = ROOT }
		}
		allow = {
			is_at_war = no
			is_free_or_tributary_trigger = yes
			adm_tech = 7
			OR = {
				AND = {
					owns_core_province = 4871
					capital = 4871
				}
				capital_scope = {
					development = 45
				}
			}
			num_of_owned_provinces_with = {
				value = 50
				superregion = yanshen_superregion
			}
		}
		effect = {
			change_tag = Z66
			hidden_effect = { restore_country_name = yes }
			hidden_effect = {
				every_owned_province = {
					limit = {
						is_part_of_hre = yes
					}
					set_in_empire = no
				}
			}
			add_country_modifier = {
				name = "centralization_modifier"
				duration = 7300
				}
			set_government_rank = 3
			add_prestige = 35
			set_country_flag = formed_liang_flag
			if = {
				limit = {
					NOT = {
						capital = 4871
						OR = {
							primary_culture = forest_yan
							primary_culture = coastal_yan
						}
					}
				}
				capital_scope = {
					change_province_name = "Zhaoming"
				}
			}
			else_if = {
				limit = {
					NOT = {
						capital = 4871
					}
					primary_culture = forest_yan
				}
				capital_scope = {
					change_province_name = "Ciuming"
				}
			}
			else_if = {
				limit = {
					NOT = {
						capital = 4871
					}
					primary_culture = coastal_yan
				}
				capital_scope = {
					change_province_name = "Chiaubeng"
				}
			}
			if = {
				limit = { has_custom_ideas = no }
				country_event = { id = ideagroups.1 } #Swap Ideas
			}
			if = {
				limit = { primary_culture = forest_yan }
				override_country_name = DAAIFAI
			}
			else_if = {
				limit = { primary_culture = coastal_yan }
				override_country_name = DUAHUI
			}
			if = {
				limit = { NOT = { has_reform = eunuch_dynasty_reform } }
				add_government_reform = yan_empire_reform
			}
			yanshen_superregion = {
				limit = {
					NOT = { is_core = ROOT }
					NOT = { owned_by = ROOT }
				}
				add_permanent_claim = ROOT
			}
			swap_non_generic_missions = yes
		}
		ai_will_do = {
			factor = 1
		}
	}
	
	form_di_yichan = {
		major = yes
		potential = {
			primary_culture = east_harimari
			NOT = { exists = Z67 }
			NOT = { 
				OR = {
					has_country_flag = formed_yanshen_flag
					has_country_flag = formed_liang_flag
					has_country_flag = formed_di_yichan_flag
					has_reform = xiaken
					has_reform = one_xia
					has_reform = xia_parliament_reform
					has_reform = wulin
					has_reform = indep_xiaken
				}
			}
			normal_or_historical_nations = yes
			was_never_end_game_tag_trigger = yes
		}
		provinces_to_highlight = {
			superregion = yanshen_superregion
			NOT = { owned_by = ROOT }
		}
		allow = {
			is_at_war = no
			is_free_or_tributary_trigger = yes
			adm_tech = 7
			owns_core_province = 4871
			num_of_owned_provinces_with = {
				value = 50
				superregion = yanshen_superregion
			}
		}
		effect = {
			change_tag = Z67
			hidden_effect = { restore_country_name = yes }
			hidden_effect = {
				every_owned_province = {
					limit = {
						is_part_of_hre = yes
					}
					set_in_empire = no
				}
			}
			add_country_modifier = {
				name = "centralization_modifier"
				duration = 7300
				}
			set_government_rank = 3
			add_prestige = 35
			set_country_flag = formed_di_yichan_flag
			if = {
				limit = {
					NOT = {
						capital = 4871
					}
				}
				4871 = {
					move_capital_effect = yes 
				}
			}
			if = {
				limit = {
					NOT = {
						government = monarchy
					}
				}
				change_government = monarchy
				add_government_reform = liangzhu_reform
			}
			else_if = {
				limit = {
					government = monarchy
					NOT = {
						has_reform = liangzhu_reform
						has_reform = flame_custodian_reform
					}
				}
				add_government_reform = liangzhu_reform
			}
			if = {
				limit = { has_custom_ideas = no }
				country_event = { id = ideagroups.1 } #Swap Ideas
			}
			yanshen_superregion = {
				limit = {
					NOT = { is_core = ROOT }
					NOT = { owned_by = ROOT }
				}
				add_permanent_claim = ROOT
			}
		}
		ai_will_do = {
			factor = 1
		}
	}
	
	form_sunrise_empire = {
		major = yes
		potential = {
			OR = {
				ruler_culture = sun_elf
				ruler_culture = sunrise_elf
			}
			capital_scope = {
				OR = {
					superregion = yanshen_superregion
					superregion = north_haless_superregion
					superregion = south_haless_superregion
				}
			}
			NOT = { tag = Y86 }
			NOT = { exists = Y00 }
			NOT = { tag = F38 }
			NOT = { has_country_flag = formed_sunrise_empire_flag }
			normal_or_historical_nations = yes
		}
		provinces_to_highlight = {
			OR = {
				superregion = yanshen_superregion
				superregion = south_haless_superregion
			}
			NOT = { owned_by = ROOT }
		}
		allow = {
			is_at_war = no
			is_free_or_tributary_trigger = yes
			OR = {
				AND = {
					owns_core_province = 4871
					capital = 4871
				}
				capital_scope = {
					development = 60
				}
			}
			num_of_owned_provinces_with = {
				value = 150
				OR = {
					superregion = yanshen_superregion
					superregion = south_haless_superregion
				}
			}
		}
		effect = {
			change_tag = Y00
			hidden_effect = { restore_country_name = yes }
			hidden_effect = {
				every_owned_province = {
					limit = {
						is_part_of_hre = yes
					}
					set_in_empire = no
				}
			}
			add_country_modifier = {
				name = "centralization_modifier"
				duration = 7300
				}
			set_government_rank = 3
			add_prestige = 35
			set_country_flag = formed_sunrise_empire_flag
			if = {
				limit = {
					NOT = {
						capital = 4871
					}
				}
				capital_scope = {
					change_province_name = "Azka Nurdazin"
				}
			}
			if = {
				limit = { has_custom_ideas = no }
				country_event = { id = ideagroups.1 } #Swap Ideas
			}
			if = {
				limit = { capital_scope = { superregion = yanshen_superregion } }
				yanshen_superregion = {
					limit = {
						NOT = { is_core = ROOT }
						NOT = { owned_by = ROOT }
					}
					add_permanent_claim = ROOT
				}
				south_haless_superregion = {
					limit = {
						NOT = { is_core = ROOT }
						NOT = { owned_by = ROOT }
					}
					add_claim = ROOT
				}
			}
			else_if = {
				limit = { capital_scope = { superregion = south_haless_superregion } }
				yanshen_superregion = {
					limit = {
						NOT = { is_core = ROOT }
						NOT = { owned_by = ROOT }
					}
					add_claim = ROOT
				}
				south_haless_superregion = {
					limit = {
						NOT = { is_core = ROOT }
						NOT = { owned_by = ROOT }
					}
					add_permanent_claim = ROOT
				}
			}
			if = {
				limit = {
					NOT = {
						government = republic
					}
				}
				change_government = republic
				add_government_reform = sunrise_court_reform
			}
			else_if = {
				limit = {
					government = republic
					NOT = {
						has_reform = sunrise_court_reform
					}
				}
				add_government_reform = sunrise_court_reform
			}
		}
		ai_will_do = {
			factor = 1
		}
	}
	
	form_yanszin = {
		major = yes
		potential = {
			capital_scope = {
				region = upper_yanshen_region
			}
			OR = {
				tag = Y10
				tag = Y04
				tag = Y08
				tag = Y07
				tag = Y06
			}
			NOT = { has_country_flag = yanszin_unification }
		}
		provinces_to_highlight = {
			province_group = original_yanszin
			NOT = { owned_by = ROOT }
		}
		allow = {
			is_at_war = no
			is_free_or_tributary_trigger = yes
			original_yanszin = {
				type = all
				owned_by = ROOT
			}
		}
		effect = {
			override_country_name = Yanszin
			hidden_effect = { set_country_flag = yanszin_unification }
			swap_non_generic_missions = yes
		}
		ai_will_do = {
			factor = 1
		}
	}
}

