namespace = shaz_events

# Arg-Ordstun Receives Vassalization Offer from Shaz

country_event = {
	id = shaz_events.1
	title = "shaz_events.1.t"
	desc = "shaz_events.1.d"
	picture = DIPLOMACY_eventPicture

	is_triggered_only = yes

	fire_only_once = yes

	option = {
		name = "shaz_events.1.a" 
		ai_chance = { 
			factor = 100
			modifier = {
				factor = 0.01
				NOT = {
					4093 = {
				country_or_non_sovereign_subject_holds = ROOT
					}
				}
			}
		}
		I11 = { country_event = { id = shaz_events.2 days = 7 } }
	}
		
	option = {
		name = "shaz_events.1.b" 
		ai_chance = { 
			factor = 1
			modifier = {
				factor = 100
				NOT = {
					4093 = {
				country_or_non_sovereign_subject_holds = ROOT
					}
				}
			}
		}	
		I11 = { country_event = { id = shaz_events.3 days = 7 } }
	}
}
	
# Arg-Ordstun Refuses

country_event = {
	id = shaz_events.2
	title = "shaz_events.2.t"
	desc = "shaz_events.2.d"
	picture = CIVIL_WAR_eventPicture

	is_triggered_only = yes

	fire_only_once = yes
	
	option = {
		name = "shaz_events.2.a"
			
			argrod_origin_area = {
				limit = {
					NOT = { is_core = ROOT }
					NOT = { is_permanent_claim = ROOT }
				}
				add_permanent_claim = ROOT
			}
			
			4093 = {
				add_permanent_claim = ROOT
			}
	}
	
}
	
# Arg-Ordstun Accepts

country_event = {
	id = shaz_events.3
	title = "shaz_events.3.t"
	desc = "shaz_events.3.d"
	picture = MERCHANTS_TALKING_eventPicture

	is_triggered_only = yes

	fire_only_once = yes
	
	option = {
		name = "shaz_events.3.a"
		vassalize = H76
		add_prestige = 10
	}
}

#Shazstundihr into the Fray

country_event = {
	id = shaz_events.4
	title = "shaz_events.4.t"
	desc = "shaz_events.4.d"
	picture = DIPLOMACY_eventPicture

	is_triggered_only = yes

	fire_only_once = yes
	
	option = {
		name = "shaz_events.4.a"
		add_country_modifier = {
			name = "shaz_into_fray_mod"
			duration = 5475
		}
	}
}

#Arrival

country_event = {
	id = shaz_events.5
	title = "shaz_events.5.t"
	desc = "shaz_events.5.d"
	picture = EKLUZAGNU_eventPicture

	is_triggered_only = yes

	fire_only_once = yes
	
	option = {
		name = "shaz_events.5.a"
	}
}

#Aqatbar's Marble Building

country_event = {
	id = shaz_events.6
	title = "shaz_events.6.t"
	desc = "shaz_events.6.d"
	picture = DIPLOMACY_eventPicture

	is_triggered_only = yes

	fire_only_once = yes
	
	immediate = {
		hidden_effect = {
			536 = { 
				set_province_flag = marble_building_complete
			}
		}
	}
	
	option = {
		name = "shaz_events.6.a"
			536 = {
				add_province_modifier = {
						name = "shaz_aqatbar_great_port"
						duration = -1
				}
			}
	}
	
	option = {
		name = "shaz_events.6.b"
			536 = {
				add_province_modifier = {
						name = "shaz_aqatbar_city_of_lectors"
						duration = -1
				}
			}
	}
	
	option = {
		name = "shaz_events.6.c"
			536 = {
				add_province_modifier = {
						name = "shaz_aqatbar_marble_masonry_company"
						duration = -1
				}
			}
	}
}

#The Kingdom Looms

country_event = {
	id = shaz_events.7
	title = "shaz_events.7.t"
	desc = "shaz_events.7.d"
	picture = ELVEN_EYE_eventPicture

	is_triggered_only = yes

	fire_only_once = yes
	
	option = {
		name = "shaz_events.7.a"
		birsartenslib_area = {
				limit = {
					NOT = { is_core = ROOT }
					NOT = { is_permanent_claim = ROOT }
				}
				add_permanent_claim = ROOT
			}
		bahar_szel_uak_area = {
				limit = {
					NOT = { is_core = ROOT }
					NOT = { is_permanent_claim = ROOT }
				}
				add_permanent_claim = ROOT
			}
	}
	
}

#The Last Radicals

country_event = {
	id = shaz_events.8
	title = "shaz_events.8.t"
	desc = "shaz_events.8.d"
	picture = BORDER_TENSION_eventPicture

	is_triggered_only = yes

	fire_only_once = yes
	
	option = {
	name = "shaz_events.8.a"
		set_country_flag = shaz_radical_revolt_happened
		random_owned_province = {
			limit = { religion = bulwari_sun_cult }
			spawn_rebels = {
				type = religious_rebels
				size = 2
				win = yes
				leader = "Kelmonias Ruzen"
			}
			
		}
	}
}

#Birzartansbar's Marble Building

country_event = {
	id = shaz_events.9
	title = "shaz_events.9.t"
	desc = "shaz_events.9.d"
	picture = FAR_AND_WIDE_eventPicture

	is_triggered_only = yes

	fire_only_once = yes
	
	immediate = {
		hidden_effect = {
			549 = { 
				set_province_flag = marble_building_complete
			}
		}
	}
	
	option = {
		name = "shaz_events.9.a"
			549 = {
				add_province_modifier = {
						name = "shaz_birsartansbar_palace"
						duration = -1
				}
			}
	}
	
	option = {
		name = "shaz_events.9.b"
			549 = {
				add_province_modifier = {
						name = "shaz_birsartansbar_treasury"
						duration = -1
				}
			}
	}
	
	option = {
		name = "shaz_events.9.c"
			549 = {
				add_province_modifier = {
						name = "shaz_birsartansbar_elf_palace"
						duration = -1
				}
			}
	}
}

#The Aristocrats

country_event = {
	id = shaz_events.10
	title = "shaz_events.10.t"
	desc = "shaz_events.10.d"
	picture = BURNING_CITY_ANIMATED_eventPicture

	is_triggered_only = yes

	fire_only_once = yes
	
	option = {
		name = "shaz_events.10.a"
		set_country_flag = shaz_aristocrat_revolt_happened
		add_stability = -2
		random_owned_province = {
			limit = { 
				is_core = F25
				culture = sun_elf
				}
			spawn_rebels = {
				type = nationalist_rebels
				size = 4
				win = yes
				leader = "Vaceran The Highlord"
				friend = F25
			}
		}
		random_owned_province = {
			limit = { 
				is_core = F25
				culture = sun_elf
				}
			spawn_rebels = {
				type = nationalist_rebels
				size = 3
				win = yes
				leader = "Varamael The Lowlord"
				friend = F25
			}
		
		}
		
	}
}

#Movement Towards Religious Peace

country_event = {
	id = shaz_events.11
	title = "shaz_events.11.t"
	desc = "shaz_events.11.d"
	picture = CATHOLIC_RULERS_PLAYERS_eventPicture

	fire_only_once = yes
	
	trigger = {
		has_country_flag = shaz_radical_revolt_happened
		NOT = {
			any_owned_province = {
				religion = bulwari_sun_cult
				controlled_by = REB
			}
		}
	}
	
	mean_time_to_happen = {
		months = 6
	}
	
	option = {
		name = "shaz_events.11.a"
		add_country_modifier = {
			name = "shaz_toward_religious_peace"
			duration = 5475
		}
	}
}

#All Are Freed

country_event = {
	id = shaz_events.12
	title = "shaz_events.12.t"
	desc = "shaz_events.12.d"
	picture = DIPLOMACY_SIGNING_eventPicture

	fire_only_once = yes
	
	trigger = {
		has_country_flag = shaz_aristocrat_revolt_happened
		NOT = { num_of_rebel_armies = 1 }
		NOT = {
			any_owned_province = {
				controlled_by = REB
			}
		}
	}
	
	mean_time_to_happen = {
		months = 6
	}
	
	option = {
		name = "shaz_events.12.a"
		add_stability = 2
		add_country_modifier = {
			name = "shaz_enforcer_of_equality"
			duration = 7300
		}
	}
}

#Split Harpies

country_event = {
	id = shaz_events.13
	title = "shaz_events.13.t"
	desc = "shaz_events.13.d"
	picture = SIEGE_PRAGUE_CASTLE_eventPicture

	is_triggered_only = yes

	fire_only_once = yes
	
	option = {
	name = "shaz_events.13.a"
		add_manpower = 12
		every_owned_province = {
					limit = { culture = firanyan_harpy }
					add_devastation = 30
				}
		random_owned_province = {
			limit = { 
				religion = the_hunt 
				is_core = F27
			}
			spawn_rebels = {
				type = nationalist_rebels
				size = 2
				win = yes
			}
			
		}
		I11 = { country_event = { id = shaz_events.38 days = 365 } }
	}
}

#Harpylen Marble Building

country_event = {
	id = shaz_events.14
	title = "shaz_events.14.t"
	desc = "shaz_events.14.d"
	picture = ULMISBAR_eventPicture

	is_triggered_only = yes

	fire_only_once = yes
	
	immediate = {
		hidden_effect = {
			660 = { 
				set_province_flag = marble_building_complete
			}
		}
	}
	
	option = {
		name = "shaz_events.14.a"
			660 = {
				add_province_modifier = {
						name = "shaz_harpylen_hunting_fields"
						duration = -1
				}
			}
	}
	
	option = {
		name = "shaz_events.14.b"
			660 = {
				add_province_modifier = {
						name = "shaz_harpylen_mercenary_camp"
						duration = -1
				}
			}
	}
	
	option = {
		name = "shaz_events.14.c"
			660 = {
				add_province_modifier = {
						name = "shaz_harpylen_university_integration"
						duration = -1
				}
			}
	}
}

#The Greatest Minds

country_event = {
	id = shaz_events.15
	title = "shaz_events.15.t"
	desc = "shaz_events.15.d"
	picture = MAGIC_STUDY_AND_RELAX_eventPicture

	is_triggered_only = yes

	fire_only_once = yes
	
	immediate = {
		hidden_effect = {
			609 = { 
				set_province_flag = marble_building_complete
			}
		}
	}
	
	option = {
		name = "shaz_events.15.a"
			609 = {
				add_province_modifier = {
						name = "shaz_varamhar_university_slot"
						duration = -1
				}
			}
	}
	
	option = {
		name = "shaz_events.15.b"
			609 = {
				add_province_modifier = {
						name = "shaz_varamhar_university_institution"
						duration = -1
				}
			}
	}
	
	option = {
		name = "shaz_events.15.c"
			609 = {
				add_province_modifier = {
						name = "shaz_varamhar_university_tech"
						duration = -1
				}
			}
	}
}

#The Marbleblood Arise

country_event = {
	id = shaz_events.16
	title = "shaz_events.16.t"
	desc = "shaz_events.16.d"
	picture = SPELL_LIST_eventPicture

	is_triggered_only = yes

	fire_only_once = yes
	
	option = {
		name = "shaz_events.16.a"
		add_prestige = 20
		define_general = {
			name = "Ungrim 'Whitebeard' Vihtebloth"
			fire = 6
			shock = 6
			manuever = 3
			siege = 4
		}
	}
}

#Ryuyel Marble Building

country_event = {
	id = shaz_events.17
	title = "shaz_events.17.t"
	desc = "shaz_events.17.d"
	picture = CITY_VIEW_eventPicture

	is_triggered_only = yes

	fire_only_once = yes
	
	immediate = {
		hidden_effect = {
			521 = { 
				set_province_flag = marble_building_complete
			}
		}
	}
	
	option = {
		name = "shaz_events.17.a"
			521 = {
				add_province_modifier = {
						name = "shaz_marble_ry_commercial_center"
						duration = -1
				}
			}
	}
	
	option = {
		name = "shaz_events.17.b"
			521 = {
				add_province_modifier = {
						name = "shaz_marble_ry_university"
						duration = -1
				}
			}
	}
	
	option = {
		name = "shaz_events.17.c"
			521 = {
				add_province_modifier = {
						name = "shaz_marble_ry_mil_academy"
						duration = -1
				}
			}
	}
}

#A Proclamation Event (WE GONNA REPLACE THE PICTURE)

country_event = {
	id = shaz_events.18
	title = "shaz_events.18.t"
	desc = "shaz_events.18.d"
	picture = DIPLOMACY_eventPicture

	is_triggered_only = yes

	fire_only_once = yes
	
	option = {
		name = "shaz_events.18.a"
		add_country_modifier = {
			name = shaz_a_proc
			duration = 5475
		}
	}
}

#Brasan's Marble Building

country_event = {
	id = shaz_events.19
	title = "shaz_events.19.t"
	desc = "shaz_events.19.d"
	picture = BIG_BOOK_eventPicture

	is_triggered_only = yes

	fire_only_once = yes
	
	immediate = {
		hidden_effect = {
			565 = { 
				set_province_flag = marble_building_complete
			}
		}
	}
	
	option = {
		name = "shaz_events.19.a"
			565 = {
				add_province_modifier = {
						name = "shaz_marble_brasan_grand_exchange"
						duration = -1
				}
			}
	}
	
	option = {
		name = "shaz_events.19.b"
			565 = {
				add_province_modifier = {
						name = "shaz_marble_fleetmaker_port"
						duration = -1
				}
			}
	}
	
	option = {
		name = "shaz_events.19.c"
			565 = {
				add_province_modifier = {
						name = "shaz_marble_trademaker_port"
						duration = -1
				}
			}
	}
}

#Leftover Treasures

country_event = {
	id = shaz_events.20
	title = "shaz_events.20.t"
	desc = "shaz_events.20.d"
	picture = LOOK_A_SPIDER_eventPicture

	is_triggered_only = yes

	fire_only_once = yes
	
	option = {
		name = "shaz_events.20.a"
		add_treasury = 200
	}
}

#Strak Brok Event

country_event = {
	id = shaz_events.21
	title = "shaz_events.21.t"
	desc = "shaz_events.21.d"
	picture = FORT_eventPicture

	is_triggered_only = yes

	fire_only_once = yes
	
	option = {
		name = "shaz_events.21.a"
			510 = {
				add_province_modifier = {
						name = "shaz_marble_strak_brok"
						duration = -1
				}
			}
		
	}
}

#Assistance Recieved

country_event = {
	id = shaz_events.22
	title = "shaz_events.22.t"
	desc = "shaz_events.22.d"
	picture = CITY_DEVELOPMENT_eventPicture

	is_triggered_only = yes

	fire_only_once = yes
	
	option = {
		name = "shaz_events.22.a"
		add_manpower = 15
	}
	
	option = {
		name = "shaz_events.22.b"
		add_treasury = 300
		add_prestige = 50
	}
}

#simbur

country_event = {
	id = shaz_events.23
	title = "shaz_events.23.t"
	desc = "shaz_events.23.d"
	picture = MULTI_RACIAL_MERC_eventPicture

	is_triggered_only = yes

	fire_only_once = yes
	
	option = {
		name = "shaz_events.23.a"
		add_country_modifier = {
			name = "shaz_marble_simbur_plan"
			duration = -1
		}
		bahar_szel_uak_area = {
				limit = {
					NOT = { is_core = ROOT }
					NOT = { is_permanent_claim = ROOT }
				}
				add_permanent_claim = ROOT
		}
	}
}

#Grandest Of Them All

country_event = {
	id = shaz_events.24
	title = "shaz_events.24.t"
	desc = "shaz_events.24.d"
	picture = GREAT_BUILDING_eventPicture

	is_triggered_only = yes

	fire_only_once = yes
	
	option = {
		name = "shaz_events.24.a"
		add_country_modifier = {
			name = "shaz_marble_new_marble_gate"
			duration = -1
		}
	}
}

#Marble Building Bulwar

country_event = {
	id = shaz_events.25
	title = "shaz_events.25.t"
	desc = "shaz_events.25.d"
	picture = SURAKES_SUN_GARDEN_eventPicture

	is_triggered_only = yes

	fire_only_once = yes
	
	immediate = {
		hidden_effect = {
			601 = { 
				set_province_flag = marble_building_complete
			}
		}
	}
	
	option = {
		name = "shaz_events.25.a"
			601 = {
				add_province_modifier = {
						name = "shaz_marble_bulwar_dams"
						duration = -1
				}
			}
	}
	
	option = {
		name = "shaz_events.25.b"
		601 = {
				add_province_modifier = {
						name = "shaz_marble_bulwar_walls"
						duration = -1
				}
			}
	}
	
	option = {
		name = "shaz_events.25.c"
			601 = {
				add_province_modifier = {
						name = "shaz_marble_bulwar_palaces"
						duration = -1
				}
			}
	}
}

#Simbur's Journal

country_event = {
	id = shaz_events.26
	title = "shaz_events.26.t"
	desc = "shaz_events.26.d"
	picture = EXCALIBUR_eventPicture

	is_triggered_only = yes

	fire_only_once = yes
	
	option = {
		name = "shaz_events.26.a"
		add_treasury = 300
		add_country_modifier = {
			name = shaz_simbur_wish
			duration = -1
		}
	}
}

#Akal-Uak Marble Building

country_event = {
	id = shaz_events.27
	title = "shaz_events.27.t"
	desc = "shaz_events.27.d"
	picture = UNIVERSITY_eventPicture

	is_triggered_only = yes

	fire_only_once = yes
	
	immediate = {
		hidden_effect = {
			550 = { 
				set_province_flag = marble_building_complete
			}
		}
	}
	
	option = {
		name = "shaz_events.27.a"
			550 = {
				add_province_modifier = {
						name = "shaz_akal_uak_cathedral"
						duration = -1
				}
			}
			every_country = {
				limit = {
					has_country_modifier = human_administration
				}
				add_opinion = {
					who = ROOT
					modifier = shazstundihr_akal_uak_cathedral
				}
			}
		custom_tooltip = shaz_akal_uak_building_tt
	}
	
	option = {
		name = "shaz_events.27.b"
			550 = {
				add_province_modifier = {
						name = "shaz_akal_uak_magi"
						duration = -1
				}
			}
	}
	
	option = {
		name = "shaz_events.27.c"
			550 = {
				add_province_modifier = {
						name = "shaz_akal_uak_temple"
						duration = -1
				}
			}
		every_owned_province = {
				limit = {
					has_human_majority_trigger = yes
				}
				add_province_modifier = {
					name = shaz_akal_uak_temple_province
					duration = -1
				}
			}
	}
}

#Gelkalis Marble Building

country_event = {
	id = shaz_events.28
	title = "shaz_events.28.t"
	desc = "shaz_events.28.d"
	picture = MILLTARY_CAMP_eventPicture

	is_triggered_only = yes

	fire_only_once = yes
	
	immediate = {
		hidden_effect = {
			665 = { 
				set_province_flag = marble_building_complete
			}
		}
	}
	
	option = {
		name = "shaz_events.28.a"
			665 = {
				add_province_modifier = {
						name = "shaz_gelkalis_herdlands_wonder"
						duration = -1
				}
			}
			every_owned_province = {
				limit = {
					trade_goods = livestock
				}
				add_province_modifier = {
					name = shaz_gelkalis_herdlands_province
					duration = -1
				}
			}
	}
	
	option = {
		name = "shaz_events.28.b"
			665 = {
				add_province_modifier = {
						name = "shaz_gelkalis_fort"
						duration = -1
				}
			}
	}
	
	option = {
		name = "shaz_events.28.c"
			665 = {
				add_province_modifier = {
						name = "shaz_gelkalis_mine_wonder"
						duration = -1
				}
			}
			every_owned_province = {
				limit = {
					OR = {
						trade_goods = iron
						trade_goods = copper
						trade_goods = mithril
					}
				}
				add_province_modifier = {
					name = shaz_gelkalis_mine_province
					duration = -1
				}
			}
	}
}

#For Peace

country_event = {
	id = shaz_events.29
	title = "shaz_events.29.t"
	desc = "shaz_events.29.d"
	picture = PIETY_eventPicture

	is_triggered_only = yes

	fire_only_once = yes
	
	option = {
		name = "shaz_events.29.a"
		add_country_modifier = {
			name = "shaz_for_peace"
			duration = 9125
		}
		bulwar_proper_region = {
				limit = {
					NOT = { is_core = ROOT }
					NOT = { is_permanent_claim = ROOT }
				}
				add_permanent_claim = ROOT
			}
	}
}

#Divenhal Sees Marble Chain

country_event = {
	id = shaz_events.30
	title = "shaz_events.30.t"
	desc = "shaz_events.30.d"
	picture = PORTUGUESE_MERCHANTS_eventPicture

	is_triggered_only = yes

	fire_only_once = no
	
	option = {
		name = "shaz_events.30.a"
		add_treasury = 100
		I11 = { country_event = { id = shaz_events.31 days = 20 } }
	}
}

#Day Two

country_event = {
	id = shaz_events.31
	title = "shaz_events.31.t"
	desc = "shaz_events.31.d"
	picture = DIPLOMACY_eventPicture

	is_triggered_only = yes

	fire_only_once = no
	
	option = {
		name = "shaz_events.31.a"
		add_treasury = 100
		I11 = { country_event = { id = shaz_events.32 days = 20 } }
	}
	option = {
		name = "shaz_events.31.b"
		add_treasury = 100
		I11 = { country_event = { id = shaz_events.33 days = 20 } }
	}
	option = {
		name = "shaz_events.31.c"
		add_treasury = 100
		I11 = { country_event = { id = shaz_events.34 days = 20 } }
	}
	option = {
		name = "shaz_events.31.e"
		add_treasury = 100
		I11 = { country_event = { id = shaz_events.35 days = 20 } }
	}
	option = {
		name = "shaz_events.31.f"
		add_treasury = 100
		I11 = { country_event = { id = shaz_events.36 days = 20 } }
	}
	option = {
		name = "shaz_events.31.g"
		add_treasury = 100
		I11 = { country_event = { id = shaz_events.37 days = 20 } }
	}
}

#Magisterium Gets The Marble

country_event = {
	id = shaz_events.32
	title = "shaz_events.32.t"
	desc = "shaz_events.32.d"
	picture = TRADEGOODS_eventPicture

	is_triggered_only = yes

	fire_only_once = no
	
	option = {
		name = "shaz_events.32.a"
		add_treasury = 3500
		add_country_modifier = {
			name = "shaz_magisterium_div"
			duration = 365
		}
		add_opinion = {
			who = ROOT
			modifier = shazstundihr_div_winner
		}
		I11 = { country_event = { id = shaz_events.30 days = 365 } }
	}
}

#Anbenncost Gets The Marble

country_event = {
	id = shaz_events.33
	title = "shaz_events.33.t"
	desc = "shaz_events.33.d"
	picture = TRADEGOODS_eventPicture

	is_triggered_only = yes

	fire_only_once = no
	
	option = {
		name = "shaz_events.33.a"
		add_treasury = 3500
		add_country_modifier = {
			name = "shaz_anbenncost_div"
			duration = 365
		}
		add_opinion = {
			who = ROOT
			modifier = shazstundihr_div_winner
		}
		I11 = { country_event = { id = shaz_events.30 days = 365 } }
	}
}

#Busilar/Port Jaher Gets The Marble

country_event = {
	id = shaz_events.34
	title = "shaz_events.34.t"
	desc = "shaz_events.34.d"
	picture = TRADEGOODS_eventPicture

	is_triggered_only = yes

	fire_only_once = no
	
	option = {
		name = "shaz_events.34.a"
		add_treasury = 3500
		add_country_modifier = {
			name = "shaz_port_jaher_div"
			duration = 365
		}
		add_opinion = {
			who = ROOT
			modifier = shazstundihr_div_winner
		}
		I11 = { country_event = { id = shaz_events.30 days = 365 } }
	}
}

#Beepeck gets the marble

country_event = {
	id = shaz_events.35
	title = "shaz_events.35.t"
	desc = "shaz_events.35.d"
	picture = TRADEGOODS_eventPicture

	is_triggered_only = yes

	fire_only_once = no
	
	option = {
		name = "shaz_events.35.a"
		add_treasury = 3500
		add_country_modifier = {
			name = "shaz_beepeck_div"
			duration = 365
		}
		add_opinion = {
			who = ROOT
			modifier = shazstundihr_div_winner
		}
		I11 = { country_event = { id = shaz_events.30 days = 365 } }
	}
}

#Sornbay gets the marble

country_event = {
	id = shaz_events.36
	title = "shaz_events.36.t"
	desc = "shaz_events.36.d"
	picture = TRADEGOODS_eventPicture

	is_triggered_only = yes

	fire_only_once = no
	
	option = {
		name = "shaz_events.36.a"
		add_treasury = 3500
		add_country_modifier = {
			name = "shaz_sornbay_div"
			duration = 365
		}
		add_opinion = {
			who = ROOT
			modifier = shazstundihr_div_winner
		}
		I11 = { country_event = { id = shaz_events.30 days = 365 } }
	}
}

#Moonhaven/Port Munas gets the marble

country_event = {
	id = shaz_events.37
	title = "shaz_events.37.t"
	desc = "shaz_events.37.d"
	picture = TRADEGOODS_eventPicture

	is_triggered_only = yes

	fire_only_once = no
	
	option = {
		name = "shaz_events.37.a"
		add_treasury = 3500
		add_country_modifier = {
			name = "shaz_port_munas_div"
			duration = 365
		}
		add_opinion = {
			who = ROOT
			modifier = shazstundihr_div_winner
		}
		I11 = { country_event = { id = shaz_events.30 days = 365 } }
	}
}

#Extra Harpy Event

country_event = {
	id = shaz_events.38
	title = "shaz_events.38.t"
	desc = "shaz_events.38.d"
	picture = "CITY_VIEW_eventPicture"
	
	is_triggered_only = yes
	
	fire_only_once = no
	
	option = {
		name = "shaz_events.38.a"
		large_increase_of_harpy_tolerance_effect = yes
	}
}

#ovdal tungr thing

country_event = {
	id = shaz_events.39
	title = "shaz_events.39.t"
	desc = "shaz_events.39.d"
	picture = "BIG_STAR_IN_SKY_eventPicture"
	
	is_triggered_only = yes
	
	fire_only_once = no
	
	option = {
		name = "shaz_events.39.a"
		vassalize = F23
		F23 = {
			add_historical_friend = ROOT
		}
	}
	
	option = {
		name = "shaz_events.39.b"
	    add_prestige = 50
	}
}
	



