
namespace = flavour_gelkalis

country_event = {
	id = flavour_gelkalis.1
	title = flavour_gelkalis.1.t
	desc = flavour_gelkalis.1.d
	picture = LIBERUM_VETO_eventPicture
	
	is_triggered_only = yes
	
	option = {
		name = flavour_gelkalis.1.a
		ai_chance = { factor = 0 }
		grant_independence = yes
		decrease_nsc_isolation_level = yes
	}
		option = {
		name = flavour_gelkalis.1.b
		ai_chance = { factor = 50 }	
	}
}
country_event = {
	id = flavour_gelkalis.2
	title = flavour_gelkalis.2.t
	desc = flavour_gelkalis.2.d
	picture = DEBATE_REPUBLICAN_eventPicture
	
	is_triggered_only = yes
	
	option = {
		name = flavour_gelkalis.2.a
		ai_chance = { factor = 100 }
		custom_tooltip = gelkalis_independence_tooltip
	}
}
country_event = {
	id = flavour_gelkalis.10
	title = flavour_gelkalis.10.t
	desc = flavour_gelkalis.10.d
	picture = CITY_VIEW_eventPicture
	
	is_triggered_only = yes
	
	
	option = {
		name = flavour_gelkalis.10.a
		ai_chance = { factor = 50 }
		add_country_modifier = {
			name = gelkalis_age_of_steel
			duration = -1
		}
	}
}
country_event = {
	id = flavour_gelkalis.11
	title = flavour_gelkalis.11.t
	desc = flavour_gelkalis.11.d
	picture = HARBOUR_eventPicture
	
	is_triggered_only = yes
	
	
	option = {
		name = flavour_gelkalis.11.a
		ai_chance = { factor = 50 }
		536 = {
			add_permanent_province_modifier = {
				name = gelkalis_port_building
				duration = 7300
			}
		}
	}
}
country_event = {
	id = flavour_gelkalis.20
	title = flavour_gelkalis.20.t
	desc = flavour_gelkalis.20.d
	picture = DEBATE_REPUBLICAN_eventPicture
	
	is_triggered_only = yes
	
	
	option = {
		name = flavour_gelkalis.20.a
		ai_chance = { factor = 50 }
		add_country_modifier = {
			name = gelkalis_military_occupation
			duration = 18250
		}
		every_owned_province = {
			limit = { culture = firanyan_harpy }
			add_permanent_province_modifier = {
				name = gelkalis_disrupted_eco
				duration = 18250
			}
		}
		every_owned_province = {
			limit = { culture = firanyan_harpy }
			add_permanent_province_modifier = {
				name = gelkalis_military_resistence
				duration = 18250
			}
		}
		hidden_effect = { country_event = { id = flavour_gelkalis.21 days = 720 } }
	}
}
country_event = {
	id = flavour_gelkalis.21
	title = flavour_gelkalis.21.t
	desc = flavour_gelkalis.21.d
	picture = COUNTRY_COLLAPSE_eventPicture
	
	is_triggered_only = yes
	
	
	option = {
		name = flavour_gelkalis.21.a
		ai_chance = { factor = 50 }
		random_owned_province = {
			limit = { culture = firanyan_harpy }
			add_devastation = 50
		}
		random_owned_province = {
			limit = { culture = firanyan_harpy }
			add_devastation = 50
		}
		hidden_effect = { country_event = { id = flavour_gelkalis.22 days = 720 } }
	}
	option = {
		name = flavour_gelkalis.21.b
		ai_chance = { factor = 50 }
		random_owned_province = {
			limit = { culture = firanyan_harpy }
			spawn_rebels = {
				type = nationalist_rebels
				separatists_target = F27
				size = 1
			}
		}
		hidden_effect = { country_event = { id = flavour_gelkalis.22 days = 720 } }
	}
}
country_event = {
	id = flavour_gelkalis.22
	title = flavour_gelkalis.22.t
	desc = flavour_gelkalis.22.d
	picture = CONQUEST_eventPicture
	
	is_triggered_only = yes
	
	
	option = {
		name = flavour_gelkalis.22.a
		ai_chance = { factor = 50 }
		add_years_of_income = -0.5
		random_owned_province = {
			limit = { culture = gelkar }
			add_base_manpower = 1
			add_harpy_minority_size_effect = yes
		}
		random_owned_province = {
			limit = { culture = gelkar }
			add_base_manpower = 1
			add_harpy_minority_size_effect = yes
		}
		random_owned_province = {
			limit = { culture = gelkar }
			add_base_manpower = 1
			add_harpy_minority_size_effect = yes
		}
		random_owned_province = {
			limit = { culture = gelkar }
			add_base_manpower = 1
			add_harpy_minority_size_effect = yes
		}
		random_owned_province = {
			limit = { culture = gelkar }
			add_base_manpower = 1
			add_harpy_minority_size_effect = yes
		}
		hidden_effect = { country_event = { id = flavour_gelkalis.23 days = 720 } }
	}
	option = {
		name = flavour_gelkalis.22.b
		ai_chance = { factor = 50 }
		add_years_of_income = -0.5
		add_yearly_manpower = 2
		define_advisor = {
			type = commandant
			skill = 1
			culture = firanyan_harpy
			religion = ROOT
			female = yes
			discount = yes
		}
		hidden_effect = { country_event = { id = flavour_gelkalis.23 days = 720 } }
	}
}
country_event = {
	id = flavour_gelkalis.23
	title = flavour_gelkalis.23.t
	desc = flavour_gelkalis.23.d
	picture = BIG_BOOK_eventPicture
	
	is_triggered_only = yes
	
	
	option = {
		name = flavour_gelkalis.23.a
		ai_chance = { factor = 50 }
		add_mil_power = -100
		add_treasury = -100
		hidden_effect = { country_event = { id = flavour_gelkalis.24 days = 720 } }
	}
	option = {
		name = flavour_gelkalis.23.b
		ai_chance = { factor = 50 }
		add_mil_power = -50
		hidden_effect = { country_event = { id = flavour_gelkalis.25 days = 720 } }
	}
}
country_event = {
	id = flavour_gelkalis.24
	title = flavour_gelkalis.24.t
	desc = flavour_gelkalis.24.d
	picture = BATTLE_eventPicture
	
	is_triggered_only = yes
	
	option = {
		name = flavour_gelkalis.24.a
		ai_chance = { factor = 50 }
		random_owned_province = {
			limit = { culture = firanyan_harpy }
			spawn_rebels = {
				type = nationalist_rebels
				separatists_target = F27
				size = 2
			}
		}
		random_owned_province = {
			limit = { culture = firanyan_harpy }
			spawn_rebels = {
				type = nationalist_rebels
				separatists_target = F27
				size = 2
			}
		}
		hidden_effect = { country_event = { id = flavour_gelkalis.26 days = 720 } }
	}
}
country_event = {
	id = flavour_gelkalis.25
	title = flavour_gelkalis.25.t
	desc = flavour_gelkalis.25.d
	picture = BATTLE_eventPicture
	
	is_triggered_only = yes
	
	option = {
		name = flavour_gelkalis.25.a
		ai_chance = { factor = 50 }
		random_owned_province = {
			limit = { culture = firanyan_harpy }
			spawn_rebels = {
				type = nationalist_rebels
				separatists_target = F27
				size = 3
			}
		}
		random_owned_province = {
			limit = { culture = firanyan_harpy }
			spawn_rebels = {
				type = nationalist_rebels
				separatists_target = F27
				size = 3
			}
		}
		hidden_effect = { country_event = { id = flavour_gelkalis.26 days = 720 } }
	}
}
country_event = {
	id = flavour_gelkalis.26
	title = flavour_gelkalis.26.t
	desc = flavour_gelkalis.26.d
	picture = PRAYING_eventPicture
	
	is_triggered_only = yes
	
	
	option = {
		name = flavour_gelkalis.26.a
		ai_chance = { factor = 50 }
		add_stability = 1
		every_owned_province = {
			limit = { has_province_modifier = gelkalis_military_resistence }
			remove_province_modifier = gelkalis_military_resistence
			add_permanent_province_modifier = {
				name = gelkalis_military_control
				duration = 7300
			}
			add_base_manpower = 1
			add_base_production = 1
		}
		hidden_effect = { set_country_flag = gelkalis_won_civil_war }
	}
}