
namespace = skaldhyrric

#Tale change event
country_event = {
	id = skaldhyrric.1
	title = skaldhyrric.1.t
	desc = skaldhyrric.1.d
	picture = PRAYING_eventPicture
	
	mean_time_to_happen = {
		years = 100

		modifier = {	#less likely to happen for non long-lived
			factor = 1.5
			NOT = { ruler_has_personality = immortal_personality }
		}
		modifier = {
			factor = 0.6
			government = theocracy
		}
		modifier = {
			factor = 0.75
			estate_loyalty = {
				estate = estate_church
				loyalty = 60
			}
		}
		modifier = {
			factor = 0.75
			estate_influence = {
				estate = estate_church
				influence = 70
			}
		}
	}
	
	trigger = {
		religion = skaldhyrric_faith
		has_regency = no
		has_consort_regency = no
		NOT = { has_ruler_flag = skald_change_tale_ruler }
	}
	
	option = {
		name = skaldhyrric.1.a
		
	}
	
	option = {
		name = skaldhyrric.1.b
		
		add_adm_power = -10
		add_dip_power = -10
		add_mil_power = -10
		hidden_effect = {
			country_event = {
				id = skaldhyrric.2
			}
			set_ruler_flag = skald_change_tale_ruler
		}
	}
}

country_event = {
	id = skaldhyrric.2
	title = skaldhyrric.2.t
	desc = skaldhyrric.2.d
	picture = ICONS_IN_CHURCH_eventPicture
	
	is_triggered_only = yes
	
	option = {
		name = skaldhyrric.2.a
		trigger = {
			ROOT = {
				NOT = { 
					has_personal_deity = the_dragon_and_the_skald
					has_personal_deity = emp_the_dragon_and_the_skald
				}
			}
		}
		ai_chance = {
			factor = 1
			modifier = {
				factor = 3
				personality = ai_balanced
			}
			modifier = {
				factor = 2
				personality = ai_capitalist
			}
			modifier = {
				factor = 1.5
				government = theocracy
			}
		}
		if = {
			limit = { has_country_flag = skald_dragon_and_skald }
			change_personal_deity = emp_the_dragon_and_the_skald 
		}
		else = {
			change_personal_deity = the_dragon_and_the_skald
		}
	}
	
	option = {
		name = skaldhyrric.2.b
		trigger = {
			ROOT = {
				NOT = { 
					has_personal_deity = voyage_of_the_north_raider
					has_personal_deity = emp_voyage_of_the_north_raider
				}
			}
		}
		ai_chance = {
			factor = 1
			modifier = {
				factor = 2
				personality = ai_capitalist
			}
			modifier = {
				factor = 2
				personality = ai_balanced
			}
			modifier = {
				factor = 1.5
				personality = ai_diplomat
			}
			modifier = {
				factor = 0.5
				personality = ai_militarist
			}
			modifier = {
				factor = 2
				primary_culture = west_dalr
			}
			modifier = {
				factor = 2
				primary_culture = east_dalr
			}
		}
		if = {
			limit = { has_country_flag = skald_voyage_north }
			change_personal_deity = emp_voyage_of_the_north_raider 
		}
		else = {
			change_personal_deity = voyage_of_the_north_raider
		}
	}
	
	option = {
		name = skaldhyrric.2.c
		trigger = {
			ROOT = {
				NOT = { 
					has_personal_deity = beralic_saga  
					has_personal_deity = emp_beralic_saga
				}
			}
		}
		ai_chance = {
			factor = 1
			modifier = {
				factor = 3
				personality = ai_militarist
			}	
			modifier = {
				factor = 0.5
				personality = ai_capitalist
			}		
			modifier = {
				factor = 2
				government = monarchy
			}
			modifier = {
				factor = 5
				tag = B02	#Corintar
			}
			modifier = {
				factor = 1.5
				primary_culture = west_dalr
			}
			modifier = {
				factor = 1.5
				primary_culture = east_dalr
			}
		}
		if = {
			limit = { has_country_flag = skald_beralic }
			change_personal_deity = emp_beralic_saga
		}
		else = {
			change_personal_deity = beralic_saga
		}
	}
	
	option = {
		name = skaldhyrric.2.dd
		trigger = {
			ROOT = {
				NOT = { 
					has_personal_deity = dirge_of_the_deep
					has_personal_deity = emp_dirge_of_the_deep
				}
			}
		}
		ai_chance = {
			factor = 1
			modifier = {
				factor = 2
				personality = ai_militarist
			}
			modifier = {
				factor = 0.5
				personality = ai_colonialist
			}
			modifier = {
				factor = 1.5
				primary_culture = olavish
			}
			modifier = {
				factor = 10 
				tag = Z10	#Revrhavn
			}
		}
		if = {
			limit = { has_country_flag = skald_dirge }
			change_personal_deity = emp_dirge_of_the_deep
		}
		else = {
			change_personal_deity = dirge_of_the_deep
		}
	}
	
	option = {
		name = skaldhyrric.2.e
		trigger = {
			ROOT = {
				NOT = { 
					has_personal_deity = treasure_of_the_golden_forest  
					has_personal_deity = emp_treasure_of_the_golden_forest
				}
			}
		}
		ai_chance = {
			factor = 1
			modifier = {
				factor = 0.5
				personality = ai_militarist
			}
			modifier = {
				factor = 3
				personality = ai_capitalist
			}
			modifier = {
				factor = 1.5
				primary_culture = olavish
			}
		}
		if = {
			limit = { has_country_flag = skald_treasure_golden_forest }
			change_personal_deity = emp_treasure_of_the_golden_forest
		}
		else = {
			change_personal_deity = treasure_of_the_golden_forest
		}
	}
	
	option = {
		name = skaldhyrric.2.f
		trigger = {
			ROOT = {
				NOT = { 
					has_personal_deity = the_old_winter_lullaby
					has_personal_deity = emp_the_old_winter_lullaby
				}
			}
		}
		ai_chance = {
			factor = 1
			modifier = {
				factor = 1.5
				personality = ai_militarist
			}
			modifier = {
				factor = 2
				personality = ai_balanced
			}
		}
		if = {
			limit = { has_country_flag = skald_winter_lullaby }
			change_personal_deity = emp_the_old_winter_lullaby
		}
		else = {
			change_personal_deity = the_old_winter_lullaby
		}
	}
	
	option = {
		name = skaldhyrric.2.g
		trigger = {
			ROOT = {
				NOT = { 
					has_personal_deity = gjalund_and_the_giantslayers
					has_personal_deity = emp_gjalund_and_the_giantslayers
				}
			}
		}
		ai_chance = {
			factor = 1
			modifier = {
				factor = 3
				personality = ai_militarist
			}
			modifier = {
				factor = 0.5
				personality = ai_diplomat
			}
			modifier = {
				factor = 2
				primary_culture = olavish
			}
		}
		if = {
			limit = { has_country_flag = skald_gjalund }
			change_personal_deity = emp_gjalund_and_the_giantslayers
		}
		else = {
			change_personal_deity = gjalund_and_the_giantslayers
		}
	}
	
	option = {
		name = skaldhyrric.2.h
		trigger = {
			ROOT = {
				NOT = { 
					has_personal_deity = master_boat_builders_of_far_gerudia_beyond
					has_personal_deity = emp_master_boat_builders_of_far_gerudia_beyond
				}
			}
		}
		ai_chance = {
			factor = 1
			modifier = {
				factor = 1.5
				personality = ai_colonialist
			}
			modifier = {
				factor = 1.3
				personality = ai_capitalist
			}
			modifier = {
				factor = 0.5
				personality = ai_diplomat
			}
		}
		if = {
			limit = { has_country_flag = skald_master_boatbuilders }
			change_personal_deity = emp_master_boat_builders_of_far_gerudia_beyond
		}
		else = {
			change_personal_deity = master_boat_builders_of_far_gerudia_beyond
		}
	}
	
	option = {
		name = skaldhyrric.2.i
		trigger = {
			ROOT = {
				NOT = { 
					has_personal_deity = tale_of_leif_snaketongue
					has_personal_deity = emp_tale_of_leif_snaketongue
				}
			}
		}
		ai_chance = {
			factor = 1
			modifier = {
				factor = 3
				personality = ai_balanced
			}
			modifier = {
				factor = 2
				personality = ai_diplomat
			}
			modifier = {
				factor = 0.5
				personality = ai_militarist
			}
		}
		if = {
			limit = { has_country_flag = skald_leif }
			change_personal_deity = emp_tale_of_leif_snaketongue
		}
		else = {
			change_personal_deity = tale_of_leif_snaketongue
		}
	}
	
	option = {
		name = skaldhyrric.2.j
		trigger = {
			ROOT = {
				OR = {
					has_country_flag = skald_ebonfrost
					has_country_flag = skald_ebonfrost_emp
				}
			}
			NOT = {
				has_personal_deity = castan_ebonfrost
				has_personal_deity = emp_castan_ebonfrost
			}
		}
		
		if = {
			limit = { has_country_flag = skald_ebonfrost_emp }
			change_personal_deity = emp_castan_ebonfrost
		}
		else = {
			change_personal_deity = castan_ebonfrost
		}
	}
	option = {
		name = skaldhyrric.2.k
		trigger = {
			ROOT = {
				OR = {
					has_country_flag = skald_corin
					has_country_flag = skald_corin_emp
				}
			}
			NOT = {
				has_personal_deity = skcorin
				has_personal_deity = emp_skcorin
			}
		}
		
		if = {
			limit = { has_country_flag = skald_corin_emp }
			change_personal_deity = emp_skcorin
		}
		else = {
			change_personal_deity = skcorin
		}
	}
	option = {
		name = skaldhyrric.2.l
		trigger = {
			ROOT = {
				OR = {
					has_country_flag = skald_elven_voyages
					has_country_flag = skald_elven_voyages_emp
				}
			}
			NOT = {
				has_personal_deity = elven_voyages
				has_personal_deity = emp_elven_voyages
			}
		}
		
		if = {
			limit = { has_country_flag = skald_elven_voyages_emp }
			change_personal_deity = emp_elven_voyages
		}
		else = {
			change_personal_deity = elven_voyages
		}
	}
	option = {
		name = skaldhyrric.2.m
		trigger = {
			ROOT = {
				OR = {
					has_country_flag = skald_ebonsteel
					has_country_flag = skald_ebonsteel_emp
				}
			}
			NOT = {
				has_personal_deity = ebonsteel
				has_personal_deity = emp_ebonsteel
			}
		}
		
		if = {
			limit = { has_country_flag = skald_ebonsteel_emp }
			change_personal_deity = emp_ebonsteel
		}
		else = {
			change_personal_deity = ebonsteel
		}
	}
	option = {
		name = skaldhyrric.2.n
		trigger = {
			ROOT = {
				OR = {
					has_country_flag = skald_ambrstrond
					has_country_flag = skald_ambrstrond_emp
				}
			}
			NOT = {
				has_personal_deity = ambrstrond
				has_personal_deity = emp_ambrstrond
			}
		}
		
		if = {
			limit = { has_country_flag = skald_ambrstrond_emp }
			change_personal_deity = emp_ambrstrond
		}
		else = {
			change_personal_deity = ambrstrond
		}
	}
	option = {
		name = skaldhyrric.2.o
		trigger = {
			ROOT = {
				OR = {
					has_country_flag = skald_lineages_adventurers
					has_country_flag = skald_skald_lineages_adventurers_emp
				}
			}
			NOT = {
				has_personal_deity = lineages_of_adventurers
				has_personal_deity = emp_lineages_of_adventurers
			}
		}
		
		if = {
			limit = { has_country_flag = skald_ambrstrond_emp }
			change_personal_deity = emp_lineages_of_adventurers
		}
		else = {
			change_personal_deity = lineages_of_adventurers
		}
	}
	option = {
		name = skaldhyrric.2.p
		trigger = {
			ROOT = {
				OR = {
					has_country_flag = skald_olav
					has_country_flag = skald_olav_emp
				}
			}
			NOT = {
				has_personal_deity = olav
				has_personal_deity = emp_olav
			}
		}
		
		if = {
			limit = { has_country_flag = skald_olav_emp }
			change_personal_deity = emp_olav
		}
		else = {
			change_personal_deity = olav
		}
	}
	
}

country_event = { #Skald Reform 1
	id = skaldhyrric.3
	title = skaldhyrric.3.t
	desc = skaldhyrric.3.d
	picture = ANGLICAN_SERMON_eventPicture
	
	is_triggered_only = yes
	
	option = {
		name = skaldhyrric.3.a
		
		set_country_flag = skald_dragon_and_skald
		change_personal_deity = emp_the_dragon_and_the_skald
	}
	option = {
		name = skaldhyrric.3.b
		
		set_country_flag = skald_voyage_north
		change_personal_deity = emp_voyage_of_the_north_raider
	}
	option = {
		name = skaldhyrric.3.c
		
		set_country_flag = skald_beralic
		change_personal_deity = emp_beralic_saga
	}
	option = {
		name = skaldhyrric.3.dd
		
		set_country_flag = skald_dirge
		change_personal_deity = emp_dirge_of_the_deep
	}
	option = {
		name = skaldhyrric.3.e
		
		set_country_flag = skald_treasure_golden_forest
		change_personal_deity = emp_treasure_of_the_golden_forest
	}
	option = {
		name = skaldhyrric.3.f
		
		set_country_flag = skald_winter_lullaby
		change_personal_deity = emp_the_old_winter_lullaby
	}
	option = {
		name = skaldhyrric.3.g
		
		set_country_flag = skald_gjalund
		change_personal_deity = emp_gjalund_and_the_giantslayers
	}
	option = {
		name = skaldhyrric.3.h
		
		set_country_flag = skald_master_boatbuilders
		change_personal_deity = emp_master_boat_builders_of_far_gerudia_beyond
	}
	option = {
		name = skaldhyrric.3.i
		
		set_country_flag = skald_leif
		change_personal_deity = emp_tale_of_leif_snaketongue
	}
	
}

country_event = { #Skald Reform 2
	id = skaldhyrric.4
	title = skaldhyrric.4.t
	desc = skaldhyrric.4.d
	picture = ANGLICAN_SERMON_eventPicture
	
	is_triggered_only = yes
	
	option = {
		name = skaldhyrric.4.a
		
		set_country_flag = skald_ebonsteel
		change_personal_deity = ebonsteel
	}
	option = {
		name = skaldhyrric.4.b
		
		set_country_flag = skald_ambrstrond
		change_personal_deity = ambrstrond
	}
	option = {
		name = skaldhyrric.4.c
		
		set_country_flag = skald_lineages_adventurers
		change_personal_deity = lineages_of_adventurers
	}
	option = {
		name = skaldhyrric.4.dd
		
		set_country_flag = skald_olav
		change_personal_deity = olav
	}
}

country_event = { #Skald Reform 3
	id = skaldhyrric.5
	title = skaldhyrric.5.title
	desc = skaldhyrric.5.d
	picture = ANGLICAN_SERMON_eventPicture
	
	is_triggered_only = yes
	
	option = {
		name = skaldhyrric.5.a
		trigger = {
			NOT = { has_country_flag = skald_dragon_and_skald }
		}
		
		set_country_flag = skald_dragon_and_skald
		change_personal_deity = emp_the_dragon_and_the_skald
	}
	option = {
		name = skaldhyrric.5.b
		trigger = {
			NOT = { has_country_flag = skald_voyage_north }
		}
		
		set_country_flag = skald_voyage_north
		change_personal_deity = emp_voyage_of_the_north_raider
	}
	option = {
		name = skaldhyrric.5.c
		trigger = {
			NOT = { has_country_flag = skald_beralic }
		}
		
		set_country_flag = skald_beralic
		change_personal_deity = emp_beralic_saga
	}
	option = {
		name = skaldhyrric.5.dd
		trigger = {
			NOT = { has_country_flag = skald_dirge }
		}
		
		set_country_flag = skald_dirge
		change_personal_deity = emp_dirge_of_the_deep
	}
	option = {
		name = skaldhyrric.5.e
		trigger = {
			NOT = { has_country_flag = skald_treasure_golden_forest }
		}
		
		set_country_flag = skald_treasure_golden_forest
		change_personal_deity = emp_treasure_of_the_golden_forest
	}
	option = {
		name = skaldhyrric.5.f
		trigger = {
			NOT = { has_country_flag = skald_winter_lullaby }
		}
		
		set_country_flag = skald_winter_lullaby
		change_personal_deity = emp_the_old_winter_lullaby
	}
	option = {
		name = skaldhyrric.5.g
		trigger = {
			NOT = { has_country_flag = skald_gjalund }
		}
		
		set_country_flag = skald_gjalund
		change_personal_deity = emp_gjalund_and_the_giantslayers
	}
	option = {
		name = skaldhyrric.5.h
		trigger = {
			NOT = { has_country_flag = skald_master_boatbuilders }
		}
		
		set_country_flag = skald_master_boatbuilders
		change_personal_deity = emp_master_boat_builders_of_far_gerudia_beyond
	}
	option = {
		name = skaldhyrric.5.i
		trigger = {
			NOT = { has_country_flag = skald_leif }
		}
		
		set_country_flag = skald_leif
		change_personal_deity = emp_tale_of_leif_snaketongue
	}
	option = {
		name = skaldhyrric.5.j
		trigger = {
			has_country_flag = skald_ebonfrost
		}
		
		set_country_flag = skald_leif_emp
		clr_country_flag = skald_ebonfrost
		change_personal_deity = emp_castan_ebonfrost
	}
	option = {
		name = skaldhyrric.5.k
		trigger = {
			has_country_flag = skald_corin
		}
		
		set_country_flag = skald_corin_emp
		clr_country_flag = skald_corin
		change_personal_deity = emp_skcorin
	}
	option = {
		name = skaldhyrric.5.l
		trigger = {
			has_country_flag = skald_elven_voyages
		}
		
		set_country_flag = skald_elven_voyages_emp
		clr_country_flag = skald_elven_voyages
		change_personal_deity = emp_elven_voyages
	}
	option = {
		name = skaldhyrric.5.m
		trigger = {
			has_country_flag = skald_ebonsteel
		}
		
		set_country_flag = skald_ebonsteel_emp
		clr_country_flag = skald_ebonsteel
		change_personal_deity = emp_ebonsteel
	}
	option = {
		name = skaldhyrric.5.n
		trigger = {
			has_country_flag = skald_ambrstrond
		}
		
		set_country_flag = skald_ambrstrond_emp
		clr_country_flag = skald_ambrstrond
		change_personal_deity = emp_ambrstrond
	}
	option = {
		name = skaldhyrric.5.o
		trigger = {
			has_country_flag = skald_lineages_adventurers
		}
		
		set_country_flag = skald_lineages_adventurers_emp
		clr_country_flag = skald_lineages_adventurers
		change_personal_deity = emp_lineages_of_adventurers
	}
	option = {
		name = skaldhyrric.5.p
		trigger = {
			has_country_flag = skald_olav
		}
		
		set_country_flag = skald_olav_emp
		clr_country_flag = skald_olav
		change_personal_deity = emp_olav
	}
}

province_event = {
	id = skaldhyrric.6
	title = skaldhyrric.6.t
	desc = skaldhyrric.6.d
	picture = ARTWORK_eventPicture
	
	is_triggered_only = yes
	hidden = yes
	
	option = {
		name = skaldhyrric.6.a
		trigger = {
			has_province_modifier = aw_thieves_guild_3
		}
		province_event = {
			id = skaldhyrric.7
		}
	}
	option = {
		name = skaldhyrric.6.a
		trigger = {
			has_province_modifier = aw_bandits_3
		}
		province_event = {
			id = skaldhyrric.8
		}
	}
	option = {
		name = skaldhyrric.6.a
		trigger = {
			has_province_modifier = aw_werewolves_3
		}
		province_event = {
			id = skaldhyrric.9
		}
	}
	option = {
		name = skaldhyrric.6.a
		trigger = {
			has_province_modifier = aw_trolls_3
		}
		province_event = {
			id = skaldhyrric.10
		}
	}
	option = {
		name = skaldhyrric.6.a
		trigger = {
			has_province_modifier = aw_haunted_house_3
		}
		province_event = {
			id = skaldhyrric.11
		}
	}
	option = {
		name = skaldhyrric.6.a
		trigger = {
			has_province_modifier = aw_goblins_3
		}
		province_event = {
			id = skaldhyrric.12
		}
	}
	option = {
		name = skaldhyrric.6.a
		trigger = {
			has_province_modifier = aw_satyrs_3
		}
		province_event = {
			id = skaldhyrric.13
		}
	}
	option = {
		name = skaldhyrric.6.a
		trigger = {
			has_province_modifier = aw_wendigo_3
		}
		province_event = {
			id = skaldhyrric.14
		}
	}
	option = {
		name = skaldhyrric.6.a
		trigger = {
			has_province_modifier = aw_zombies_3
		}
		province_event = {
			id = skaldhyrric.15
		}
	}
	option = {
		name = skaldhyrric.6.a
		trigger = {
			has_province_modifier = aw_vampires_3
		}
		province_event = {
			id = skaldhyrric.16
		}
	}
	option = {
		name = skaldhyrric.6.a
		trigger = {
			has_province_modifier = aw_orcs_3
		}
		province_event = {
			id = skaldhyrric.17
		}
	}
	option = {
		name = skaldhyrric.6.a
		trigger = {
			has_province_modifier = aw_hags_3
		}
		province_event = {
			id = skaldhyrric.18
		}
	}
	option = {
		name = skaldhyrric.6.a
		trigger = {
			has_province_modifier = aw_eldritch_cultists_3
		}
		province_event = {
			id = skaldhyrric.19
		}
	}
}

province_event = {
	id = skaldhyrric.7
	title = skaldhyrric.7.t
	desc = skaldhyrric.7.d
	picture = MULTI_RACIAL_MERC_eventPicture
	
	is_triggered_only = yes
	
	option = {
		name = skaldhyrric.7.a
		owner = {
			add_years_of_income = 0.5
			add_treasury = 50
		}
		add_province_modifier = { name = einher_glorious_victory duration = 1825 }
		remove_province_modifier = aw_thieves_guild_3
	}
}

province_event = {
	id = skaldhyrric.8
	title = skaldhyrric.8.t
	desc = skaldhyrric.8.d
	picture = MULTI_RACIAL_MERC_eventPicture
	
	is_triggered_only = yes
	
	option = {
		name = skaldhyrric.8.a
		owner = {
			add_treasury = 25
		}
		add_devastation = -25
		add_province_modifier = { name = einher_glorious_victory duration = 1825 }
		remove_province_modifier = aw_bandits_3
	}
}

province_event = {
	id = skaldhyrric.9
	title = skaldhyrric.9.t
	desc = skaldhyrric.9.d
	picture = MULTI_RACIAL_MERC_eventPicture
	
	is_triggered_only = yes
	
	option = {
		name = skaldhyrric.9.a
		owner = {
			add_prestige = 5
			add_mil_power = 25
		}
		add_province_modifier = { name = einher_glorious_victory duration = 1825 }
		remove_province_modifier = aw_werewolves_3
	}
}

province_event = {
	id = skaldhyrric.10
	title = skaldhyrric.10.t
	desc = skaldhyrric.10.d
	picture = MULTI_RACIAL_MERC_eventPicture
	
	is_triggered_only = yes
	
	option = {
		name = skaldhyrric.10.a
		owner = {
			add_prestige = 5
			add_estate_loyalty = {
				estate = estate_church
				loyalty = 10
			}
		}
		add_province_modifier = { name = einher_glorious_victory duration = 1825 }
		remove_province_modifier = aw_trolls_3
	}
}

province_event = {
	id = skaldhyrric.11
	title = skaldhyrric.11.t
	desc = skaldhyrric.11.d
	picture = MULTI_RACIAL_MERC_eventPicture
	
	is_triggered_only = yes
	
	option = {
		name = skaldhyrric.12.a
		owner = {
			random_list = {
				33 = {
					change_adm = 1
				}
				33 = {
					change_dip = 1
				}
				33 = {
					change_mil = 1
				}
			}
		}
		add_province_modifier = { name = einher_glorious_victory duration = 1825 }
		remove_province_modifier = aw_haunted_house_3
	}
}

province_event = {
	id = skaldhyrric.12
	title = skaldhyrric.12.t
	desc = skaldhyrric.12.d
	picture = MULTI_RACIAL_MERC_eventPicture
	
	is_triggered_only = yes
	
	option = {
		name = skaldhyrric.12.a
		random_list = {
			33 = {
				owner = { add_treasury = 25 }
			}
			33 = {
				add_base_manpower = 1
			}
			33 = {
				add_base_tax = 1
			}
		}
		add_province_modifier = { name = einher_glorious_victory duration = 1825 }
		remove_province_modifier = aw_goblins_3
	}
}

province_event = {
	id = skaldhyrric.13
	title = skaldhyrric.13.t
	desc = skaldhyrric.13.d
	picture = MULTI_RACIAL_MERC_eventPicture
	
	is_triggered_only = yes
	
	option = {
		name = skaldhyrric.13.a
		owner = { add_stability_or_adm_power = yes }
		add_province_modifier = { name = einher_glorious_victory duration = 1825 }
		remove_province_modifier = aw_satyrs_3
	}
}

province_event = {
	id = skaldhyrric.14
	title = skaldhyrric.14.t
	desc = skaldhyrric.14.d
	picture = MULTI_RACIAL_MERC_eventPicture
	
	is_triggered_only = yes
	
	option = {
		name = skaldhyrric.14.a
		random_list = {
			50 = {
				add_base_production = 1
			}
			50 = {
				add_base_tax = 1
			}
		}
		add_province_modifier = { name = einher_glorious_victory duration = 1825 }
		remove_province_modifier = aw_wendigo_3
	}
}

province_event = {
	id = skaldhyrric.15
	title = skaldhyrric.15.t
	desc = skaldhyrric.15.d
	picture = MULTI_RACIAL_MERC_eventPicture
	
	is_triggered_only = yes
	
	option = {
		name = skaldhyrric.15.a
		owner = {
			random_list = {
				50 = {
					add_mil_power = 25
				}
				50 = {
					add_estate_loyalty = {
						estate = estate_church
						loyalty = 10
					}
				}
			}
		}
		add_province_modifier = { name = einher_glorious_victory duration = 1825 }
		remove_province_modifier = aw_zombies_3
	}
}

province_event = {
	id = skaldhyrric.16
	title = skaldhyrric.16.t
	desc = skaldhyrric.16.d
	picture = MULTI_RACIAL_MERC_eventPicture
	
	is_triggered_only = yes
	
	option = {
		name = skaldhyrric.16.a
		owner = {
			random_list = {
				33 = {
					change_adm = 1
				}
				33 = {
					change_dip = 1
				}
				33 = {
					add_treasury = 50
				}
			}
		}
		add_province_modifier = { name = einher_glorious_victory duration = 1825 }
		remove_province_modifier = aw_vampires_3
	}
}

province_event = {
	id = skaldhyrric.17
	title = skaldhyrric.17.t
	desc = skaldhyrric.17.d
	picture = MULTI_RACIAL_MERC_eventPicture
	
	is_triggered_only = yes
	
	option = {
		name = skaldhyrric.17.a
		random_list = {
			33 = {
				owner = { change_mil = 1 }
			}
			33 = {
				add_base_manpower = 1
			}
			33 = {
				owner = { add_mil_power = 25 }
			}
		}
		add_province_modifier = { name = einher_glorious_victory duration = 1825 }
		remove_province_modifier = aw_orcs_3
	}
}

province_event = {
	id = skaldhyrric.18
	title = skaldhyrric.18.t
	desc = skaldhyrric.18.d
	picture = MULTI_RACIAL_MERC_eventPicture
	
	is_triggered_only = yes
	
	option = {
		name = skaldhyrric.18.a
		owner = { add_country_modifier = { name = einher_hag_victory duration = 1825 } }
		add_province_modifier = { name = einher_glorious_victory duration = 1825 }
		remove_province_modifier = aw_hags_3
	}
}

province_event = {
	id = skaldhyrric.19
	title = skaldhyrric.19.t
	desc = skaldhyrric.19.d
	picture = MULTI_RACIAL_MERC_eventPicture
	
	is_triggered_only = yes
	
	option = {
		name = skaldhyrric.19.a
		owner = { add_country_modifier = { name = einher_cultists_victory duration = 1825 } }
		add_province_modifier = { name = einher_glorious_victory duration = 1825 }
		remove_province_modifier = aw_eldritch_cultists_3
	}
}

country_event = { #Great Hunt start
	id = skaldhyrric.20
	title = skaldhyrric.20.t
	desc = skaldhyrric.20.d
	picture = MERCHANTS_IN_SIBERIA_eventPicture
	
	is_triggered_only = yes
	
	option = { #ruler
		country_event = {
			id = skaldhyrric.21
			days = 1
		}
	}
	option = { #heir
		trigger = { has_heir = yes }
		country_event = {
			id = skaldhyrric.22
			days = 1
		}
	}
}

country_event = { #ruler
	id = skaldhyrric.21
	title = skaldhyrric.21.t
	desc = skaldhyrric.21.d
	picture = COSSACKS_IN_SIBERIA_eventPicture
	
	is_triggered_only = yes
	
	option = { #admin - coordinate hunting plans
		name = skaldhyrric.21.a
		if = {
			limit = { NOT = { adm = 6 } }
			change_adm = 1
		}
		else = {
			add_adm_power = 100
		}
	}
	option = { #dip - allow key ally the kill
		name = skaldhyrric.21.b
		if = {
			limit = { NOT = { dip = 6 } }
			change_dip = 1
		}
		else = {
			add_dip_power = 100
		}
	}
	option = { #mil - chaaarge!
		name = skaldhyrric.21.c
		if = {
			limit = { NOT = { mil = 6 } }
			change_mil = 1
		}
		else = {
			add_mil_power = 100
		}
	}
}

country_event = { #heir
	id = skaldhyrric.22
	title = skaldhyrric.22.t
	desc = skaldhyrric.22.d
	picture = COSSACKS_IN_SIBERIA_eventPicture
	
	is_triggered_only = yes
	
	option = { #admin - coordinate hunting plans
		name = skaldhyrric.22.a
		if = {
			limit = { NOT = { heir_adm = 6 } }
			change_heir_adm = 1
		}
		else = {
			add_adm_power = 100
		}
	}
	option = { #dip - allow key ally the kill
		name = skaldhyrric.22.b
		if = {
			limit = { NOT = { heir_dip = 6 } }
			change_heir_dip = 1
		}
		else = {
			add_dip_power = 100
		}
	}
	option = { #mil - chaaarge!
		name = skaldhyrric.22.c
		if = {
			limit = { NOT = { heir_mil = 6 } }
			change_heir_mil = 1
		}
		else = {
			add_mil_power = 100
		}
	}
}

country_event = { #Outreach with Regent Court/Corinite
	id = skaldhyrric.23
	title = skaldhyrric.23.t
	desc = skaldhyrric.23.d
	picture = PURITANS_eventPicture
	
	trigger = {
		religion = skaldhyrric_faith
		any_owned_province = {
			OR = {
				religion = regent_court
				religion = corinite
			}
		}
	}
	
	mean_time_to_happen = {
		years = 25
	}
	
	immediate = {
		random_owned_province = {
			limit = {
				OR = {
					religion = regent_court
					religion = corinite
				}
			}
			save_event_target_as = skald_regent_court_outreach
		}
	}
	
	option = {
		name = skaldhyrric.23.a
		event_target:skald_regent_court_outreach = {
			add_province_modifier = { name = skald_court_practices duration = 5475 }
			change_religion = skaldhyrric_faith
		}
		add_years_of_owned_provinces_production_income = {
			years = 1
			trigger = {
				has_saved_event_target = skald_regent_court_outreach
			}
		}
	}
	option = {
		name = skaldhyrric.23.b
		add_prestige = -5
		add_estate_loyalty = {
			estate = estate_church
			loyalty = -5
		}
		event_target:skald_regent_court_outreach = {
			add_province_modifier = { name = skald_regent_court_community duration = 5475 }
		}
	}
}

country_event = { #infestation
	id = skaldhyrric.24
	title = skaldhyrric.24.t
	desc = skaldhyrric.24.d
	picture = ARTWORK_eventPicture
	
	hidden = yes
	trigger = {
		religion = skaldhyrric_faith
	}
	mean_time_to_happen = {
		years = 50
	}
	
	immediate = {
		random_owned_province = {
			limit = {
				NOT = {
					has_infestation_1 = yes
					has_infestation_2 = yes
					has_infestation_3 = yes
				}
			}
			save_event_target_as = skald_monster_spawner
		}
	}
	option = {
		event_target:skald_monster_spawner = {
			random_list = {
				10 = { #Trolls
					modifier = {
						factor = 5
						OR = {
							has_terrain = mountain
							has_terrain = hills
							has_terrain = highlands
						}
					}
					modifier = {
						factor = 2
						OR = {
							has_terrain = forest
							has_terrain = woods
						}
					}
					province_event = { id = aw_trolls.0 }
				}
				2 = { #Hags
					modifier = {
						factor = 5
						OR = {
							area = ismark_area
							area = kaldrland_area
							area = alptborg_area
							area = gullmork_area
							area = gifrbygd_area
						}
					}
					province_event = { id = aw_hags.0 }
				}
				4 = { #Ghouls
					modifier = {
						factor = 5
						OR = {
							area = leifsborg_area
							has_terrain = marsh
						}
					}
					modifier = {
						factor = 2
						has_port = yes
					}
					province_event = { id = aw_ghouls.0 }
				}
				4 = { #Zombies
					modifier = {
						factor = 5
						OR = {
							area = leifsborg_area
							has_terrain = marsh
						}
					}
					modifier = {
						factor = 2
						has_port = yes
					}
					province_event = { id = aw_zombies.0 }
				}
				10 = { #Werewolves
					modifier = {
						factor = 10
						OR = {
							area = sidaett_area
							area = nyrford_area
							area = naugsvol_area
						}
					}
					province_event = { id = aw_werewolves.0 }
				}
				5 = { #Cultists
					modifier = {
						factor = 10
						OR = {
							province_id = 970
							area = elkaesals_slumber_area
							area = olavslund_area
						}
					}
					province_event = { id = aw_eldritch_cultists.0 }
				}
				5 = {
					modifier = {
						factor = 2
						OR = {
							has_terrain = mountain
							has_terrain = hills
							has_terrain = highlands
							has_terrain = coastline
						}
					}
					province_event = { id = aw_wyvern.0 }
				}
			}
		}
	}
}

country_event = { #skaldic singing competition
	id = skaldhyrric.25
	title = skaldhyrric.25.t
	desc = skaldhyrric.25.d
	picture = bonfire_of_the_vanities_eventpicture
	
	trigger = {
		religion = skaldhyrric_faith
	}
	
	mean_time_to_happen = {
		years = 40
	}
	
	option = { #enter competition!
		name = skaldhyrric.25.a
		trigger = {
			ruler_has_personality = mage_personality
		}
		if = {
			limit = { OR = { has_personal_deity = the_dragon_and_the_skald has_personal_deity = emp_the_dragon_and_the_skald } }
			add_country_modifier = { name = recite_dragon duration = 7300 }
		}
		else_if = {
			limit = { OR = { has_personal_deity = voyage_of_the_north_raider has_personal_deity = emp_voyage_of_the_north_raider } }
			add_country_modifier = { name = recite_voyage duration = 7300 }
		}
		else_if = {
			limit = { OR = { has_personal_deity = beralic_saga has_personal_deity = emp_beralic_saga } }
			add_country_modifier = { name = recite_beralic duration = 7300 }
		}
		else_if = {
			limit = { OR = { has_personal_deity = dirge_of_the_deep has_personal_deity = emp_dirge_of_the_deep } }
			add_country_modifier = { name = recite_dirge duration = 7300 }
		}
		else_if = {
			limit = { OR = { has_personal_deity = treasure_of_the_golden_forest has_personal_deity = emp_treasure_of_the_golden_forest } }
			add_country_modifier = { name = recite_treasure duration = 7300 }
		}
		else_if = {
			limit = { OR = { has_personal_deity = the_old_winter_lullaby has_personal_deity = emp_the_old_winter_lullaby } }
			add_country_modifier = { name = recite_lullaby duration = 7300 }
		}
		else_if = {
			limit = { OR = { has_personal_deity = gjalund_and_the_giantslayers has_personal_deity = emp_gjalund_and_the_giantslayers } }
			add_country_modifier = { name = recite_gjalund duration = 7300 }
		}
		else_if = {
			limit = { OR = { has_personal_deity = master_boat_builders_of_far_gerudia_beyond has_personal_deity = emp_master_boat_builders_of_far_gerudia_beyond } }
			add_country_modifier = { name = recite_master_boat duration = 7300 }
		}
		else_if = {
			limit = { OR = { has_personal_deity = tale_of_leif_snaketongue has_personal_deity = emp_tale_of_leif_snaketongue } }
			add_country_modifier = { name = recite_leif duration = 7300 }
		}
		else_if = {
			limit = { OR = { has_personal_deity = castan_ebonfrost has_personal_deity = emp_castan_ebonfrost } }
			add_country_modifier = { name = recite_ebonfrost duration = 7300 }
		}
		else_if = {
			limit = { OR = { has_personal_deity = skcorin has_personal_deity = emp_skcorin } }
			add_country_modifier = { name = recite_corin duration = 7300 }
		}
		else_if = {
			limit = { OR = { has_personal_deity = elven_voyages has_personal_deity = emp_elven_voyages } }
			add_country_modifier = { name = recite_elven duration = 7300 }
		}
		else_if = {
			limit = { OR = { has_personal_deity = ebonsteel has_personal_deity = emp_ebonsteel } }
			add_country_modifier = { name = recite_ebonsteel duration = 7300 }
		}
		else_if = {
			limit = { OR = { has_personal_deity = ambrstrond has_personal_deity = emp_ambrstrond } }
			add_country_modifier = { name = recite_ambrstrond duration = 7300 }
		}
		else_if = {
			limit = { OR = { has_personal_deity = lineages_of_adventurers has_personal_deity = emp_lineages_of_adventurers } }
			add_country_modifier = { name = recite_lineage duration = 7300 }
		}
		else_if = {
			limit = { OR = { has_personal_deity = olav has_personal_deity = emp_olav } }
			add_country_modifier = { name = recite_olav duration = 7300 }
		}
		add_estate_loyalty = {
			estate = estate_church
			loyalty = -5
		}
	}
	option = { #do not interfere
		name = skaldhyrric.25.b
		random = {
			chance = 25
			add_stability_or_adm_power = yes
		}
	}
}

country_event = { #unorthodox tales
	id = skaldhyrric.29
	title = skaldhyrric.29.t
	desc = skaldhyrric.29.d
	picture = ANGRY_SHAMANS_eventPicture
	
	trigger = {
		religion = skaldhyrric_faith
	}
	
	mean_time_to_happen = {
		years = 30
	}
	
	immediate = {
		random_owned_province = {
			limit = {
				religion = skaldhyrric_faith
			}
			save_event_target_as = skald_unorthodox_tales
		}
	}
	
	option = { #stop them
		name = skaldhyrric.29.a
		event_target:skald_unorthodox_tales ={
			add_province_modifier = { name = skald_unorthodox_discontent duration = 5475 }
			add_local_autonomy = 5
		}
		add_adm_power = -15
		add_dip_power = -15
		add_mil_power = -15
		add_legitimacy_equivalent = { amount = 5 republican_tradition = 2 }
		add_estate_loyalty = {
			estate = estate_church
			loyalty = 5
		}
	}
	option = { #allow it
		name = skaldhyrric.29.b
		event_target:skald_unorthodox_tales ={
			add_province_modifier = { name = skald_unorthodox_allowed duration = 5475 }
			add_local_autonomy = 15
		}
		add_legitimacy_equivalent = { amount = -10 republican_tradition = -5 }
		add_estate_loyalty = {
			estate = estate_church
			loyalty = -5
		}
	}
	option = { #convince skalds to authenticate
		name = skaldhyrric.29.c
		trigger = {
			OR = {
				ruler_has_personality = tolerant_personality
				ruler_has_personality = free_thinker_personality
				ruler_has_personality = benevolent_personality
				ruler_has_personality = sinner_personality
			}
		}
		highlight = yes
		event_target:skald_unorthodox_tales ={
			add_province_modifier = { name = skald_unorthodox_celebrations duration = 5475 }
		}
		add_treasury = -25
	}
}

country_event = { #good hunting season
	id = skaldhyrric.30
	title = skaldhyrric.30.t
	desc = skaldhyrric.30.d
	picture = TRADE_GOODS_FURS_FISH_AND_SALT_eventPicture
	
	trigger = {
		religion = skaldhyrric_faith
	}
	
	mean_time_to_happen = {
		years = 30
		
		modifier = {
			factor = 0.75
			estate_loyalty = {
				estate = estate_church
				loyalty = 65
			}
		}
	}
	
	option = { #use opportunity
		name = skaldhyrric.30.a
		
		add_country_modifier = { name = skald_good_hunting duration = 365 }
		custom_tooltip = skald_hunting_tooltip
	}
	option = { #offer bounties
		name = skaldhyrric.30.b
		
		add_years_of_owned_provinces_production_income = {
			years = 0.5
			trigger = {
				superregion = gerudia_superregion
				trade_goods = fur
			}
		}
	}
	option = { #diplomatic hunting requires leader traits
		name = skaldhyrric.30.c
		
		trigger = {
			OR = {
				ruler_has_personality = well_advised_personality
				ruler_has_personality = charismatic_negotiator_personality
				ruler_has_personality = silver_tongue_personality
				ruler_has_personality = fierce_negotiator_personality
				ruler_has_personality = benevolent_personality
			}
		}
		add_country_modifier = {
			name = skald_social_hunts
			duration = 1825
		}
	}
}

country_event = { #cold year
	id = skaldhyrric.31
	title = skaldhyrric.31.t
	desc = skaldhyrric.31.d
	picture = FAMINE_eventPicture
	
	trigger = {
		religion = skaldhyrric_faith
	}
	
	mean_time_to_happen = {
		years = 30
		
		modifier = {
			factor = 0.5
			NOT = { has_legitimacy_equivalent = { VAL = 50 } }
		}
	}
	
	option = {
		name = skaldhyrric.31.a
		add_years_of_income = -1
		add_legitimacy_equivalent = { amount = -10 republican_tradition = -5 }
		random = {
			chance = 33
			add_stability = -1
		}
	}
}

country_event = { #doubt in ruler 
	id = skaldhyrric.32
	title = skaldhyrric.32.t
	desc = skaldhyrric.32.d
	picture = BATTLE_eventPicture
	
	trigger = {
		religion = skaldhyrric_faith
	}
	
	mean_time_to_happen = {
		years = 50
		
		modifier = {
			factor = 0.75
			NOT = { has_legitimacy_equivalent = { VAL = 50 } }
		}
		modifier = {
			factor = 0.5
			NOT = { has_legitimacy_equivalent = { VAL = 33 } }
		}
	}
	
	option = {
		name = skaldhyrric.32.a
		
		add_stability = -1
		random_owned_province = {
			limit = {
				superregion = gerudia_superregion
				religion = skaldhyrric_faith
			}
			spawn_rebels = {
				type = pretender_rebels
				size = 3
			}
		}
	}
}