
# trollsbay_promote_harmonist_ideals = {

# 	category = 4

# 	allow = {
# 		has_reform = trollsbayer_pluralism_reform
# 		any_owned_province = {
# 			has_province_modifier = H33_sovereignist_opposition
# 		}
# 	}
	
# 	effect = {
# 		custom_tooltip = H33_remove_sovereignist_opposition_tt
# 		hidden_effect = {
# 			every_owned_province = {
# 				limit = { has_province_modifier = H33_sovereignist_opposition }
# 				remove_province_modifier = H33_sovereignist_opposition
# 				#add_local_autonomy = -25
# 				add_nationalism = -20
# 			}
# 		}
# 		add_corruption = 2
# 	}
	
# 	modifier = {
# 		autonomy_change_time = -0.5
# 	}
	
# 	chance = {
# 		factor = 1000
# 	}

# 	ai_will_do = {
# 		factor = 100
# 	}
# }
